%!PS-Adobe-3.0 EPSF-3.0
%%Title: alphau_total.eps
%%Creator: matplotlib version 1.4.0, http://matplotlib.org/
%%CreationDate: Fri Mar  4 14:45:10 2016
%%Orientation: portrait
%%BoundingBox: 18 180 594 612
%%EndComments
%%BeginProlog
/mpldict 8 dict def
mpldict begin
/m { moveto } bind def
/l { lineto } bind def
/r { rlineto } bind def
/c { curveto } bind def
/cl { closepath } bind def
/box {
m
1 index 0 r
0 exch r
neg 0 r
cl
} bind def
/clipbox {
box
clip
newpath
} bind def
%!PS-Adobe-3.0 Resource-Font
%%Title: Bitstream Vera Sans
%%Copyright: Copyright (c) 2003 by Bitstream, Inc. All Rights Reserved.
%%Creator: Converted from TrueType to type 3 by PPR
25 dict begin
/_d{bind def}bind def
/_m{moveto}_d
/_l{lineto}_d
/_cl{closepath eofill}_d
/_c{curveto}_d
/_sc{7 -1 roll{setcachedevice}{pop pop pop pop pop pop}ifelse}_d
/_e{exec}_d
/FontName /BitstreamVeraSans-Roman def
/PaintType 0 def
/FontMatrix[.001 0 0 .001 0 0]def
/FontBBox[-183 -236 1287 928]def
/FontType 3 def
/Encoding [ /space /parenleft /parenright /period /zero /one /two /three /four /five /six /eight /A /E /T /U /a /d /e /g /h /l /n /o /p /r /s /t /u /y /minus ] def
/FontInfo 10 dict dup begin
/FamilyName (Bitstream Vera Sans) def
/FullName (Bitstream Vera Sans) def
/Notice (Copyright (c) 2003 by Bitstream, Inc. All Rights Reserved. Bitstream Vera is a trademark of Bitstream, Inc.) def
/Weight (Roman) def
/Version (Release 1.10) def
/ItalicAngle 0.0 def
/isFixedPitch false def
/UnderlinePosition -213 def
/UnderlineThickness 143 def
end readonly def
/CharStrings 31 dict dup begin
/space{318 0 0 0 0 0 _sc
}_d
/parenleft{390 0 86 -131 310 759 _sc
310 759 _m
266 683 234 609 213 536 _c
191 463 181 389 181 314 _c
181 238 191 164 213 91 _c
234 17 266 -56 310 -131 _c
232 -131 _l
183 -54 146 20 122 94 _c
98 168 86 241 86 314 _c
86 386 98 459 122 533 _c
146 607 182 682 232 759 _c
310 759 _l
_cl}_d
/parenright{390 0 80 -131 304 759 _sc
80 759 _m
158 759 _l
206 682 243 607 267 533 _c
291 459 304 386 304 314 _c
304 241 291 168 267 94 _c
243 20 206 -54 158 -131 _c
80 -131 _l
123 -56 155 17 177 91 _c
198 164 209 238 209 314 _c
209 389 198 463 177 536 _c
155 609 123 683 80 759 _c
_cl}_d
/period{318 0 107 0 210 124 _sc
107 124 _m
210 124 _l
210 0 _l
107 0 _l
107 124 _l
_cl}_d
/zero{636 0 66 -13 570 742 _sc
318 664 _m
267 664 229 639 203 589 _c
177 539 165 464 165 364 _c
165 264 177 189 203 139 _c
229 89 267 64 318 64 _c
369 64 407 89 433 139 _c
458 189 471 264 471 364 _c
471 464 458 539 433 589 _c
407 639 369 664 318 664 _c
318 742 _m
399 742 461 709 505 645 _c
548 580 570 486 570 364 _c
570 241 548 147 505 83 _c
461 19 399 -13 318 -13 _c
236 -13 173 19 130 83 _c
87 147 66 241 66 364 _c
66 486 87 580 130 645 _c
173 709 236 742 318 742 _c
_cl}_d
/one{636 0 110 0 544 729 _sc
124 83 _m
285 83 _l
285 639 _l
110 604 _l
110 694 _l
284 729 _l
383 729 _l
383 83 _l
544 83 _l
544 0 _l
124 0 _l
124 83 _l
_cl}_d
/two{{636 0 73 0 536 742 _sc
192 83 _m
536 83 _l
536 0 _l
73 0 _l
73 83 _l
110 121 161 173 226 239 _c
290 304 331 346 348 365 _c
380 400 402 430 414 455 _c
426 479 433 504 433 528 _c
433 566 419 598 392 622 _c
365 646 330 659 286 659 _c
255 659 222 653 188 643 _c
154 632 117 616 78 594 _c
78 694 _l
118 710 155 722 189 730 _c
223 738 255 742 284 742 _c
}_e{359 742 419 723 464 685 _c
509 647 532 597 532 534 _c
532 504 526 475 515 449 _c
504 422 484 390 454 354 _c
446 344 420 317 376 272 _c
332 227 271 164 192 83 _c
_cl}_e}_d
/three{{636 0 76 -13 556 742 _sc
406 393 _m
453 383 490 362 516 330 _c
542 298 556 258 556 212 _c
556 140 531 84 482 45 _c
432 6 362 -13 271 -13 _c
240 -13 208 -10 176 -4 _c
144 1 110 10 76 22 _c
76 117 _l
103 101 133 89 166 81 _c
198 73 232 69 268 69 _c
330 69 377 81 409 105 _c
441 129 458 165 458 212 _c
458 254 443 288 413 312 _c
383 336 341 349 287 349 _c
}_e{202 349 _l
202 430 _l
291 430 _l
339 430 376 439 402 459 _c
428 478 441 506 441 543 _c
441 580 427 609 401 629 _c
374 649 336 659 287 659 _c
260 659 231 656 200 650 _c
169 644 135 635 98 623 _c
98 711 _l
135 721 170 729 203 734 _c
235 739 266 742 296 742 _c
370 742 429 725 473 691 _c
517 657 539 611 539 553 _c
539 513 527 479 504 451 _c
481 423 448 403 406 393 _c
_cl}_e}_d
/four{636 0 49 0 580 729 _sc
378 643 _m
129 254 _l
378 254 _l
378 643 _l
352 729 _m
476 729 _l
476 254 _l
580 254 _l
580 172 _l
476 172 _l
476 0 _l
378 0 _l
378 172 _l
49 172 _l
49 267 _l
352 729 _l
_cl}_d
/five{{636 0 77 -13 549 729 _sc
108 729 _m
495 729 _l
495 646 _l
198 646 _l
198 467 _l
212 472 227 476 241 478 _c
255 480 270 482 284 482 _c
365 482 429 459 477 415 _c
525 370 549 310 549 234 _c
549 155 524 94 475 51 _c
426 8 357 -13 269 -13 _c
238 -13 207 -10 175 -6 _c
143 -1 111 6 77 17 _c
77 116 _l
106 100 136 88 168 80 _c
199 72 232 69 267 69 _c
}_e{323 69 368 83 401 113 _c
433 143 450 183 450 234 _c
450 284 433 324 401 354 _c
368 384 323 399 267 399 _c
241 399 214 396 188 390 _c
162 384 135 375 108 363 _c
108 729 _l
_cl}_e}_d
/six{{636 0 70 -13 573 742 _sc
330 404 _m
286 404 251 388 225 358 _c
199 328 186 286 186 234 _c
186 181 199 139 225 109 _c
251 79 286 64 330 64 _c
374 64 409 79 435 109 _c
461 139 474 181 474 234 _c
474 286 461 328 435 358 _c
409 388 374 404 330 404 _c
526 713 _m
526 623 _l
501 635 476 644 451 650 _c
425 656 400 659 376 659 _c
310 659 260 637 226 593 _c
}_e{192 549 172 482 168 394 _c
187 422 211 444 240 459 _c
269 474 301 482 336 482 _c
409 482 467 459 509 415 _c
551 371 573 310 573 234 _c
573 159 550 99 506 54 _c
462 9 403 -13 330 -13 _c
246 -13 181 19 137 83 _c
92 147 70 241 70 364 _c
70 479 97 571 152 639 _c
206 707 280 742 372 742 _c
396 742 421 739 447 735 _c
472 730 498 723 526 713 _c
_cl}_e}_d
/eight{{636 0 68 -13 568 742 _sc
318 346 _m
271 346 234 333 207 308 _c
180 283 167 249 167 205 _c
167 161 180 126 207 101 _c
234 76 271 64 318 64 _c
364 64 401 76 428 102 _c
455 127 469 161 469 205 _c
469 249 455 283 429 308 _c
402 333 365 346 318 346 _c
219 388 _m
177 398 144 418 120 447 _c
96 476 85 511 85 553 _c
85 611 105 657 147 691 _c
188 725 245 742 318 742 _c
}_e{390 742 447 725 489 691 _c
530 657 551 611 551 553 _c
551 511 539 476 515 447 _c
491 418 459 398 417 388 _c
464 377 501 355 528 323 _c
554 291 568 251 568 205 _c
568 134 546 80 503 43 _c
459 5 398 -13 318 -13 _c
237 -13 175 5 132 43 _c
89 80 68 134 68 205 _c
68 251 81 291 108 323 _c
134 355 171 377 219 388 _c
183 544 _m
183 506 194 476 218 455 _c
}_e{242 434 275 424 318 424 _c
360 424 393 434 417 455 _c
441 476 453 506 453 544 _c
453 582 441 611 417 632 _c
393 653 360 664 318 664 _c
275 664 242 653 218 632 _c
194 611 183 582 183 544 _c
_cl}_e}_d
/A{684 0 8 0 676 729 _sc
342 632 _m
208 269 _l
476 269 _l
342 632 _l
286 729 _m
398 729 _l
676 0 _l
573 0 _l
507 187 _l
178 187 _l
112 0 _l
8 0 _l
286 729 _l
_cl}_d
/E{632 0 98 0 568 729 _sc
98 729 _m
559 729 _l
559 646 _l
197 646 _l
197 430 _l
544 430 _l
544 347 _l
197 347 _l
197 83 _l
568 83 _l
568 0 _l
98 0 _l
98 729 _l
_cl}_d
/T{611 0 -2 0 614 729 _sc
-2 729 _m
614 729 _l
614 646 _l
355 646 _l
355 0 _l
256 0 _l
256 646 _l
-2 646 _l
-2 729 _l
_cl}_d
/U{732 0 87 -13 645 729 _sc
87 729 _m
186 729 _l
186 286 _l
186 208 200 151 228 117 _c
256 83 302 66 366 66 _c
429 66 475 83 503 117 _c
531 151 546 208 546 286 _c
546 729 _l
645 729 _l
645 274 _l
645 178 621 107 574 59 _c
527 11 458 -13 366 -13 _c
274 -13 204 11 157 59 _c
110 107 87 178 87 274 _c
87 729 _l
_cl}_d
/a{{613 0 60 -13 522 560 _sc
343 275 _m
270 275 220 266 192 250 _c
164 233 150 205 150 165 _c
150 133 160 107 181 89 _c
202 70 231 61 267 61 _c
317 61 357 78 387 114 _c
417 149 432 196 432 255 _c
432 275 _l
343 275 _l
522 312 _m
522 0 _l
432 0 _l
432 83 _l
411 49 385 25 355 10 _c
325 -5 287 -13 243 -13 _c
187 -13 142 2 109 33 _c
76 64 60 106 60 159 _c
}_e{60 220 80 266 122 298 _c
163 329 224 345 306 345 _c
432 345 _l
432 354 _l
432 395 418 427 391 450 _c
364 472 326 484 277 484 _c
245 484 215 480 185 472 _c
155 464 127 453 100 439 _c
100 522 _l
132 534 164 544 195 550 _c
226 556 256 560 286 560 _c
365 560 424 539 463 498 _c
502 457 522 395 522 312 _c
_cl}_e}_d
/d{{635 0 55 -13 544 760 _sc
454 464 _m
454 760 _l
544 760 _l
544 0 _l
454 0 _l
454 82 _l
435 49 411 25 382 10 _c
353 -5 319 -13 279 -13 _c
213 -13 159 13 117 65 _c
75 117 55 187 55 273 _c
55 359 75 428 117 481 _c
159 533 213 560 279 560 _c
319 560 353 552 382 536 _c
411 520 435 496 454 464 _c
148 273 _m
148 207 161 155 188 117 _c
215 79 253 61 301 61 _c
}_e{348 61 385 79 413 117 _c
440 155 454 207 454 273 _c
454 339 440 390 413 428 _c
385 466 348 485 301 485 _c
253 485 215 466 188 428 _c
161 390 148 339 148 273 _c
_cl}_e}_d
/e{{615 0 55 -13 562 560 _sc
562 296 _m
562 252 _l
149 252 _l
153 190 171 142 205 110 _c
238 78 284 62 344 62 _c
378 62 412 66 444 74 _c
476 82 509 95 541 113 _c
541 28 _l
509 14 476 3 442 -3 _c
408 -9 373 -13 339 -13 _c
251 -13 182 12 131 62 _c
80 112 55 181 55 268 _c
55 357 79 428 127 481 _c
175 533 241 560 323 560 _c
397 560 455 536 498 489 _c
}_e{540 441 562 377 562 296 _c
472 322 _m
471 371 457 410 431 440 _c
404 469 368 484 324 484 _c
274 484 234 469 204 441 _c
174 413 156 373 152 322 _c
472 322 _l
_cl}_e}_d
/g{{635 0 55 -207 544 560 _sc
454 280 _m
454 344 440 395 414 431 _c
387 467 349 485 301 485 _c
253 485 215 467 188 431 _c
161 395 148 344 148 280 _c
148 215 161 165 188 129 _c
215 93 253 75 301 75 _c
349 75 387 93 414 129 _c
440 165 454 215 454 280 _c
544 68 _m
544 -24 523 -93 482 -139 _c
440 -184 377 -207 292 -207 _c
260 -207 231 -204 203 -200 _c
175 -195 147 -188 121 -178 _c
}_e{121 -91 _l
147 -105 173 -115 199 -122 _c
225 -129 251 -133 278 -133 _c
336 -133 380 -117 410 -87 _c
439 -56 454 -10 454 52 _c
454 96 _l
435 64 411 40 382 24 _c
353 8 319 0 279 0 _c
211 0 157 25 116 76 _c
75 127 55 195 55 280 _c
55 364 75 432 116 483 _c
157 534 211 560 279 560 _c
319 560 353 552 382 536 _c
411 520 435 496 454 464 _c
454 547 _l
544 547 _l
}_e{544 68 _l
_cl}_e}_d
/h{634 0 91 0 549 760 _sc
549 330 _m
549 0 _l
459 0 _l
459 327 _l
459 379 448 417 428 443 _c
408 469 378 482 338 482 _c
289 482 251 466 223 435 _c
195 404 181 362 181 309 _c
181 0 _l
91 0 _l
91 760 _l
181 760 _l
181 462 _l
202 494 227 519 257 535 _c
286 551 320 560 358 560 _c
420 560 468 540 500 501 _c
532 462 549 405 549 330 _c
_cl}_d
/l{278 0 94 0 184 760 _sc
94 760 _m
184 760 _l
184 0 _l
94 0 _l
94 760 _l
_cl}_d
/n{634 0 91 0 549 560 _sc
549 330 _m
549 0 _l
459 0 _l
459 327 _l
459 379 448 417 428 443 _c
408 469 378 482 338 482 _c
289 482 251 466 223 435 _c
195 404 181 362 181 309 _c
181 0 _l
91 0 _l
91 547 _l
181 547 _l
181 462 _l
202 494 227 519 257 535 _c
286 551 320 560 358 560 _c
420 560 468 540 500 501 _c
532 462 549 405 549 330 _c
_cl}_d
/o{612 0 55 -13 557 560 _sc
306 484 _m
258 484 220 465 192 427 _c
164 389 150 338 150 273 _c
150 207 163 156 191 118 _c
219 80 257 62 306 62 _c
354 62 392 80 420 118 _c
448 156 462 207 462 273 _c
462 337 448 389 420 427 _c
392 465 354 484 306 484 _c
306 560 _m
384 560 445 534 490 484 _c
534 433 557 363 557 273 _c
557 183 534 113 490 63 _c
445 12 384 -13 306 -13 _c
227 -13 165 12 121 63 _c
77 113 55 183 55 273 _c
55 363 77 433 121 484 _c
165 534 227 560 306 560 _c
_cl}_d
/p{{635 0 91 -207 580 560 _sc
181 82 _m
181 -207 _l
91 -207 _l
91 547 _l
181 547 _l
181 464 _l
199 496 223 520 252 536 _c
281 552 316 560 356 560 _c
422 560 476 533 518 481 _c
559 428 580 359 580 273 _c
580 187 559 117 518 65 _c
476 13 422 -13 356 -13 _c
316 -13 281 -5 252 10 _c
223 25 199 49 181 82 _c
487 273 _m
487 339 473 390 446 428 _c
418 466 381 485 334 485 _c
}_e{286 485 249 466 222 428 _c
194 390 181 339 181 273 _c
181 207 194 155 222 117 _c
249 79 286 61 334 61 _c
381 61 418 79 446 117 _c
473 155 487 207 487 273 _c
_cl}_e}_d
/r{411 0 91 0 411 560 _sc
411 463 _m
401 469 390 473 378 476 _c
366 478 353 480 339 480 _c
288 480 249 463 222 430 _c
194 397 181 350 181 288 _c
181 0 _l
91 0 _l
91 547 _l
181 547 _l
181 462 _l
199 495 224 520 254 536 _c
284 552 321 560 365 560 _c
371 560 378 559 386 559 _c
393 558 401 557 411 555 _c
411 463 _l
_cl}_d
/s{{521 0 54 -13 472 560 _sc
443 531 _m
443 446 _l
417 458 391 468 364 475 _c
336 481 308 485 279 485 _c
234 485 200 478 178 464 _c
156 450 145 430 145 403 _c
145 382 153 366 169 354 _c
185 342 217 330 265 320 _c
296 313 _l
360 299 405 279 432 255 _c
458 230 472 195 472 151 _c
472 100 452 60 412 31 _c
372 1 316 -13 246 -13 _c
216 -13 186 -10 154 -5 _c
}_e{122 0 89 8 54 20 _c
54 113 _l
87 95 120 82 152 74 _c
184 65 216 61 248 61 _c
290 61 323 68 346 82 _c
368 96 380 117 380 144 _c
380 168 371 187 355 200 _c
339 213 303 226 247 238 _c
216 245 _l
160 257 119 275 95 299 _c
70 323 58 356 58 399 _c
58 450 76 490 112 518 _c
148 546 200 560 268 560 _c
301 560 332 557 362 552 _c
391 547 418 540 443 531 _c
}_e{_cl}_e}_d
/t{392 0 27 0 368 702 _sc
183 702 _m
183 547 _l
368 547 _l
368 477 _l
183 477 _l
183 180 _l
183 135 189 106 201 94 _c
213 81 238 75 276 75 _c
368 75 _l
368 0 _l
276 0 _l
206 0 158 13 132 39 _c
106 65 93 112 93 180 _c
93 477 _l
27 477 _l
27 547 _l
93 547 _l
93 702 _l
183 702 _l
_cl}_d
/u{634 0 85 -13 543 547 _sc
85 216 _m
85 547 _l
175 547 _l
175 219 _l
175 167 185 129 205 103 _c
225 77 255 64 296 64 _c
344 64 383 79 411 110 _c
439 141 453 183 453 237 _c
453 547 _l
543 547 _l
543 0 _l
453 0 _l
453 84 _l
431 50 405 26 377 10 _c
348 -5 315 -13 277 -13 _c
214 -13 166 6 134 45 _c
101 83 85 140 85 216 _c
_cl}_d
/y{592 0 30 -207 562 547 _sc
322 -50 _m
296 -114 271 -157 247 -177 _c
223 -197 191 -207 151 -207 _c
79 -207 _l
79 -132 _l
132 -132 _l
156 -132 175 -126 189 -114 _c
203 -102 218 -75 235 -31 _c
251 9 _l
30 547 _l
125 547 _l
296 119 _l
467 547 _l
562 547 _l
322 -50 _l
_cl}_d
/minus{838 0 106 272 732 355 _sc
106 355 _m
732 355 _l
732 272 _l
106 272 _l
106 355 _l
_cl}_d
end readonly def

/BuildGlyph
 {exch begin
 CharStrings exch
 2 copy known not{pop /.notdef}if
 true 3 1 roll get exec
 end}_d

/BuildChar {
 1 index /Encoding get exch get
 1 index /BuildGlyph get exec
}_d

FontName currentdict end definefont pop
end
%%EndProlog
mpldict begin
18 180 translate
576 432 0 0 clipbox
gsave
0 0 m
576 0 l
576 432 l
0 432 l
cl
1.000 setgray
fill
grestore
gsave
72 43.2 m
518.4 43.2 l
518.4 388.8 l
72 388.8 l
cl
1.000 setgray
fill
grestore
1.500 setlinewidth
1 setlinejoin
0 setlinecap
[6 6] 0 setdash
0.000 0.000 1.000 setrgbcolor
gsave
446.4 345.6 72 43.2 clipbox
72 342.1 m
153.84 342.009 l
158.304 341.863 l
162.768 341.491 l
167.232 340.768 l
171.696 339.799 l
173.184 339.337 l
176.16 338.017 l
177.648 337.071 l
179.136 335.967 l
180.624 334.626 l
183.6 332.497 l
185.088 331.229 l
188.064 329.681 l
191.04 328.48 l
192.528 327.067 l
194.016 324.759 l
195.504 322.683 l
196.992 321.713 l
198.48 321.322 l
199.968 319.48 l
201.456 316.551 l
202.944 314.95 l
204.432 314.244 l
205.92 312.354 l
207.408 310.096 l
208.896 308.67 l
210.384 307.84 l
211.872 307.4 l
214.848 305.805 l
216.336 304.992 l
217.824 304.493 l
219.312 303.837 l
225.264 302.264 l
228.24 301.121 l
229.728 300.507 l
231.216 299.742 l
234.192 298.619 l
237.168 297.096 l
240.144 295.785 l
244.608 294.616 l
249.072 293.836 l
256.512 292.866 l
269.904 291.534 l
274.368 291.219 l
284.784 290.68 l
304.128 289.641 l
308.592 288.831 l
310.08 288.211 l
313.056 287.372 l
317.52 286.788 l
319.008 286.268 l
320.496 285.268 l
323.472 283.729 l
324.96 283.227 l
326.448 283.05 l
330.912 282.258 l
332.4 282.012 l
336.864 280.61 l
338.352 280.204 l
344.304 279.433 l
357.696 277.91 l
377.04 276.585 l
384.48 276.309 l
400.848 275.948 l
415.728 275.657 l
427.632 275.191 l
436.56 274.745 l
454.416 273.271 l
458.88 272.627 l
463.344 272.311 l
481.2 271.423 l
503.52 270.945 l
519.888 270.742 l
519.888 270.742 l
stroke
grestore
2 setlinecap
[] 0 setdash
0.000 0.500 0.000 setrgbcolor
gsave
446.4 345.6 72 43.2 clipbox
72 342.1 m
156.816 341.999 l
159.792 341.862 l
162.768 341.483 l
165.744 340.785 l
168.72 339.791 l
173.184 338.033 l
176.16 336.431 l
177.648 335.418 l
179.136 334.224 l
182.112 331.479 l
185.088 329.162 l
188.064 327.482 l
189.552 327.014 l
191.04 326.082 l
192.528 324.443 l
194.016 321.667 l
195.504 320.063 l
196.992 318.648 l
198.48 317.974 l
199.968 316.346 l
201.456 313.843 l
202.944 312.497 l
205.92 308.276 l
207.408 306.709 l
208.896 304.511 l
210.384 303.493 l
213.36 302.004 l
214.848 301.054 l
226.752 296.884 l
228.24 296.42 l
234.192 293.831 l
238.656 292.641 l
240.144 292.157 l
246.096 290.816 l
258 288.502 l
260.976 288.114 l
265.44 287.602 l
272.88 286.588 l
278.832 286.095 l
296.688 284.803 l
299.664 284.393 l
302.64 284.142 l
305.616 283.509 l
308.592 283.018 l
310.08 282.579 l
311.568 282.374 l
313.056 282.039 l
317.52 280.531 l
319.008 279.768 l
320.496 279.404 l
323.472 279.152 l
327.936 278.259 l
329.424 277.721 l
332.4 277.072 l
338.352 276.36 l
359.184 274.003 l
384.48 272.859 l
429.12 271.572 l
439.536 270.969 l
444 270.698 l
446.976 270.429 l
449.952 270.083 l
455.904 269.517 l
466.32 268.97 l
487.152 268.224 l
519.888 267.734 l
519.888 267.734 l
stroke
grestore
1.000 0.000 0.000 setrgbcolor
gsave
446.4 345.6 72 43.2 clipbox
72 342.1 m
156.816 342.01 l
159.792 341.861 l
162.768 341.527 l
165.744 340.916 l
168.72 339.973 l
170.208 339.354 l
171.696 338.591 l
173.184 337.658 l
174.672 336.561 l
177.648 333.929 l
179.136 332.609 l
183.6 328.176 l
185.088 326.857 l
191.04 322.786 l
192.528 320.694 l
195.504 315.948 l
196.992 314.165 l
198.48 313.605 l
199.968 312.389 l
201.456 309.886 l
202.944 307.054 l
204.432 304.775 l
207.408 302.268 l
208.896 300.763 l
210.384 298.569 l
211.872 297.363 l
213.36 296.754 l
214.848 295.996 l
219.312 292.52 l
220.8 291.15 l
226.752 287.172 l
228.24 286.122 l
232.704 283.767 l
234.192 282.983 l
238.656 281.273 l
243.12 279.963 l
246.096 279.411 l
249.072 278.699 l
252.048 278.276 l
262.464 277.33 l
277.344 276.592 l
289.248 276.113 l
295.2 275.769 l
298.176 275.39 l
314.544 272.948 l
316.032 272.602 l
319.008 271.438 l
324.96 270.032 l
327.936 269.487 l
336.864 267.382 l
348.768 265.218 l
351.744 264.845 l
354.72 264.072 l
356.208 263.716 l
360.672 263.145 l
380.016 261.875 l
394.896 261.273 l
411.264 260.639 l
424.656 259.902 l
433.584 259.493 l
442.512 258.856 l
449.952 258.301 l
463.344 257.183 l
470.784 256.725 l
484.176 255.788 l
494.592 255.411 l
507.984 255.071 l
519.888 254.841 l
519.888 254.841 l
stroke
grestore
0.000 0.750 0.750 setrgbcolor
gsave
446.4 345.6 72 43.2 clipbox
72 342.1 m
156.816 341.995 l
159.792 341.832 l
162.768 341.449 l
165.744 340.782 l
168.72 339.865 l
171.696 338.651 l
174.672 337.051 l
176.16 336.074 l
177.648 334.947 l
179.136 333.648 l
180.624 332.19 l
185.088 327.286 l
186.576 325.921 l
189.552 323.919 l
192.528 319.842 l
195.504 315.539 l
196.992 313.57 l
198.48 312.601 l
199.968 310.751 l
202.944 305.839 l
204.432 303.762 l
205.92 302.25 l
207.408 299.767 l
208.896 296.615 l
210.384 293.1 l
211.872 290.771 l
213.36 289.544 l
214.848 287.914 l
219.312 280.735 l
220.8 278.877 l
222.288 277.603 l
225.264 274.644 l
228.24 271.427 l
234.192 266.107 l
238.656 263.486 l
241.632 262.405 l
246.096 260.843 l
252.048 259.364 l
255.024 258.744 l
259.488 258.172 l
266.928 257.521 l
301.152 255.785 l
305.616 255.38 l
307.104 255.075 l
310.08 254.091 l
313.056 253.304 l
314.544 252.897 l
317.52 252.286 l
320.496 251.355 l
329.424 249.352 l
335.376 247.688 l
339.84 246.686 l
342.816 246.228 l
348.768 244.86 l
353.232 243.607 l
357.696 242.818 l
363.648 241.943 l
368.112 241.458 l
381.504 240.142 l
387.456 239.785 l
406.8 238.78 l
429.12 237.817 l
441.024 236.955 l
454.416 235.762 l
478.224 232.127 l
485.664 231.151 l
490.128 230.517 l
493.104 230.095 l
512.448 228.754 l
519.888 228.456 l
519.888 228.456 l
stroke
grestore
0.750 0.000 0.750 setrgbcolor
gsave
446.4 345.6 72 43.2 clipbox
72 342.101 m
156.816 342.013 l
161.28 341.799 l
164.256 341.412 l
167.232 340.682 l
170.208 339.618 l
173.184 338.251 l
176.16 336.514 l
179.136 334.323 l
180.624 332.807 l
182.112 330.632 l
185.088 325.625 l
186.576 322.444 l
194.016 305.211 l
195.504 302.26 l
196.992 299.584 l
198.48 295.856 l
199.968 291.782 l
201.456 288.619 l
202.944 284.23 l
205.92 278.125 l
210.384 266.835 l
211.872 262.836 l
213.36 257.941 l
216.336 249.773 l
217.824 247.168 l
219.312 244.848 l
223.776 239.142 l
225.264 237.764 l
228.24 235.26 l
231.216 232.703 l
232.704 231.29 l
234.192 229.558 l
240.144 223.723 l
243.12 221.405 l
244.608 220.434 l
247.584 218.96 l
250.56 217.768 l
253.536 216.818 l
262.464 214.764 l
263.952 214.365 l
269.904 213.361 l
272.88 212.971 l
290.736 211.207 l
299.664 210.253 l
304.128 209.665 l
308.592 208.989 l
314.544 207.321 l
335.376 201.529 l
338.352 200.293 l
339.84 199.627 l
341.328 198.812 l
348.768 195.768 l
356.208 192.712 l
357.696 192.095 l
363.648 190.266 l
372.576 188.018 l
387.456 185.65 l
393.408 185.025 l
399.36 184.476 l
403.824 184.004 l
439.536 180.986 l
454.416 179.499 l
463.344 178.131 l
472.272 176.82 l
494.592 172.68 l
506.496 170.277 l
519.888 168.331 l
519.888 168.331 l
stroke
grestore
0.750 0.750 0.000 setrgbcolor
gsave
446.4 345.6 72 43.2 clipbox
72 342.102 m
161.28 342.009 l
165.744 341.846 l
168.72 341.522 l
170.208 341.178 l
174.672 339.622 l
179.136 336.569 l
180.624 335.814 l
182.112 334.812 l
185.088 331.772 l
186.576 330.203 l
189.552 325.605 l
192.528 317.554 l
194.016 315.114 l
195.504 312.959 l
196.992 308.865 l
199.968 299.698 l
201.456 295.58 l
204.432 286.168 l
208.896 271.798 l
210.384 266.624 l
211.872 261.918 l
213.36 256.517 l
216.336 247.039 l
217.824 241.637 l
219.312 236.979 l
222.288 230.711 l
223.776 227.394 l
226.752 219.782 l
232.704 206.007 l
234.192 203.35 l
235.68 201.693 l
238.656 197.94 l
244.608 191.157 l
246.096 189.242 l
249.072 186.178 l
250.56 184.749 l
252.048 183.564 l
255.024 181.653 l
258 179.925 l
262.464 178.028 l
269.904 175.152 l
275.856 172.351 l
281.808 170.06 l
286.272 168.242 l
296.688 164.73 l
304.128 162.944 l
310.08 161.625 l
327.936 157.723 l
330.912 157.01 l
333.888 156.017 l
336.864 155.339 l
342.816 153.986 l
351.744 151.852 l
354.72 150.905 l
357.696 149.732 l
366.624 145.846 l
371.088 143.457 l
375.552 140.818 l
381.504 137.571 l
384.48 135.782 l
387.456 134.06 l
390.432 132.552 l
400.848 126.692 l
406.8 124.148 l
409.776 122.816 l
414.24 120.903 l
417.216 119.452 l
421.68 117.924 l
426.144 116.539 l
430.608 115.695 l
441.024 114.003 l
451.44 112.396 l
458.88 111.438 l
464.832 110.628 l
476.736 108.934 l
487.152 107.653 l
503.52 105.763 l
519.888 102.986 l
519.888 102.986 l
stroke
grestore
0.000 setgray
gsave
446.4 345.6 72 43.2 clipbox
72 342.104 m
167.232 341.996 l
171.696 341.837 l
174.672 341.51 l
176.16 341.189 l
177.648 340.629 l
182.112 338.354 l
183.6 337.372 l
185.088 336.255 l
186.576 334.944 l
188.064 333.169 l
191.04 328.085 l
192.528 325.062 l
194.016 321.389 l
196.992 315.272 l
199.968 309.798 l
201.456 307.215 l
202.944 303.594 l
204.432 297.214 l
205.92 291.478 l
210.384 278.099 l
211.872 274.991 l
213.36 272.311 l
216.336 265.387 l
217.824 260.839 l
219.312 255.604 l
223.776 238.264 l
225.264 233.561 l
226.752 229.296 l
228.24 226.425 l
229.728 224.079 l
231.216 222.051 l
232.704 219.641 l
234.192 216.752 l
235.68 214.205 l
237.168 211.909 l
238.656 210.106 l
241.632 205.76 l
243.12 204.101 l
246.096 201.481 l
249.072 198.994 l
250.56 197.7 l
258 190.285 l
260.976 186.439 l
262.464 184.801 l
266.928 180.566 l
269.904 177.867 l
272.88 174.777 l
275.856 172.242 l
280.32 169.319 l
281.808 168.091 l
284.784 165.328 l
289.248 162.298 l
293.712 159.539 l
296.688 157.856 l
299.664 156.638 l
311.568 152.335 l
316.032 150.927 l
319.008 150.026 l
324.96 147.972 l
333.888 145.363 l
339.84 143.517 l
356.208 138.773 l
359.184 137.76 l
363.648 135.597 l
366.624 134.027 l
369.6 132.404 l
372.576 131.019 l
375.552 129.967 l
378.528 128.936 l
381.504 127.615 l
400.848 118.527 l
405.312 117.221 l
417.216 113.36 l
423.168 111.394 l
427.632 110.226 l
432.096 108.723 l
439.536 106.028 l
442.512 104.996 l
446.976 103.619 l
452.928 101.933 l
455.904 101.218 l
460.368 100.244 l
463.344 99.4584 l
469.296 97.585 l
475.248 96.3005 l
485.664 94.4886 l
493.104 93.0066 l
500.544 91.4882 l
519.888 88.6561 l
519.888 88.6561 l
stroke
grestore
1.000 setlinewidth
0 setlinejoin
gsave
72 388.8 m
518.4 388.8 l
stroke
grestore
gsave
518.4 43.2 m
518.4 388.8 l
stroke
grestore
gsave
72 43.2 m
518.4 43.2 l
stroke
grestore
gsave
72 43.2 m
72 388.8 l
stroke
grestore
0.500 setlinewidth
1 setlinejoin
0 setlinecap
gsave
/o {
gsave
newpath
translate
0.5 setlinewidth
1 setlinejoin
0 setlinecap
0 0 m
0 4 l
gsave
0.000 setgray
fill
grestore
stroke
grestore
} bind def
72 43.2 o
grestore
gsave
/o {
gsave
newpath
translate
0.5 setlinewidth
1 setlinejoin
0 setlinecap
0 0 m
0 -4 l
gsave
0.000 setgray
fill
grestore
stroke
grestore
} bind def
72 388.8 o
grestore
/BitstreamVeraSans-Roman findfont
12.000 scalefont
setfont
gsave
68.976562 30.075000 translate
0.000000 rotate
0.000000 0.000000 m /zero glyphshow
grestore
gsave
/o {
gsave
newpath
translate
0.5 setlinewidth
1 setlinejoin
0 setlinecap
0 0 m
0 4 l
gsave
0.000 setgray
fill
grestore
stroke
grestore
} bind def
161.28 43.2 o
grestore
gsave
/o {
gsave
newpath
translate
0.5 setlinewidth
1 setlinejoin
0 setlinecap
0 0 m
0 -4 l
gsave
0.000 setgray
fill
grestore
stroke
grestore
} bind def
161.28 388.8 o
grestore
gsave
158.444062 30.075000 translate
0.000000 rotate
0.000000 0.000000 m /five glyphshow
grestore
gsave
/o {
gsave
newpath
translate
0.5 setlinewidth
1 setlinejoin
0 setlinecap
0 0 m
0 4 l
gsave
0.000 setgray
fill
grestore
stroke
grestore
} bind def
250.56 43.2 o
grestore
gsave
/o {
gsave
newpath
translate
0.5 setlinewidth
1 setlinejoin
0 setlinecap
0 0 m
0 -4 l
gsave
0.000 setgray
fill
grestore
stroke
grestore
} bind def
250.56 388.8 o
grestore
gsave
243.974062 30.075000 translate
0.000000 rotate
0.000000 0.000000 m /one glyphshow
7.634766 0.000000 m /zero glyphshow
grestore
gsave
/o {
gsave
newpath
translate
0.5 setlinewidth
1 setlinejoin
0 setlinecap
0 0 m
0 4 l
gsave
0.000 setgray
fill
grestore
stroke
grestore
} bind def
339.84 43.2 o
grestore
gsave
/o {
gsave
newpath
translate
0.5 setlinewidth
1 setlinejoin
0 setlinecap
0 0 m
0 -4 l
gsave
0.000 setgray
fill
grestore
stroke
grestore
} bind def
339.84 388.8 o
grestore
gsave
333.379062 30.075000 translate
0.000000 rotate
0.000000 0.000000 m /one glyphshow
7.634766 0.000000 m /five glyphshow
grestore
gsave
/o {
gsave
newpath
translate
0.5 setlinewidth
1 setlinejoin
0 setlinecap
0 0 m
0 4 l
gsave
0.000 setgray
fill
grestore
stroke
grestore
} bind def
429.12 43.2 o
grestore
gsave
/o {
gsave
newpath
translate
0.5 setlinewidth
1 setlinejoin
0 setlinecap
0 0 m
0 -4 l
gsave
0.000 setgray
fill
grestore
stroke
grestore
} bind def
429.12 388.8 o
grestore
gsave
422.315312 30.075000 translate
0.000000 rotate
0.000000 0.000000 m /two glyphshow
7.634766 0.000000 m /zero glyphshow
grestore
gsave
/o {
gsave
newpath
translate
0.5 setlinewidth
1 setlinejoin
0 setlinecap
0 0 m
0 4 l
gsave
0.000 setgray
fill
grestore
stroke
grestore
} bind def
518.4 43.2 o
grestore
gsave
/o {
gsave
newpath
translate
0.5 setlinewidth
1 setlinejoin
0 setlinecap
0 0 m
0 -4 l
gsave
0.000 setgray
fill
grestore
stroke
grestore
} bind def
518.4 388.8 o
grestore
gsave
511.720312 30.075000 translate
0.000000 rotate
0.000000 0.000000 m /two glyphshow
7.634766 0.000000 m /five glyphshow
grestore
/BitstreamVeraSans-Roman findfont
20.000 scalefont
setfont
gsave
257.551562 7.371875 translate
0.000000 rotate
0.000000 0.000000 m /t glyphshow
7.841797 0.000000 m /space glyphshow
14.199219 0.000000 m /parenleft glyphshow
22.001953 0.000000 m /d glyphshow
34.697266 0.000000 m /a glyphshow
46.953125 0.000000 m /y glyphshow
58.789062 0.000000 m /s glyphshow
69.208984 0.000000 m /parenright glyphshow
grestore
gsave
/o {
gsave
newpath
translate
0.5 setlinewidth
1 setlinejoin
0 setlinecap
0 0 m
4 0 l
gsave
0.000 setgray
fill
grestore
stroke
grestore
} bind def
72 43.2 o
grestore
gsave
/o {
gsave
newpath
translate
0.5 setlinewidth
1 setlinejoin
0 setlinecap
0 0 m
-4 0 l
gsave
0.000 setgray
fill
grestore
stroke
grestore
} bind def
518.4 43.2 o
grestore
/BitstreamVeraSans-Roman findfont
12.000 scalefont
setfont
gsave
41.312500 39.887500 translate
0.000000 rotate
0.000000 0.000000 m /minus glyphshow
10.054688 0.000000 m /one glyphshow
17.689453 0.000000 m /period glyphshow
21.503906 0.000000 m /two glyphshow
grestore
gsave
/o {
gsave
newpath
translate
0.5 setlinewidth
1 setlinejoin
0 setlinecap
0 0 m
4 0 l
gsave
0.000 setgray
fill
grestore
stroke
grestore
} bind def
72 92.5714 o
grestore
gsave
/o {
gsave
newpath
translate
0.5 setlinewidth
1 setlinejoin
0 setlinecap
0 0 m
-4 0 l
gsave
0.000 setgray
fill
grestore
stroke
grestore
} bind def
518.4 92.5714 o
grestore
gsave
40.906250 89.258929 translate
0.000000 rotate
0.000000 0.000000 m /minus glyphshow
10.054688 0.000000 m /one glyphshow
17.689453 0.000000 m /period glyphshow
21.503906 0.000000 m /zero glyphshow
grestore
gsave
/o {
gsave
newpath
translate
0.5 setlinewidth
1 setlinejoin
0 setlinecap
0 0 m
4 0 l
gsave
0.000 setgray
fill
grestore
stroke
grestore
} bind def
72 141.943 o
grestore
gsave
/o {
gsave
newpath
translate
0.5 setlinewidth
1 setlinejoin
0 setlinecap
0 0 m
-4 0 l
gsave
0.000 setgray
fill
grestore
stroke
grestore
} bind def
518.4 141.943 o
grestore
gsave
40.937500 138.630357 translate
0.000000 rotate
0.000000 0.000000 m /minus glyphshow
10.054688 0.000000 m /zero glyphshow
17.689453 0.000000 m /period glyphshow
21.503906 0.000000 m /eight glyphshow
grestore
gsave
/o {
gsave
newpath
translate
0.5 setlinewidth
1 setlinejoin
0 setlinecap
0 0 m
4 0 l
gsave
0.000 setgray
fill
grestore
stroke
grestore
} bind def
72 191.314 o
grestore
gsave
/o {
gsave
newpath
translate
0.5 setlinewidth
1 setlinejoin
0 setlinecap
0 0 m
-4 0 l
gsave
0.000 setgray
fill
grestore
stroke
grestore
} bind def
518.4 191.314 o
grestore
gsave
40.875000 188.001786 translate
0.000000 rotate
0.000000 0.000000 m /minus glyphshow
10.054688 0.000000 m /zero glyphshow
17.689453 0.000000 m /period glyphshow
21.503906 0.000000 m /six glyphshow
grestore
gsave
/o {
gsave
newpath
translate
0.5 setlinewidth
1 setlinejoin
0 setlinecap
0 0 m
4 0 l
gsave
0.000 setgray
fill
grestore
stroke
grestore
} bind def
72 240.686 o
grestore
gsave
/o {
gsave
newpath
translate
0.5 setlinewidth
1 setlinejoin
0 setlinecap
0 0 m
-4 0 l
gsave
0.000 setgray
fill
grestore
stroke
grestore
} bind def
518.4 240.686 o
grestore
gsave
40.781250 237.373214 translate
0.000000 rotate
0.000000 0.000000 m /minus glyphshow
10.054688 0.000000 m /zero glyphshow
17.689453 0.000000 m /period glyphshow
21.503906 0.000000 m /four glyphshow
grestore
gsave
/o {
gsave
newpath
translate
0.5 setlinewidth
1 setlinejoin
0 setlinecap
0 0 m
4 0 l
gsave
0.000 setgray
fill
grestore
stroke
grestore
} bind def
72 290.057 o
grestore
gsave
/o {
gsave
newpath
translate
0.5 setlinewidth
1 setlinejoin
0 setlinecap
0 0 m
-4 0 l
gsave
0.000 setgray
fill
grestore
stroke
grestore
} bind def
518.4 290.057 o
grestore
gsave
41.312500 286.744643 translate
0.000000 rotate
0.000000 0.000000 m /minus glyphshow
10.054688 0.000000 m /zero glyphshow
17.689453 0.000000 m /period glyphshow
21.503906 0.000000 m /two glyphshow
grestore
gsave
/o {
gsave
newpath
translate
0.5 setlinewidth
1 setlinejoin
0 setlinecap
0 0 m
4 0 l
gsave
0.000 setgray
fill
grestore
stroke
grestore
} bind def
72 339.429 o
grestore
gsave
/o {
gsave
newpath
translate
0.5 setlinewidth
1 setlinejoin
0 setlinecap
0 0 m
-4 0 l
gsave
0.000 setgray
fill
grestore
stroke
grestore
} bind def
518.4 339.429 o
grestore
gsave
50.500000 336.116071 translate
0.000000 rotate
0.000000 0.000000 m /zero glyphshow
7.634766 0.000000 m /period glyphshow
11.449219 0.000000 m /zero glyphshow
grestore
gsave
/o {
gsave
newpath
translate
0.5 setlinewidth
1 setlinejoin
0 setlinecap
0 0 m
4 0 l
gsave
0.000 setgray
fill
grestore
stroke
grestore
} bind def
72 388.8 o
grestore
gsave
/o {
gsave
newpath
translate
0.5 setlinewidth
1 setlinejoin
0 setlinecap
0 0 m
-4 0 l
gsave
0.000 setgray
fill
grestore
stroke
grestore
} bind def
518.4 388.8 o
grestore
gsave
50.906250 385.487500 translate
0.000000 rotate
0.000000 0.000000 m /zero glyphshow
7.634766 0.000000 m /period glyphshow
11.449219 0.000000 m /two glyphshow
grestore
/BitstreamVeraSans-Roman findfont
20.000 scalefont
setfont
gsave
31.625000 154.718750 translate
90.000000 rotate
0.000000 0.000000 m /T glyphshow
8.841797 0.000000 m /o glyphshow
21.078125 0.000000 m /t glyphshow
28.919922 0.000000 m /a glyphshow
41.175781 0.000000 m /l glyphshow
46.732422 0.000000 m /space glyphshow
53.089844 0.000000 m /E glyphshow
65.726562 0.000000 m /n glyphshow
78.402344 0.000000 m /e glyphshow
90.707031 0.000000 m /r glyphshow
98.554688 0.000000 m /g glyphshow
111.250000 0.000000 m /y glyphshow
grestore
/BitstreamVeraSans-Roman findfont
12.000 scalefont
setfont
gsave
72.000000 391.800000 translate
0.000000 rotate
0.000000 0.000000 m /one glyphshow
7.634766 0.000000 m /e glyphshow
15.017578 0.000000 m /one glyphshow
22.652344 0.000000 m /three glyphshow
grestore
/BitstreamVeraSans-Roman findfont
20.000 scalefont
setfont
gsave
209.395312 393.800000 translate
0.000000 rotate
0.000000 0.000000 m /E glyphshow
12.636719 0.000000 m /a glyphshow
24.892578 0.000000 m /d glyphshow
37.587891 0.000000 m /y glyphshow
49.423828 0.000000 m /space glyphshow
55.781250 0.000000 m /A glyphshow
69.462891 0.000000 m /l glyphshow
75.019531 0.000000 m /p glyphshow
87.714844 0.000000 m /h glyphshow
100.390625 0.000000 m /a glyphshow
112.646484 0.000000 m /U glyphshow
127.285156 0.000000 m /space glyphshow
133.642578 0.000000 m /t glyphshow
141.484375 0.000000 m /e glyphshow
153.789062 0.000000 m /s glyphshow
164.208984 0.000000 m /t glyphshow
grestore
1.000 setlinewidth
0 setlinejoin
gsave
431.884 278.097 m
513.4 278.097 l
513.4 383.8 l
431.884 383.8 l
cl
gsave
1.000 setgray
fill
grestore
stroke
grestore
1.500 setlinewidth
1 setlinejoin
[6 6] 0 setdash
0.000 0.000 1.000 setrgbcolor
gsave
438.884 375.706 m
452.884 375.706 l
stroke
grestore
0.000 setgray
/BitstreamVeraSans-Roman findfont
10.000 scalefont
setfont
gsave
463.884375 372.206250 translate
0.000000 rotate
0.000000 0.000000 m /s glyphshow
5.209961 0.000000 m /t glyphshow
9.130859 0.000000 m /a glyphshow
15.258789 0.000000 m /n glyphshow
21.596680 0.000000 m /d glyphshow
27.944336 0.000000 m /a glyphshow
34.072266 0.000000 m /r glyphshow
38.058594 0.000000 m /d glyphshow
grestore
2 setlinecap
[] 0 setdash
0.000 0.500 0.000 setrgbcolor
gsave
438.884 361.034 m
452.884 361.034 l
stroke
grestore
0.000 setgray
gsave
463.884375 357.534375 translate
0.000000 rotate
0.000000 0.000000 m /a glyphshow
6.127930 0.000000 m /l glyphshow
8.906250 0.000000 m /p glyphshow
15.253906 0.000000 m /h glyphshow
21.591797 0.000000 m /a glyphshow
27.719727 0.000000 m /u glyphshow
34.057617 0.000000 m /one glyphshow
grestore
1.000 0.000 0.000 setrgbcolor
gsave
438.884 346.363 m
452.884 346.363 l
stroke
grestore
0.000 setgray
gsave
463.884375 342.862500 translate
0.000000 rotate
0.000000 0.000000 m /a glyphshow
6.127930 0.000000 m /l glyphshow
8.906250 0.000000 m /p glyphshow
15.253906 0.000000 m /h glyphshow
21.591797 0.000000 m /a glyphshow
27.719727 0.000000 m /u glyphshow
34.057617 0.000000 m /two glyphshow
grestore
0.000 0.750 0.750 setrgbcolor
gsave
438.884 331.691 m
452.884 331.691 l
stroke
grestore
0.000 setgray
gsave
463.884375 328.190625 translate
0.000000 rotate
0.000000 0.000000 m /a glyphshow
6.127930 0.000000 m /l glyphshow
8.906250 0.000000 m /p glyphshow
15.253906 0.000000 m /h glyphshow
21.591797 0.000000 m /a glyphshow
27.719727 0.000000 m /u glyphshow
34.057617 0.000000 m /three glyphshow
grestore
0.750 0.000 0.750 setrgbcolor
gsave
438.884 317.019 m
452.884 317.019 l
stroke
grestore
0.000 setgray
gsave
463.884375 313.518750 translate
0.000000 rotate
0.000000 0.000000 m /a glyphshow
6.127930 0.000000 m /l glyphshow
8.906250 0.000000 m /p glyphshow
15.253906 0.000000 m /h glyphshow
21.591797 0.000000 m /a glyphshow
27.719727 0.000000 m /u glyphshow
34.057617 0.000000 m /five glyphshow
grestore
0.750 0.750 0.000 setrgbcolor
gsave
438.884 302.347 m
452.884 302.347 l
stroke
grestore
0.000 setgray
gsave
463.884375 298.846875 translate
0.000000 rotate
0.000000 0.000000 m /a glyphshow
6.127930 0.000000 m /l glyphshow
8.906250 0.000000 m /p glyphshow
15.253906 0.000000 m /h glyphshow
21.591797 0.000000 m /a glyphshow
27.719727 0.000000 m /u glyphshow
34.057617 0.000000 m /eight glyphshow
grestore
gsave
438.884 287.675 m
452.884 287.675 l
stroke
grestore
gsave
463.884375 284.175000 translate
0.000000 rotate
0.000000 0.000000 m /a glyphshow
6.127930 0.000000 m /l glyphshow
8.906250 0.000000 m /p glyphshow
15.253906 0.000000 m /h glyphshow
21.591797 0.000000 m /a glyphshow
27.719727 0.000000 m /u glyphshow
34.057617 0.000000 m /one glyphshow
40.419922 0.000000 m /zero glyphshow
grestore

end
showpage
