%!PS-Adobe-3.0 EPSF-3.0
%%Title: alphau_rmsv.eps
%%Creator: matplotlib version 1.4.0, http://matplotlib.org/
%%CreationDate: Fri Mar  4 14:45:10 2016
%%Orientation: portrait
%%BoundingBox: 18 180 594 612
%%EndComments
%%BeginProlog
/mpldict 8 dict def
mpldict begin
/m { moveto } bind def
/l { lineto } bind def
/r { rlineto } bind def
/c { curveto } bind def
/cl { closepath } bind def
/box {
m
1 index 0 r
0 exch r
neg 0 r
cl
} bind def
/clipbox {
box
clip
newpath
} bind def
%!PS-Adobe-3.0 Resource-Font
%%Title: Bitstream Vera Sans
%%Copyright: Copyright (c) 2003 by Bitstream, Inc. All Rights Reserved.
%%Creator: Converted from TrueType to type 3 by PPR
25 dict begin
/_d{bind def}bind def
/_m{moveto}_d
/_l{lineto}_d
/_cl{closepath eofill}_d
/_c{curveto}_d
/_sc{7 -1 roll{setcachedevice}{pop pop pop pop pop pop}ifelse}_d
/_e{exec}_d
/FontName /BitstreamVeraSans-Roman def
/PaintType 0 def
/FontMatrix[.001 0 0 .001 0 0]def
/FontBBox[-183 -236 1287 928]def
/FontType 3 def
/Encoding [ /space /parenleft /parenright /zero /one /two /three /four /five /eight /A /E /M /R /S /U /V /a /d /e /h /l /n /p /r /s /t /u /y ] def
/FontInfo 10 dict dup begin
/FamilyName (Bitstream Vera Sans) def
/FullName (Bitstream Vera Sans) def
/Notice (Copyright (c) 2003 by Bitstream, Inc. All Rights Reserved. Bitstream Vera is a trademark of Bitstream, Inc.) def
/Weight (Roman) def
/Version (Release 1.10) def
/ItalicAngle 0.0 def
/isFixedPitch false def
/UnderlinePosition -213 def
/UnderlineThickness 143 def
end readonly def
/CharStrings 29 dict dup begin
/space{318 0 0 0 0 0 _sc
}_d
/parenleft{390 0 86 -131 310 759 _sc
310 759 _m
266 683 234 609 213 536 _c
191 463 181 389 181 314 _c
181 238 191 164 213 91 _c
234 17 266 -56 310 -131 _c
232 -131 _l
183 -54 146 20 122 94 _c
98 168 86 241 86 314 _c
86 386 98 459 122 533 _c
146 607 182 682 232 759 _c
310 759 _l
_cl}_d
/parenright{390 0 80 -131 304 759 _sc
80 759 _m
158 759 _l
206 682 243 607 267 533 _c
291 459 304 386 304 314 _c
304 241 291 168 267 94 _c
243 20 206 -54 158 -131 _c
80 -131 _l
123 -56 155 17 177 91 _c
198 164 209 238 209 314 _c
209 389 198 463 177 536 _c
155 609 123 683 80 759 _c
_cl}_d
/zero{636 0 66 -13 570 742 _sc
318 664 _m
267 664 229 639 203 589 _c
177 539 165 464 165 364 _c
165 264 177 189 203 139 _c
229 89 267 64 318 64 _c
369 64 407 89 433 139 _c
458 189 471 264 471 364 _c
471 464 458 539 433 589 _c
407 639 369 664 318 664 _c
318 742 _m
399 742 461 709 505 645 _c
548 580 570 486 570 364 _c
570 241 548 147 505 83 _c
461 19 399 -13 318 -13 _c
236 -13 173 19 130 83 _c
87 147 66 241 66 364 _c
66 486 87 580 130 645 _c
173 709 236 742 318 742 _c
_cl}_d
/one{636 0 110 0 544 729 _sc
124 83 _m
285 83 _l
285 639 _l
110 604 _l
110 694 _l
284 729 _l
383 729 _l
383 83 _l
544 83 _l
544 0 _l
124 0 _l
124 83 _l
_cl}_d
/two{{636 0 73 0 536 742 _sc
192 83 _m
536 83 _l
536 0 _l
73 0 _l
73 83 _l
110 121 161 173 226 239 _c
290 304 331 346 348 365 _c
380 400 402 430 414 455 _c
426 479 433 504 433 528 _c
433 566 419 598 392 622 _c
365 646 330 659 286 659 _c
255 659 222 653 188 643 _c
154 632 117 616 78 594 _c
78 694 _l
118 710 155 722 189 730 _c
223 738 255 742 284 742 _c
}_e{359 742 419 723 464 685 _c
509 647 532 597 532 534 _c
532 504 526 475 515 449 _c
504 422 484 390 454 354 _c
446 344 420 317 376 272 _c
332 227 271 164 192 83 _c
_cl}_e}_d
/three{{636 0 76 -13 556 742 _sc
406 393 _m
453 383 490 362 516 330 _c
542 298 556 258 556 212 _c
556 140 531 84 482 45 _c
432 6 362 -13 271 -13 _c
240 -13 208 -10 176 -4 _c
144 1 110 10 76 22 _c
76 117 _l
103 101 133 89 166 81 _c
198 73 232 69 268 69 _c
330 69 377 81 409 105 _c
441 129 458 165 458 212 _c
458 254 443 288 413 312 _c
383 336 341 349 287 349 _c
}_e{202 349 _l
202 430 _l
291 430 _l
339 430 376 439 402 459 _c
428 478 441 506 441 543 _c
441 580 427 609 401 629 _c
374 649 336 659 287 659 _c
260 659 231 656 200 650 _c
169 644 135 635 98 623 _c
98 711 _l
135 721 170 729 203 734 _c
235 739 266 742 296 742 _c
370 742 429 725 473 691 _c
517 657 539 611 539 553 _c
539 513 527 479 504 451 _c
481 423 448 403 406 393 _c
_cl}_e}_d
/four{636 0 49 0 580 729 _sc
378 643 _m
129 254 _l
378 254 _l
378 643 _l
352 729 _m
476 729 _l
476 254 _l
580 254 _l
580 172 _l
476 172 _l
476 0 _l
378 0 _l
378 172 _l
49 172 _l
49 267 _l
352 729 _l
_cl}_d
/five{{636 0 77 -13 549 729 _sc
108 729 _m
495 729 _l
495 646 _l
198 646 _l
198 467 _l
212 472 227 476 241 478 _c
255 480 270 482 284 482 _c
365 482 429 459 477 415 _c
525 370 549 310 549 234 _c
549 155 524 94 475 51 _c
426 8 357 -13 269 -13 _c
238 -13 207 -10 175 -6 _c
143 -1 111 6 77 17 _c
77 116 _l
106 100 136 88 168 80 _c
199 72 232 69 267 69 _c
}_e{323 69 368 83 401 113 _c
433 143 450 183 450 234 _c
450 284 433 324 401 354 _c
368 384 323 399 267 399 _c
241 399 214 396 188 390 _c
162 384 135 375 108 363 _c
108 729 _l
_cl}_e}_d
/eight{{636 0 68 -13 568 742 _sc
318 346 _m
271 346 234 333 207 308 _c
180 283 167 249 167 205 _c
167 161 180 126 207 101 _c
234 76 271 64 318 64 _c
364 64 401 76 428 102 _c
455 127 469 161 469 205 _c
469 249 455 283 429 308 _c
402 333 365 346 318 346 _c
219 388 _m
177 398 144 418 120 447 _c
96 476 85 511 85 553 _c
85 611 105 657 147 691 _c
188 725 245 742 318 742 _c
}_e{390 742 447 725 489 691 _c
530 657 551 611 551 553 _c
551 511 539 476 515 447 _c
491 418 459 398 417 388 _c
464 377 501 355 528 323 _c
554 291 568 251 568 205 _c
568 134 546 80 503 43 _c
459 5 398 -13 318 -13 _c
237 -13 175 5 132 43 _c
89 80 68 134 68 205 _c
68 251 81 291 108 323 _c
134 355 171 377 219 388 _c
183 544 _m
183 506 194 476 218 455 _c
}_e{242 434 275 424 318 424 _c
360 424 393 434 417 455 _c
441 476 453 506 453 544 _c
453 582 441 611 417 632 _c
393 653 360 664 318 664 _c
275 664 242 653 218 632 _c
194 611 183 582 183 544 _c
_cl}_e}_d
/A{684 0 8 0 676 729 _sc
342 632 _m
208 269 _l
476 269 _l
342 632 _l
286 729 _m
398 729 _l
676 0 _l
573 0 _l
507 187 _l
178 187 _l
112 0 _l
8 0 _l
286 729 _l
_cl}_d
/E{632 0 98 0 568 729 _sc
98 729 _m
559 729 _l
559 646 _l
197 646 _l
197 430 _l
544 430 _l
544 347 _l
197 347 _l
197 83 _l
568 83 _l
568 0 _l
98 0 _l
98 729 _l
_cl}_d
/M{863 0 98 0 765 729 _sc
98 729 _m
245 729 _l
431 233 _l
618 729 _l
765 729 _l
765 0 _l
669 0 _l
669 640 _l
481 140 _l
382 140 _l
194 640 _l
194 0 _l
98 0 _l
98 729 _l
_cl}_d
/R{{695 0 98 0 666 729 _sc
444 342 _m
465 334 486 319 506 296 _c
526 272 546 240 566 199 _c
666 0 _l
560 0 _l
467 187 _l
443 235 419 268 397 284 _c
374 300 343 308 304 308 _c
197 308 _l
197 0 _l
98 0 _l
98 729 _l
321 729 _l
404 729 466 711 507 677 _c
548 642 569 589 569 519 _c
569 473 558 434 537 404 _c
515 374 484 353 444 342 _c
197 648 _m
197 389 _l
321 389 _l
}_e{368 389 404 400 428 422 _c
452 444 465 476 465 519 _c
465 561 452 593 428 615 _c
404 637 368 648 321 648 _c
197 648 _l
_cl}_e}_d
/S{{635 0 66 -13 579 742 _sc
535 705 _m
535 609 _l
497 627 462 640 429 649 _c
395 657 363 662 333 662 _c
279 662 237 651 208 631 _c
179 610 165 580 165 542 _c
165 510 174 485 194 469 _c
213 452 250 439 304 429 _c
364 417 _l
437 403 491 378 526 343 _c
561 307 579 260 579 201 _c
579 130 555 77 508 41 _c
460 5 391 -13 300 -13 _c
265 -13 228 -9 189 -2 _c
}_e{150 5 110 16 69 32 _c
69 134 _l
109 111 148 94 186 83 _c
224 71 262 66 300 66 _c
356 66 399 77 430 99 _c
460 121 476 152 476 194 _c
476 230 465 258 443 278 _c
421 298 385 313 335 323 _c
275 335 _l
201 349 148 372 115 404 _c
82 435 66 478 66 534 _c
66 598 88 649 134 686 _c
179 723 242 742 322 742 _c
356 742 390 739 426 733 _c
461 727 497 717 535 705 _c
}_e{_cl}_e}_d
/U{732 0 87 -13 645 729 _sc
87 729 _m
186 729 _l
186 286 _l
186 208 200 151 228 117 _c
256 83 302 66 366 66 _c
429 66 475 83 503 117 _c
531 151 546 208 546 286 _c
546 729 _l
645 729 _l
645 274 _l
645 178 621 107 574 59 _c
527 11 458 -13 366 -13 _c
274 -13 204 11 157 59 _c
110 107 87 178 87 274 _c
87 729 _l
_cl}_d
/V{684 0 8 0 676 729 _sc
286 0 _m
8 729 _l
111 729 _l
342 115 _l
573 729 _l
676 729 _l
398 0 _l
286 0 _l
_cl}_d
/a{{613 0 60 -13 522 560 _sc
343 275 _m
270 275 220 266 192 250 _c
164 233 150 205 150 165 _c
150 133 160 107 181 89 _c
202 70 231 61 267 61 _c
317 61 357 78 387 114 _c
417 149 432 196 432 255 _c
432 275 _l
343 275 _l
522 312 _m
522 0 _l
432 0 _l
432 83 _l
411 49 385 25 355 10 _c
325 -5 287 -13 243 -13 _c
187 -13 142 2 109 33 _c
76 64 60 106 60 159 _c
}_e{60 220 80 266 122 298 _c
163 329 224 345 306 345 _c
432 345 _l
432 354 _l
432 395 418 427 391 450 _c
364 472 326 484 277 484 _c
245 484 215 480 185 472 _c
155 464 127 453 100 439 _c
100 522 _l
132 534 164 544 195 550 _c
226 556 256 560 286 560 _c
365 560 424 539 463 498 _c
502 457 522 395 522 312 _c
_cl}_e}_d
/d{{635 0 55 -13 544 760 _sc
454 464 _m
454 760 _l
544 760 _l
544 0 _l
454 0 _l
454 82 _l
435 49 411 25 382 10 _c
353 -5 319 -13 279 -13 _c
213 -13 159 13 117 65 _c
75 117 55 187 55 273 _c
55 359 75 428 117 481 _c
159 533 213 560 279 560 _c
319 560 353 552 382 536 _c
411 520 435 496 454 464 _c
148 273 _m
148 207 161 155 188 117 _c
215 79 253 61 301 61 _c
}_e{348 61 385 79 413 117 _c
440 155 454 207 454 273 _c
454 339 440 390 413 428 _c
385 466 348 485 301 485 _c
253 485 215 466 188 428 _c
161 390 148 339 148 273 _c
_cl}_e}_d
/e{{615 0 55 -13 562 560 _sc
562 296 _m
562 252 _l
149 252 _l
153 190 171 142 205 110 _c
238 78 284 62 344 62 _c
378 62 412 66 444 74 _c
476 82 509 95 541 113 _c
541 28 _l
509 14 476 3 442 -3 _c
408 -9 373 -13 339 -13 _c
251 -13 182 12 131 62 _c
80 112 55 181 55 268 _c
55 357 79 428 127 481 _c
175 533 241 560 323 560 _c
397 560 455 536 498 489 _c
}_e{540 441 562 377 562 296 _c
472 322 _m
471 371 457 410 431 440 _c
404 469 368 484 324 484 _c
274 484 234 469 204 441 _c
174 413 156 373 152 322 _c
472 322 _l
_cl}_e}_d
/h{634 0 91 0 549 760 _sc
549 330 _m
549 0 _l
459 0 _l
459 327 _l
459 379 448 417 428 443 _c
408 469 378 482 338 482 _c
289 482 251 466 223 435 _c
195 404 181 362 181 309 _c
181 0 _l
91 0 _l
91 760 _l
181 760 _l
181 462 _l
202 494 227 519 257 535 _c
286 551 320 560 358 560 _c
420 560 468 540 500 501 _c
532 462 549 405 549 330 _c
_cl}_d
/l{278 0 94 0 184 760 _sc
94 760 _m
184 760 _l
184 0 _l
94 0 _l
94 760 _l
_cl}_d
/n{634 0 91 0 549 560 _sc
549 330 _m
549 0 _l
459 0 _l
459 327 _l
459 379 448 417 428 443 _c
408 469 378 482 338 482 _c
289 482 251 466 223 435 _c
195 404 181 362 181 309 _c
181 0 _l
91 0 _l
91 547 _l
181 547 _l
181 462 _l
202 494 227 519 257 535 _c
286 551 320 560 358 560 _c
420 560 468 540 500 501 _c
532 462 549 405 549 330 _c
_cl}_d
/p{{635 0 91 -207 580 560 _sc
181 82 _m
181 -207 _l
91 -207 _l
91 547 _l
181 547 _l
181 464 _l
199 496 223 520 252 536 _c
281 552 316 560 356 560 _c
422 560 476 533 518 481 _c
559 428 580 359 580 273 _c
580 187 559 117 518 65 _c
476 13 422 -13 356 -13 _c
316 -13 281 -5 252 10 _c
223 25 199 49 181 82 _c
487 273 _m
487 339 473 390 446 428 _c
418 466 381 485 334 485 _c
}_e{286 485 249 466 222 428 _c
194 390 181 339 181 273 _c
181 207 194 155 222 117 _c
249 79 286 61 334 61 _c
381 61 418 79 446 117 _c
473 155 487 207 487 273 _c
_cl}_e}_d
/r{411 0 91 0 411 560 _sc
411 463 _m
401 469 390 473 378 476 _c
366 478 353 480 339 480 _c
288 480 249 463 222 430 _c
194 397 181 350 181 288 _c
181 0 _l
91 0 _l
91 547 _l
181 547 _l
181 462 _l
199 495 224 520 254 536 _c
284 552 321 560 365 560 _c
371 560 378 559 386 559 _c
393 558 401 557 411 555 _c
411 463 _l
_cl}_d
/s{{521 0 54 -13 472 560 _sc
443 531 _m
443 446 _l
417 458 391 468 364 475 _c
336 481 308 485 279 485 _c
234 485 200 478 178 464 _c
156 450 145 430 145 403 _c
145 382 153 366 169 354 _c
185 342 217 330 265 320 _c
296 313 _l
360 299 405 279 432 255 _c
458 230 472 195 472 151 _c
472 100 452 60 412 31 _c
372 1 316 -13 246 -13 _c
216 -13 186 -10 154 -5 _c
}_e{122 0 89 8 54 20 _c
54 113 _l
87 95 120 82 152 74 _c
184 65 216 61 248 61 _c
290 61 323 68 346 82 _c
368 96 380 117 380 144 _c
380 168 371 187 355 200 _c
339 213 303 226 247 238 _c
216 245 _l
160 257 119 275 95 299 _c
70 323 58 356 58 399 _c
58 450 76 490 112 518 _c
148 546 200 560 268 560 _c
301 560 332 557 362 552 _c
391 547 418 540 443 531 _c
}_e{_cl}_e}_d
/t{392 0 27 0 368 702 _sc
183 702 _m
183 547 _l
368 547 _l
368 477 _l
183 477 _l
183 180 _l
183 135 189 106 201 94 _c
213 81 238 75 276 75 _c
368 75 _l
368 0 _l
276 0 _l
206 0 158 13 132 39 _c
106 65 93 112 93 180 _c
93 477 _l
27 477 _l
27 547 _l
93 547 _l
93 702 _l
183 702 _l
_cl}_d
/u{634 0 85 -13 543 547 _sc
85 216 _m
85 547 _l
175 547 _l
175 219 _l
175 167 185 129 205 103 _c
225 77 255 64 296 64 _c
344 64 383 79 411 110 _c
439 141 453 183 453 237 _c
453 547 _l
543 547 _l
543 0 _l
453 0 _l
453 84 _l
431 50 405 26 377 10 _c
348 -5 315 -13 277 -13 _c
214 -13 166 6 134 45 _c
101 83 85 140 85 216 _c
_cl}_d
/y{592 0 30 -207 562 547 _sc
322 -50 _m
296 -114 271 -157 247 -177 _c
223 -197 191 -207 151 -207 _c
79 -207 _l
79 -132 _l
132 -132 _l
156 -132 175 -126 189 -114 _c
203 -102 218 -75 235 -31 _c
251 9 _l
30 547 _l
125 547 _l
296 119 _l
467 547 _l
562 547 _l
322 -50 _l
_cl}_d
end readonly def

/BuildGlyph
 {exch begin
 CharStrings exch
 2 copy known not{pop /.notdef}if
 true 3 1 roll get exec
 end}_d

/BuildChar {
 1 index /Encoding get exch get
 1 index /BuildGlyph get exec
}_d

FontName currentdict end definefont pop
end
%%EndProlog
mpldict begin
18 180 translate
576 432 0 0 clipbox
gsave
0 0 m
576 0 l
576 432 l
0 432 l
cl
1.000 setgray
fill
grestore
gsave
72 43.2 m
518.4 43.2 l
518.4 388.8 l
72 388.8 l
cl
1.000 setgray
fill
grestore
1.500 setlinewidth
1 setlinejoin
0 setlinecap
[6 6] 0 setdash
0.000 0.000 1.000 setrgbcolor
gsave
446.4 345.6 72 43.2 clipbox
72 55.3041 m
74.976 55.3536 l
76.464 55.489 l
77.952 55.7647 l
80.928 56.6679 l
86.88 58.5979 l
88.368 59.2901 l
91.344 61.1054 l
94.32 63.0058 l
98.784 65.705 l
100.272 66.8397 l
103.248 69.5171 l
110.688 76.45 l
113.664 79.9088 l
119.616 87.4333 l
122.592 91.7213 l
125.568 96.5984 l
130.032 104.312 l
133.008 110.096 l
135.984 116.658 l
140.448 127.246 l
143.424 135.12 l
146.4 143.903 l
149.376 153.328 l
152.352 163.562 l
155.328 174.835 l
159.792 193.05 l
162.768 206.104 l
168.72 233.518 l
185.088 312.966 l
186.576 319.962 l
188.064 327.514 l
191.04 341.077 l
192.528 347.242 l
195.504 357.4 l
196.992 362.362 l
198.48 366.814 l
199.968 369.894 l
201.456 372.191 l
202.944 373.968 l
204.432 375.446 l
205.92 375.791 l
207.408 375.032 l
208.896 373.872 l
210.384 372.142 l
211.872 370 l
213.36 367.047 l
214.848 363.751 l
216.336 359.921 l
217.824 355.198 l
219.312 349.764 l
220.8 344.783 l
223.776 333.413 l
229.728 308.365 l
232.704 296.972 l
235.68 283.553 l
237.168 277.622 l
241.632 258.313 l
244.608 247.199 l
246.096 242.087 l
249.072 233.482 l
253.536 221.16 l
255.024 217.682 l
258 211.885 l
259.488 209.45 l
260.976 207.822 l
262.464 206.435 l
263.952 205.357 l
265.44 204.697 l
266.928 204.629 l
268.416 204.983 l
269.904 205.82 l
272.88 207.991 l
274.368 209.901 l
277.344 215.044 l
281.808 222.924 l
283.296 226.562 l
289.248 244.552 l
292.224 254.993 l
295.2 265.362 l
299.664 280.163 l
302.64 291.676 l
304.128 296.987 l
307.104 306.829 l
308.592 311.996 l
310.08 316.12 l
313.056 323.596 l
317.52 332.757 l
319.008 335.289 l
321.984 338.863 l
323.472 340.261 l
324.96 341.447 l
326.448 342.398 l
327.936 342.816 l
329.424 342.907 l
330.912 342.627 l
332.4 341.979 l
333.888 340.855 l
335.376 339.269 l
338.352 335.19 l
342.816 327.724 l
345.792 322.181 l
348.768 316.303 l
350.256 313.053 l
353.232 306.116 l
356.208 299.311 l
359.184 292.404 l
362.16 286.07 l
366.624 277.573 l
369.6 272.513 l
371.088 270.121 l
372.576 267.484 l
374.064 265.085 l
375.552 262.976 l
380.016 258.381 l
382.992 256.011 l
385.968 254.564 l
387.456 253.836 l
388.944 253.278 l
390.432 253.073 l
391.92 253.256 l
396.384 254.754 l
397.872 255.467 l
400.848 257.38 l
403.824 259.455 l
405.312 260.701 l
406.8 262.28 l
408.288 264.077 l
412.752 270.35 l
415.728 274.532 l
417.216 276.559 l
418.704 278.856 l
432.096 301.381 l
436.56 308.003 l
439.536 311.858 l
442.512 315.364 l
445.488 318.147 l
446.976 319.282 l
449.952 320.873 l
451.44 321.441 l
452.928 321.75 l
454.416 321.757 l
455.904 321.519 l
457.392 321.101 l
458.88 320.503 l
460.368 319.741 l
461.856 318.853 l
463.344 317.778 l
464.832 316.512 l
467.808 313.498 l
469.296 311.818 l
472.272 307.765 l
473.76 305.622 l
479.712 295.966 l
484.176 288.894 l
496.08 270.948 l
497.568 269.166 l
499.056 267.611 l
503.52 263.63 l
506.496 261.325 l
507.984 260.321 l
509.472 259.534 l
510.96 259.027 l
512.448 258.748 l
513.936 258.644 l
515.424 258.699 l
518.4 259.099 l
519.888 259.396 l
519.888 259.396 l
stroke
grestore
2 setlinecap
[] 0 setdash
0.000 0.500 0.000 setrgbcolor
gsave
446.4 345.6 72 43.2 clipbox
72 55.3041 m
74.976 55.3526 l
76.464 55.4845 l
77.952 55.7545 l
80.928 56.66 l
86.88 58.6041 l
88.368 59.2714 l
91.344 61.0583 l
94.32 63.0169 l
98.784 65.7229 l
100.272 66.8101 l
103.248 69.4431 l
112.176 78.0657 l
115.152 81.6959 l
121.104 89.4892 l
124.08 94.0201 l
128.544 101.674 l
131.52 107.082 l
134.496 113.179 l
137.472 120.006 l
140.448 127.21 l
143.424 135.002 l
146.4 143.737 l
149.376 153.197 l
152.352 163.367 l
155.328 174.573 l
159.792 192.826 l
162.768 205.695 l
167.232 226.061 l
173.184 253.942 l
176.16 268.692 l
180.624 289.632 l
186.576 318.079 l
191.04 338.646 l
192.528 344.398 l
194.016 349.182 l
195.504 354.342 l
196.992 359.08 l
198.48 363.226 l
199.968 366.402 l
201.456 368.464 l
202.944 370.332 l
204.432 371.334 l
205.92 371.363 l
207.408 370.734 l
208.896 369.339 l
210.384 367.731 l
211.872 365.681 l
213.36 363.035 l
214.848 359.752 l
216.336 355.846 l
217.824 351.446 l
220.8 341.847 l
231.216 301.081 l
234.192 289.138 l
237.168 277.757 l
238.656 271.708 l
243.12 255.423 l
244.608 250.924 l
247.584 242.734 l
249.072 238.321 l
250.56 234.516 l
255.024 225.869 l
256.512 223.447 l
258 221.72 l
259.488 220.471 l
260.976 219.519 l
262.464 218.78 l
263.952 218.419 l
265.44 218.66 l
269.904 221.851 l
271.392 223.39 l
272.88 225.811 l
277.344 234.372 l
280.32 240.714 l
281.808 244.328 l
284.784 252.581 l
287.76 261.314 l
295.2 284.887 l
299.664 297.578 l
302.64 306.417 l
307.104 317.114 l
310.08 323.072 l
311.568 325.782 l
313.056 328.178 l
317.52 332.877 l
319.008 333.771 l
320.496 334.416 l
321.984 334.855 l
323.472 335.11 l
324.96 334.996 l
326.448 334.553 l
327.936 333.907 l
329.424 332.967 l
330.912 331.873 l
332.4 330.58 l
333.888 329.086 l
335.376 327.38 l
338.352 323.269 l
342.816 316.402 l
344.304 313.8 l
347.28 309.203 l
356.208 293.622 l
360.672 286.013 l
362.16 283.817 l
363.648 281.935 l
365.136 280.24 l
368.112 276.511 l
369.6 274.818 l
372.576 271.17 l
374.064 269.654 l
375.552 268.375 l
378.528 266.27 l
380.016 265.507 l
385.968 263.172 l
388.944 262.566 l
390.432 262.474 l
393.408 262.902 l
394.896 263.287 l
396.384 263.937 l
400.848 266.614 l
402.336 267.37 l
403.824 268.431 l
406.8 270.943 l
408.288 272.438 l
409.776 274.166 l
411.264 276.2 l
414.24 280.528 l
417.216 284.61 l
418.704 286.607 l
423.168 293.352 l
427.632 300.526 l
430.608 305.424 l
433.584 309.536 l
436.56 313.035 l
438.048 314.616 l
441.024 317.088 l
442.512 318.27 l
445.488 320.134 l
446.976 320.805 l
448.464 321.208 l
449.952 321.373 l
451.44 321.317 l
452.928 321.046 l
454.416 320.52 l
455.904 319.702 l
457.392 318.669 l
458.88 317.439 l
460.368 316.062 l
461.856 314.529 l
464.832 310.977 l
469.296 304.936 l
472.272 300.235 l
475.248 295.162 l
481.2 284.292 l
482.688 281.835 l
488.64 273.169 l
491.616 269.192 l
494.592 265.467 l
496.08 263.777 l
497.568 262.319 l
499.056 261.17 l
500.544 260.327 l
503.52 259.029 l
505.008 258.586 l
507.984 258.223 l
509.472 258.082 l
510.96 258.096 l
512.448 258.363 l
513.936 258.893 l
515.424 259.706 l
518.4 261.905 l
519.888 263.088 l
519.888 263.088 l
stroke
grestore
1.000 0.000 0.000 setrgbcolor
gsave
446.4 345.6 72 43.2 clipbox
72 55.3041 m
74.976 55.3501 l
76.464 55.473 l
77.952 55.7272 l
80.928 56.6307 l
88.368 59.2501 l
89.856 60.008 l
92.832 61.9384 l
95.808 63.979 l
100.272 66.8254 l
101.76 67.952 l
104.736 70.6652 l
113.664 79.7025 l
116.64 83.4048 l
121.104 89.5194 l
124.08 93.8878 l
127.056 98.8184 l
130.032 104.238 l
133.008 109.952 l
135.984 116.207 l
138.96 123.241 l
141.936 130.818 l
144.912 138.894 l
147.888 147.881 l
150.864 157.771 l
153.84 168.256 l
156.816 179.604 l
159.792 191.986 l
164.256 211.487 l
168.72 231.921 l
188.064 321.671 l
191.04 334.693 l
194.016 345.297 l
195.504 350.009 l
198.48 358.735 l
199.968 362.475 l
201.456 364.884 l
202.944 366.391 l
204.432 367.36 l
205.92 367.947 l
207.408 367.828 l
208.896 367.028 l
210.384 365.389 l
211.872 363.399 l
213.36 360.818 l
214.848 357.662 l
216.336 354.185 l
217.824 350.037 l
220.8 340.332 l
222.288 335.125 l
226.752 318.258 l
232.704 293.665 l
235.68 282.852 l
237.168 276.636 l
243.12 255.053 l
250.56 232.995 l
252.048 229.869 l
255.024 224.565 l
256.512 222.371 l
259.488 219.48 l
260.976 218.066 l
262.464 217.128 l
263.952 216.855 l
265.44 216.958 l
266.928 217.322 l
268.416 218.028 l
269.904 219.258 l
271.392 220.973 l
272.88 223.084 l
277.344 230.37 l
278.832 233.004 l
280.32 236.234 l
283.296 243.668 l
284.784 247.62 l
296.688 283.266 l
301.152 296.375 l
304.128 304.839 l
307.104 312.479 l
310.08 319.284 l
311.568 322.207 l
314.544 327.342 l
316.032 329.468 l
317.52 331.138 l
319.008 332.539 l
320.496 333.772 l
321.984 334.777 l
323.472 335.405 l
324.96 335.71 l
326.448 335.776 l
327.936 335.522 l
329.424 334.939 l
330.912 334.03 l
332.4 332.868 l
333.888 331.506 l
335.376 329.936 l
338.352 326.261 l
341.328 321.898 l
345.792 314.513 l
351.744 303.525 l
356.208 295.047 l
359.184 288.898 l
363.648 281.054 l
365.136 278.795 l
368.112 274.749 l
371.088 270.517 l
374.064 266.724 l
375.552 265.054 l
377.04 263.789 l
380.016 261.726 l
381.504 260.617 l
382.992 259.651 l
384.48 258.896 l
385.968 258.334 l
388.944 257.625 l
390.432 257.449 l
391.92 257.478 l
393.408 257.793 l
396.384 258.802 l
397.872 259.573 l
402.336 262.679 l
403.824 263.909 l
406.8 267.023 l
409.776 270.38 l
412.752 274.452 l
415.728 278.824 l
418.704 283.586 l
421.68 287.887 l
432.096 304.846 l
433.584 306.93 l
438.048 312.162 l
439.536 313.739 l
441.024 314.955 l
444 317.015 l
445.488 317.822 l
446.976 318.391 l
448.464 318.793 l
449.952 319.033 l
451.44 319.118 l
452.928 318.978 l
454.416 318.653 l
455.904 318.089 l
457.392 317.285 l
458.88 316.208 l
461.856 313.52 l
464.832 310.451 l
466.32 308.813 l
467.808 307.006 l
473.76 298.663 l
478.224 291.075 l
479.712 288.712 l
484.176 280.981 l
490.128 272.463 l
496.08 264.843 l
497.568 263.244 l
499.056 261.843 l
500.544 260.65 l
502.032 259.649 l
503.52 258.846 l
505.008 258.23 l
507.984 257.306 l
509.472 256.916 l
510.96 256.729 l
512.448 256.823 l
513.936 257.13 l
515.424 257.598 l
516.912 258.242 l
519.888 259.939 l
519.888 259.939 l
stroke
grestore
0.000 0.750 0.750 setrgbcolor
gsave
446.4 345.6 72 43.2 clipbox
72 55.3041 m
74.976 55.3469 l
76.464 55.458 l
77.952 55.6896 l
79.44 56.0674 l
82.416 57.1358 l
89.856 59.9538 l
91.344 60.7606 l
94.32 62.7867 l
98.784 66.0187 l
101.76 68.0336 l
103.248 69.1499 l
104.736 70.4128 l
107.712 73.3714 l
115.152 81.4513 l
118.128 85.0988 l
121.104 89.2985 l
125.568 96.1965 l
128.544 101.168 l
131.52 106.683 l
134.496 112.762 l
137.472 119.322 l
140.448 126.447 l
143.424 134.248 l
146.4 142.709 l
149.376 151.896 l
152.352 161.99 l
155.328 172.935 l
158.304 184.519 l
161.28 196.796 l
165.744 216.618 l
173.184 251.06 l
182.112 292.788 l
189.552 325.689 l
192.528 337.138 l
194.016 342.425 l
195.504 347.221 l
198.48 355.831 l
199.968 359.143 l
201.456 361.461 l
202.944 363.222 l
204.432 364.535 l
205.92 365.309 l
207.408 365.007 l
208.896 363.695 l
210.384 361.734 l
211.872 359.562 l
213.36 357.054 l
214.848 353.837 l
217.824 345.655 l
219.312 340.702 l
222.288 330.359 l
223.776 325.12 l
225.264 319.339 l
229.728 300.554 l
231.216 294.966 l
237.168 270.82 l
240.144 260.717 l
246.096 241.389 l
249.072 232.27 l
250.56 228.246 l
252.048 225.063 l
258 214.427 l
259.488 212.702 l
260.976 211.714 l
262.464 211.024 l
263.952 210.54 l
265.44 210.342 l
266.928 210.343 l
268.416 210.828 l
269.904 211.967 l
271.392 213.643 l
274.368 217.471 l
275.856 219.52 l
277.344 221.854 l
278.832 224.593 l
281.808 231.255 l
284.784 238.426 l
286.272 242.523 l
289.248 251.396 l
293.712 263.624 l
296.688 273.88 l
298.176 278.341 l
301.152 286.354 l
304.128 295.422 l
305.616 299.4 l
310.08 309.277 l
311.568 312.389 l
314.544 317.736 l
316.032 320.333 l
317.52 322.585 l
319.008 324.266 l
320.496 325.624 l
321.984 326.778 l
323.472 327.645 l
324.96 328.137 l
326.448 328.366 l
327.936 328.318 l
329.424 328.05 l
330.912 327.548 l
332.4 326.853 l
333.888 325.993 l
336.864 323.687 l
338.352 322.229 l
339.84 320.473 l
344.304 314.433 l
345.792 312.089 l
350.256 303.823 l
353.232 298.353 l
354.72 295.54 l
359.184 287.997 l
363.648 279.632 l
371.088 267.463 l
372.576 265.507 l
378.528 258.717 l
380.016 257.136 l
381.504 255.767 l
382.992 254.639 l
384.48 253.737 l
385.968 253.008 l
388.944 252.043 l
391.92 251.489 l
393.408 251.326 l
394.896 251.349 l
396.384 251.581 l
397.872 251.964 l
399.36 252.58 l
402.336 254.356 l
405.312 256.3 l
406.8 257.518 l
409.776 260.574 l
414.24 265.363 l
415.728 267.348 l
420.192 273.857 l
423.168 278.168 l
432.096 292.223 l
435.072 296.58 l
441.024 304.635 l
442.512 306.366 l
444 307.89 l
446.976 310.511 l
448.464 311.608 l
449.952 312.455 l
451.44 313.078 l
452.928 313.535 l
454.416 313.837 l
455.904 313.955 l
457.392 313.892 l
458.88 313.648 l
460.368 313.198 l
461.856 312.518 l
463.344 311.616 l
464.832 310.478 l
466.32 309.115 l
467.808 307.53 l
470.784 303.838 l
472.272 301.91 l
473.76 299.776 l
478.224 292.535 l
481.2 287.47 l
485.664 279.474 l
490.128 271.629 l
493.104 266.362 l
496.08 261.815 l
499.056 257.717 l
500.544 255.861 l
503.52 252.69 l
506.496 249.809 l
507.984 248.568 l
509.472 247.568 l
510.96 246.821 l
512.448 246.27 l
513.936 245.879 l
515.424 245.738 l
516.912 245.786 l
519.888 246.235 l
519.888 246.235 l
stroke
grestore
0.750 0.000 0.750 setrgbcolor
gsave
446.4 345.6 72 43.2 clipbox
72 55.3041 m
74.976 55.3412 l
77.952 55.6121 l
79.44 55.9227 l
80.928 56.3754 l
83.904 57.6029 l
88.368 59.5512 l
91.344 60.8009 l
94.32 62.3505 l
95.808 63.3222 l
98.784 65.6436 l
106.224 71.9046 l
109.2 74.4651 l
112.176 77.4896 l
115.152 81.0567 l
119.616 86.9515 l
124.08 93.159 l
127.056 97.7869 l
130.032 103.027 l
133.008 108.809 l
135.984 114.974 l
138.96 121.514 l
141.936 128.621 l
144.912 136.507 l
147.888 145.212 l
150.864 154.607 l
153.84 164.592 l
156.816 175.244 l
159.792 186.728 l
162.768 199.112 l
167.232 218.949 l
176.16 258.993 l
180.624 278.517 l
186.576 301.848 l
188.064 307.22 l
191.04 316.71 l
194.016 325.224 l
195.504 329.225 l
196.992 332.731 l
198.48 335.073 l
201.456 339.002 l
202.944 339.858 l
204.432 340.931 l
205.92 341.46 l
207.408 340.772 l
208.896 339.599 l
210.384 337.465 l
211.872 334.688 l
214.848 328.261 l
217.824 320.549 l
220.8 312.047 l
225.264 299.547 l
228.24 288.723 l
229.728 284.07 l
231.216 280.109 l
232.704 275.821 l
238.656 255.03 l
246.096 232.293 l
247.584 228.587 l
249.072 225.452 l
250.56 222.615 l
253.536 217.884 l
255.024 215.721 l
256.512 213.793 l
258 212.072 l
260.976 209.103 l
262.464 207.753 l
263.952 206.786 l
265.44 206.68 l
266.928 207.226 l
269.904 208.67 l
271.392 209.644 l
274.368 212.017 l
275.856 213.45 l
277.344 215.148 l
280.32 219.021 l
281.808 221.094 l
283.296 223.484 l
284.784 226.286 l
290.736 239.163 l
293.712 244.506 l
295.2 247.388 l
298.176 253.653 l
304.128 265.535 l
307.104 272.141 l
308.592 275.092 l
311.568 280.001 l
314.544 284.961 l
317.52 290.102 l
324.96 300.728 l
326.448 302.555 l
329.424 305.237 l
330.912 306.296 l
333.888 308.045 l
335.376 308.716 l
336.864 308.99 l
338.352 309.003 l
339.84 308.762 l
342.816 307.846 l
344.304 307.094 l
347.28 305.091 l
348.768 303.936 l
351.744 301.001 l
353.232 299.377 l
354.72 297.423 l
356.208 295.188 l
357.696 292.686 l
363.648 281.321 l
375.552 257.865 l
380.016 248.215 l
384.48 239.9 l
387.456 234.794 l
390.432 230.479 l
393.408 226.696 l
394.896 225.01 l
397.872 222.147 l
400.848 219.657 l
402.336 218.656 l
403.824 218.022 l
405.312 217.694 l
406.8 217.557 l
408.288 217.637 l
409.776 217.886 l
412.752 218.739 l
417.216 220.807 l
418.704 221.669 l
420.192 222.858 l
421.68 224.4 l
424.656 228.334 l
430.608 236.451 l
435.072 243.163 l
438.048 247.419 l
439.536 249.833 l
444 257.712 l
445.488 260.035 l
449.952 266.274 l
454.416 272.072 l
457.392 275.271 l
460.368 278.176 l
461.856 279.491 l
463.344 280.603 l
464.832 281.49 l
467.808 282.892 l
469.296 283.453 l
470.784 283.811 l
472.272 284 l
473.76 284.033 l
475.248 283.908 l
476.736 283.657 l
478.224 283.266 l
481.2 282.041 l
482.688 281.226 l
484.176 280.259 l
487.152 277.886 l
491.616 273.877 l
494.592 270.776 l
499.056 265.754 l
502.032 262.419 l
505.008 258.644 l
507.984 254.746 l
515.424 246.005 l
518.4 243.283 l
519.888 241.915 l
519.888 241.915 l
stroke
grestore
0.750 0.750 0.000 setrgbcolor
gsave
446.4 345.6 72 43.2 clipbox
72 55.3041 m
76.464 55.4034 l
79.44 55.7522 l
80.928 56.0856 l
82.416 56.5481 l
85.392 57.8404 l
89.856 60.279 l
100.272 66.1003 l
103.248 68.3488 l
106.224 71.0615 l
109.2 74.1189 l
116.64 82.1934 l
119.616 85.63 l
122.592 89.4597 l
125.568 93.8135 l
128.544 98.672 l
131.52 103.921 l
135.984 112.362 l
138.96 118.446 l
141.936 125.073 l
144.912 132.381 l
147.888 140.4 l
150.864 149.06 l
153.84 158.275 l
156.816 168.02 l
159.792 178.336 l
162.768 189.273 l
165.744 200.832 l
170.208 219.298 l
173.184 232.626 l
176.16 245.844 l
182.112 269.578 l
186.576 286.029 l
188.064 290.118 l
189.552 294.786 l
192.528 303.186 l
195.504 310.277 l
198.48 315.063 l
201.456 318.76 l
204.432 320.587 l
205.92 320.113 l
207.408 318.877 l
208.896 316.796 l
211.872 312.845 l
214.848 307.988 l
216.336 304.961 l
220.8 294.161 l
228.24 274.979 l
232.704 259.061 l
237.168 248.078 l
238.656 245.544 l
240.144 243.486 l
241.632 240.853 l
244.608 232.589 l
246.096 228.717 l
249.072 219.978 l
250.56 216.397 l
252.048 213.873 l
253.536 210.133 l
255.024 205.83 l
256.512 203.236 l
259.488 202.583 l
260.976 201.173 l
262.464 199.436 l
263.952 197.398 l
265.44 194.435 l
266.928 192.391 l
268.416 190.555 l
269.904 188.934 l
271.392 187.595 l
272.88 186.645 l
274.368 186.851 l
275.856 187.21 l
277.344 187.042 l
280.32 187.146 l
281.808 186.945 l
283.296 186.005 l
284.784 184.573 l
286.272 183.566 l
289.248 182.214 l
290.736 182.111 l
292.224 183.409 l
293.712 185.706 l
295.2 187.024 l
296.688 187.441 l
298.176 188.459 l
299.664 189.748 l
301.152 190.687 l
304.128 191.731 l
305.616 192.446 l
308.592 193.19 l
310.08 194.117 l
311.568 195.589 l
313.056 197.274 l
314.544 199.154 l
316.032 201.62 l
319.008 207.011 l
320.496 208.95 l
323.472 212.198 l
326.448 216.04 l
329.424 220.165 l
330.912 222.055 l
333.888 225.229 l
335.376 227.175 l
336.864 229.652 l
338.352 232.515 l
341.328 238.86 l
342.816 241.292 l
344.304 243.066 l
347.28 246.096 l
351.744 249.98 l
356.208 253.24 l
359.184 254.879 l
360.672 255.589 l
362.16 256.504 l
363.648 257.187 l
365.136 257.023 l
369.6 255.528 l
377.04 250.464 l
380.016 247.274 l
381.504 245.23 l
382.992 242.792 l
387.456 236.6 l
390.432 233.396 l
391.92 231.25 l
393.408 228.69 l
396.384 224.094 l
400.848 216.522 l
403.824 211.957 l
405.312 209.253 l
406.8 206.267 l
408.288 204.021 l
409.776 202.37 l
411.264 200.502 l
412.752 198.272 l
414.24 195.485 l
415.728 192.449 l
417.216 189.91 l
418.704 187.61 l
423.168 181.506 l
424.656 179.83 l
427.632 177.133 l
430.608 173.522 l
432.096 172.111 l
436.56 168.589 l
439.536 166.289 l
441.024 165.002 l
444 161.895 l
445.488 160.95 l
446.976 160.436 l
449.952 160.084 l
454.416 159.83 l
455.904 159.818 l
457.392 159.545 l
458.88 159.454 l
461.856 159.909 l
464.832 160.211 l
467.808 160.781 l
469.296 161.506 l
473.76 164.851 l
475.248 165.89 l
478.224 168.244 l
484.176 172.136 l
487.152 174.503 l
488.64 175.755 l
491.616 178.737 l
493.104 180.476 l
494.592 182.393 l
496.08 183.942 l
499.056 186.437 l
500.544 187.806 l
503.52 190.983 l
505.008 192.058 l
507.984 193.732 l
509.472 194.737 l
510.96 195.892 l
518.4 202.469 l
519.888 203.64 l
519.888 203.64 l
stroke
grestore
0.000 setgray
gsave
446.4 345.6 72 43.2 clipbox
72 55.3041 m
76.464 55.3936 l
79.44 55.6822 l
82.416 56.3344 l
83.904 56.8359 l
86.88 58.1895 l
89.856 59.8931 l
103.248 68.1845 l
106.224 70.4212 l
109.2 73.0739 l
112.176 76.1508 l
115.152 79.5615 l
119.616 85.0248 l
124.08 90.7591 l
127.056 94.8676 l
130.032 99.3815 l
133.008 104.41 l
135.984 109.973 l
138.96 116.011 l
141.936 122.453 l
144.912 129.277 l
147.888 136.534 l
150.864 144.33 l
153.84 152.768 l
156.816 161.897 l
159.792 171.688 l
164.256 187.402 l
168.72 204.014 l
174.672 227.235 l
179.136 245.555 l
182.112 258.262 l
185.088 269.362 l
188.064 279.205 l
191.04 287.52 l
192.528 291.369 l
196.992 301.666 l
198.48 305.569 l
199.968 308.584 l
202.944 312.843 l
207.408 315.869 l
208.896 316.279 l
210.384 316.244 l
211.872 316.087 l
214.848 314.986 l
216.336 314.198 l
217.824 312.323 l
220.8 306.551 l
225.264 295.974 l
226.752 293.418 l
228.24 291.304 l
231.216 286.27 l
232.704 283.045 l
235.68 275.997 l
237.168 272.645 l
238.656 269.581 l
240.144 265.813 l
241.632 261.718 l
246.096 250.849 l
247.584 247.404 l
253.536 235.588 l
256.512 230.411 l
258 226.852 l
260.976 218.637 l
262.464 215.155 l
263.952 212.12 l
266.928 207.04 l
269.904 201.383 l
271.392 198.729 l
272.88 197.061 l
274.368 195.927 l
275.856 194.96 l
278.832 193.665 l
280.32 191.928 l
281.808 189.684 l
283.296 187.885 l
284.784 186.445 l
286.272 184.729 l
287.76 182.297 l
290.736 177.963 l
292.224 176.29 l
293.712 175.786 l
295.2 175.833 l
296.688 176.021 l
299.664 176.066 l
301.152 176.488 l
302.64 176.508 l
304.128 176.112 l
307.104 176.036 l
308.592 175.895 l
310.08 176.015 l
311.568 176.451 l
313.056 177.826 l
314.544 179.659 l
316.032 180.844 l
317.52 181.147 l
319.008 181.061 l
320.496 181.598 l
323.472 183.996 l
324.96 184.978 l
327.936 187.406 l
332.4 191.529 l
333.888 193.129 l
335.376 195.077 l
336.864 197.571 l
338.352 199.806 l
339.84 201.382 l
342.816 205.064 l
344.304 206.004 l
347.28 207.476 l
348.768 208.353 l
350.256 209.409 l
351.744 209.946 l
356.208 212.285 l
357.696 213.737 l
359.184 214.762 l
360.672 215.447 l
362.16 216.465 l
363.648 217.251 l
365.136 217.734 l
366.624 218.026 l
368.112 217.794 l
369.6 217.828 l
371.088 218.166 l
375.552 217.951 l
378.528 218.085 l
382.992 216.913 l
384.48 216.289 l
385.968 215.855 l
387.456 215.707 l
388.944 215.317 l
391.92 213.534 l
396.384 210.058 l
397.872 208.874 l
399.36 207.927 l
400.848 207.403 l
403.824 206.86 l
406.8 205.992 l
408.288 205.222 l
409.776 203.924 l
412.752 200.687 l
414.24 199.476 l
415.728 198.603 l
417.216 198 l
418.704 197.565 l
420.192 196.652 l
421.68 195.874 l
423.168 195.331 l
424.656 194.911 l
427.632 194.327 l
429.12 193.548 l
430.608 192.617 l
432.096 191.448 l
435.072 188.452 l
436.56 187.551 l
438.048 186.88 l
439.536 185.734 l
442.512 183.859 l
444 183.054 l
445.488 182.897 l
449.952 180.342 l
454.416 176.991 l
457.392 175.545 l
458.88 174.277 l
461.856 171.178 l
463.344 170.017 l
464.832 169.041 l
466.32 167.68 l
467.808 166.676 l
469.296 165.876 l
470.784 165.325 l
472.272 164.627 l
475.248 162.249 l
478.224 160.749 l
479.712 159.859 l
481.2 159.21 l
482.688 158.938 l
485.664 158.057 l
487.152 157.897 l
488.64 157.578 l
496.08 152.114 l
497.568 151.546 l
500.544 151.276 l
502.032 150.753 l
503.52 150.415 l
505.008 150.407 l
506.496 150.588 l
507.984 150.61 l
509.472 150.294 l
512.448 150.094 l
513.936 149.675 l
515.424 148.919 l
516.912 148.488 l
518.4 148.487 l
519.888 148.301 l
519.888 148.301 l
stroke
grestore
1.000 setlinewidth
0 setlinejoin
gsave
72 388.8 m
518.4 388.8 l
stroke
grestore
gsave
518.4 43.2 m
518.4 388.8 l
stroke
grestore
gsave
72 43.2 m
518.4 43.2 l
stroke
grestore
gsave
72 43.2 m
72 388.8 l
stroke
grestore
0.500 setlinewidth
1 setlinejoin
0 setlinecap
gsave
/o {
gsave
newpath
translate
0.5 setlinewidth
1 setlinejoin
0 setlinecap
0 0 m
0 4 l
gsave
0.000 setgray
fill
grestore
stroke
grestore
} bind def
72 43.2 o
grestore
gsave
/o {
gsave
newpath
translate
0.5 setlinewidth
1 setlinejoin
0 setlinecap
0 0 m
0 -4 l
gsave
0.000 setgray
fill
grestore
stroke
grestore
} bind def
72 388.8 o
grestore
/BitstreamVeraSans-Roman findfont
12.000 scalefont
setfont
gsave
68.976562 30.075000 translate
0.000000 rotate
0.000000 0.000000 m /zero glyphshow
grestore
gsave
/o {
gsave
newpath
translate
0.5 setlinewidth
1 setlinejoin
0 setlinecap
0 0 m
0 4 l
gsave
0.000 setgray
fill
grestore
stroke
grestore
} bind def
161.28 43.2 o
grestore
gsave
/o {
gsave
newpath
translate
0.5 setlinewidth
1 setlinejoin
0 setlinecap
0 0 m
0 -4 l
gsave
0.000 setgray
fill
grestore
stroke
grestore
} bind def
161.28 388.8 o
grestore
gsave
158.444062 30.075000 translate
0.000000 rotate
0.000000 0.000000 m /five glyphshow
grestore
gsave
/o {
gsave
newpath
translate
0.5 setlinewidth
1 setlinejoin
0 setlinecap
0 0 m
0 4 l
gsave
0.000 setgray
fill
grestore
stroke
grestore
} bind def
250.56 43.2 o
grestore
gsave
/o {
gsave
newpath
translate
0.5 setlinewidth
1 setlinejoin
0 setlinecap
0 0 m
0 -4 l
gsave
0.000 setgray
fill
grestore
stroke
grestore
} bind def
250.56 388.8 o
grestore
gsave
243.974062 30.075000 translate
0.000000 rotate
0.000000 0.000000 m /one glyphshow
7.634766 0.000000 m /zero glyphshow
grestore
gsave
/o {
gsave
newpath
translate
0.5 setlinewidth
1 setlinejoin
0 setlinecap
0 0 m
0 4 l
gsave
0.000 setgray
fill
grestore
stroke
grestore
} bind def
339.84 43.2 o
grestore
gsave
/o {
gsave
newpath
translate
0.5 setlinewidth
1 setlinejoin
0 setlinecap
0 0 m
0 -4 l
gsave
0.000 setgray
fill
grestore
stroke
grestore
} bind def
339.84 388.8 o
grestore
gsave
333.379062 30.075000 translate
0.000000 rotate
0.000000 0.000000 m /one glyphshow
7.634766 0.000000 m /five glyphshow
grestore
gsave
/o {
gsave
newpath
translate
0.5 setlinewidth
1 setlinejoin
0 setlinecap
0 0 m
0 4 l
gsave
0.000 setgray
fill
grestore
stroke
grestore
} bind def
429.12 43.2 o
grestore
gsave
/o {
gsave
newpath
translate
0.5 setlinewidth
1 setlinejoin
0 setlinecap
0 0 m
0 -4 l
gsave
0.000 setgray
fill
grestore
stroke
grestore
} bind def
429.12 388.8 o
grestore
gsave
422.315312 30.075000 translate
0.000000 rotate
0.000000 0.000000 m /two glyphshow
7.634766 0.000000 m /zero glyphshow
grestore
gsave
/o {
gsave
newpath
translate
0.5 setlinewidth
1 setlinejoin
0 setlinecap
0 0 m
0 4 l
gsave
0.000 setgray
fill
grestore
stroke
grestore
} bind def
518.4 43.2 o
grestore
gsave
/o {
gsave
newpath
translate
0.5 setlinewidth
1 setlinejoin
0 setlinecap
0 0 m
0 -4 l
gsave
0.000 setgray
fill
grestore
stroke
grestore
} bind def
518.4 388.8 o
grestore
gsave
511.720312 30.075000 translate
0.000000 rotate
0.000000 0.000000 m /two glyphshow
7.634766 0.000000 m /five glyphshow
grestore
/BitstreamVeraSans-Roman findfont
20.000 scalefont
setfont
gsave
257.551562 7.371875 translate
0.000000 rotate
0.000000 0.000000 m /t glyphshow
7.841797 0.000000 m /space glyphshow
14.199219 0.000000 m /parenleft glyphshow
22.001953 0.000000 m /d glyphshow
34.697266 0.000000 m /a glyphshow
46.953125 0.000000 m /y glyphshow
58.789062 0.000000 m /s glyphshow
69.208984 0.000000 m /parenright glyphshow
grestore
gsave
/o {
gsave
newpath
translate
0.5 setlinewidth
1 setlinejoin
0 setlinecap
0 0 m
4 0 l
gsave
0.000 setgray
fill
grestore
stroke
grestore
} bind def
72 43.2 o
grestore
gsave
/o {
gsave
newpath
translate
0.5 setlinewidth
1 setlinejoin
0 setlinecap
0 0 m
-4 0 l
gsave
0.000 setgray
fill
grestore
stroke
grestore
} bind def
518.4 43.2 o
grestore
/BitstreamVeraSans-Roman findfont
12.000 scalefont
setfont
gsave
61.953125 39.887500 translate
0.000000 rotate
0.000000 0.000000 m /zero glyphshow
grestore
gsave
/o {
gsave
newpath
translate
0.5 setlinewidth
1 setlinejoin
0 setlinecap
0 0 m
4 0 l
gsave
0.000 setgray
fill
grestore
stroke
grestore
} bind def
72 81.6 o
grestore
gsave
/o {
gsave
newpath
translate
0.5 setlinewidth
1 setlinejoin
0 setlinecap
0 0 m
-4 0 l
gsave
0.000 setgray
fill
grestore
stroke
grestore
} bind def
518.4 81.6 o
grestore
gsave
62.328125 78.287500 translate
0.000000 rotate
0.000000 0.000000 m /five glyphshow
grestore
gsave
/o {
gsave
newpath
translate
0.5 setlinewidth
1 setlinejoin
0 setlinecap
0 0 m
4 0 l
gsave
0.000 setgray
fill
grestore
stroke
grestore
} bind def
72 120 o
grestore
gsave
/o {
gsave
newpath
translate
0.5 setlinewidth
1 setlinejoin
0 setlinecap
0 0 m
-4 0 l
gsave
0.000 setgray
fill
grestore
stroke
grestore
} bind def
518.4 120 o
grestore
gsave
54.828125 116.687500 translate
0.000000 rotate
0.000000 0.000000 m /one glyphshow
7.634766 0.000000 m /zero glyphshow
grestore
gsave
/o {
gsave
newpath
translate
0.5 setlinewidth
1 setlinejoin
0 setlinecap
0 0 m
4 0 l
gsave
0.000 setgray
fill
grestore
stroke
grestore
} bind def
72 158.4 o
grestore
gsave
/o {
gsave
newpath
translate
0.5 setlinewidth
1 setlinejoin
0 setlinecap
0 0 m
-4 0 l
gsave
0.000 setgray
fill
grestore
stroke
grestore
} bind def
518.4 158.4 o
grestore
gsave
55.078125 155.087500 translate
0.000000 rotate
0.000000 0.000000 m /one glyphshow
7.634766 0.000000 m /five glyphshow
grestore
gsave
/o {
gsave
newpath
translate
0.5 setlinewidth
1 setlinejoin
0 setlinecap
0 0 m
4 0 l
gsave
0.000 setgray
fill
grestore
stroke
grestore
} bind def
72 196.8 o
grestore
gsave
/o {
gsave
newpath
translate
0.5 setlinewidth
1 setlinejoin
0 setlinecap
0 0 m
-4 0 l
gsave
0.000 setgray
fill
grestore
stroke
grestore
} bind def
518.4 196.8 o
grestore
gsave
54.390625 193.487500 translate
0.000000 rotate
0.000000 0.000000 m /two glyphshow
7.634766 0.000000 m /zero glyphshow
grestore
gsave
/o {
gsave
newpath
translate
0.5 setlinewidth
1 setlinejoin
0 setlinecap
0 0 m
4 0 l
gsave
0.000 setgray
fill
grestore
stroke
grestore
} bind def
72 235.2 o
grestore
gsave
/o {
gsave
newpath
translate
0.5 setlinewidth
1 setlinejoin
0 setlinecap
0 0 m
-4 0 l
gsave
0.000 setgray
fill
grestore
stroke
grestore
} bind def
518.4 235.2 o
grestore
gsave
54.640625 231.887500 translate
0.000000 rotate
0.000000 0.000000 m /two glyphshow
7.634766 0.000000 m /five glyphshow
grestore
gsave
/o {
gsave
newpath
translate
0.5 setlinewidth
1 setlinejoin
0 setlinecap
0 0 m
4 0 l
gsave
0.000 setgray
fill
grestore
stroke
grestore
} bind def
72 273.6 o
grestore
gsave
/o {
gsave
newpath
translate
0.5 setlinewidth
1 setlinejoin
0 setlinecap
0 0 m
-4 0 l
gsave
0.000 setgray
fill
grestore
stroke
grestore
} bind def
518.4 273.6 o
grestore
gsave
54.437500 270.287500 translate
0.000000 rotate
0.000000 0.000000 m /three glyphshow
7.634766 0.000000 m /zero glyphshow
grestore
gsave
/o {
gsave
newpath
translate
0.5 setlinewidth
1 setlinejoin
0 setlinecap
0 0 m
4 0 l
gsave
0.000 setgray
fill
grestore
stroke
grestore
} bind def
72 312 o
grestore
gsave
/o {
gsave
newpath
translate
0.5 setlinewidth
1 setlinejoin
0 setlinecap
0 0 m
-4 0 l
gsave
0.000 setgray
fill
grestore
stroke
grestore
} bind def
518.4 312 o
grestore
gsave
54.687500 308.687500 translate
0.000000 rotate
0.000000 0.000000 m /three glyphshow
7.634766 0.000000 m /five glyphshow
grestore
gsave
/o {
gsave
newpath
translate
0.5 setlinewidth
1 setlinejoin
0 setlinecap
0 0 m
4 0 l
gsave
0.000 setgray
fill
grestore
stroke
grestore
} bind def
72 350.4 o
grestore
gsave
/o {
gsave
newpath
translate
0.5 setlinewidth
1 setlinejoin
0 setlinecap
0 0 m
-4 0 l
gsave
0.000 setgray
fill
grestore
stroke
grestore
} bind def
518.4 350.4 o
grestore
gsave
54.109375 347.087500 translate
0.000000 rotate
0.000000 0.000000 m /four glyphshow
7.634766 0.000000 m /zero glyphshow
grestore
gsave
/o {
gsave
newpath
translate
0.5 setlinewidth
1 setlinejoin
0 setlinecap
0 0 m
4 0 l
gsave
0.000 setgray
fill
grestore
stroke
grestore
} bind def
72 388.8 o
grestore
gsave
/o {
gsave
newpath
translate
0.5 setlinewidth
1 setlinejoin
0 setlinecap
0 0 m
-4 0 l
gsave
0.000 setgray
fill
grestore
stroke
grestore
} bind def
518.4 388.8 o
grestore
gsave
54.359375 385.487500 translate
0.000000 rotate
0.000000 0.000000 m /four glyphshow
7.634766 0.000000 m /five glyphshow
grestore
/BitstreamVeraSans-Roman findfont
20.000 scalefont
setfont
gsave
44.953125 188.304688 translate
90.000000 rotate
0.000000 0.000000 m /R glyphshow
13.896484 0.000000 m /M glyphshow
31.152344 0.000000 m /S glyphshow
43.847656 0.000000 m /V glyphshow
grestore
gsave
209.395312 393.800000 translate
0.000000 rotate
0.000000 0.000000 m /E glyphshow
12.636719 0.000000 m /a glyphshow
24.892578 0.000000 m /d glyphshow
37.587891 0.000000 m /y glyphshow
49.423828 0.000000 m /space glyphshow
55.781250 0.000000 m /A glyphshow
69.462891 0.000000 m /l glyphshow
75.019531 0.000000 m /p glyphshow
87.714844 0.000000 m /h glyphshow
100.390625 0.000000 m /a glyphshow
112.646484 0.000000 m /U glyphshow
127.285156 0.000000 m /space glyphshow
133.642578 0.000000 m /t glyphshow
141.484375 0.000000 m /e glyphshow
153.789062 0.000000 m /s glyphshow
164.208984 0.000000 m /t glyphshow
grestore
1.000 setlinewidth
0 setlinejoin
gsave
77 278.097 m
158.516 278.097 l
158.516 383.8 l
77 383.8 l
cl
gsave
1.000 setgray
fill
grestore
stroke
grestore
1.500 setlinewidth
1 setlinejoin
[6 6] 0 setdash
0.000 0.000 1.000 setrgbcolor
gsave
84 375.706 m
98 375.706 l
stroke
grestore
0.000 setgray
/BitstreamVeraSans-Roman findfont
10.000 scalefont
setfont
gsave
109.000000 372.206250 translate
0.000000 rotate
0.000000 0.000000 m /s glyphshow
5.209961 0.000000 m /t glyphshow
9.130859 0.000000 m /a glyphshow
15.258789 0.000000 m /n glyphshow
21.596680 0.000000 m /d glyphshow
27.944336 0.000000 m /a glyphshow
34.072266 0.000000 m /r glyphshow
38.058594 0.000000 m /d glyphshow
grestore
2 setlinecap
[] 0 setdash
0.000 0.500 0.000 setrgbcolor
gsave
84 361.034 m
98 361.034 l
stroke
grestore
0.000 setgray
gsave
109.000000 357.534375 translate
0.000000 rotate
0.000000 0.000000 m /a glyphshow
6.127930 0.000000 m /l glyphshow
8.906250 0.000000 m /p glyphshow
15.253906 0.000000 m /h glyphshow
21.591797 0.000000 m /a glyphshow
27.719727 0.000000 m /u glyphshow
34.057617 0.000000 m /one glyphshow
grestore
1.000 0.000 0.000 setrgbcolor
gsave
84 346.363 m
98 346.363 l
stroke
grestore
0.000 setgray
gsave
109.000000 342.862500 translate
0.000000 rotate
0.000000 0.000000 m /a glyphshow
6.127930 0.000000 m /l glyphshow
8.906250 0.000000 m /p glyphshow
15.253906 0.000000 m /h glyphshow
21.591797 0.000000 m /a glyphshow
27.719727 0.000000 m /u glyphshow
34.057617 0.000000 m /two glyphshow
grestore
0.000 0.750 0.750 setrgbcolor
gsave
84 331.691 m
98 331.691 l
stroke
grestore
0.000 setgray
gsave
109.000000 328.190625 translate
0.000000 rotate
0.000000 0.000000 m /a glyphshow
6.127930 0.000000 m /l glyphshow
8.906250 0.000000 m /p glyphshow
15.253906 0.000000 m /h glyphshow
21.591797 0.000000 m /a glyphshow
27.719727 0.000000 m /u glyphshow
34.057617 0.000000 m /three glyphshow
grestore
0.750 0.000 0.750 setrgbcolor
gsave
84 317.019 m
98 317.019 l
stroke
grestore
0.000 setgray
gsave
109.000000 313.518750 translate
0.000000 rotate
0.000000 0.000000 m /a glyphshow
6.127930 0.000000 m /l glyphshow
8.906250 0.000000 m /p glyphshow
15.253906 0.000000 m /h glyphshow
21.591797 0.000000 m /a glyphshow
27.719727 0.000000 m /u glyphshow
34.057617 0.000000 m /five glyphshow
grestore
0.750 0.750 0.000 setrgbcolor
gsave
84 302.347 m
98 302.347 l
stroke
grestore
0.000 setgray
gsave
109.000000 298.846875 translate
0.000000 rotate
0.000000 0.000000 m /a glyphshow
6.127930 0.000000 m /l glyphshow
8.906250 0.000000 m /p glyphshow
15.253906 0.000000 m /h glyphshow
21.591797 0.000000 m /a glyphshow
27.719727 0.000000 m /u glyphshow
34.057617 0.000000 m /eight glyphshow
grestore
gsave
84 287.675 m
98 287.675 l
stroke
grestore
gsave
109.000000 284.175000 translate
0.000000 rotate
0.000000 0.000000 m /a glyphshow
6.127930 0.000000 m /l glyphshow
8.906250 0.000000 m /p glyphshow
15.253906 0.000000 m /h glyphshow
21.591797 0.000000 m /a glyphshow
27.719727 0.000000 m /u glyphshow
34.057617 0.000000 m /one glyphshow
40.419922 0.000000 m /zero glyphshow
grestore

end
showpage
