%!PS-Adobe-3.0 EPSF-3.0
%%Title: eady_diffusion_rmsv.eps
%%Creator: matplotlib version 1.4.0, http://matplotlib.org/
%%CreationDate: Fri Mar 11 17:34:31 2016
%%Orientation: portrait
%%BoundingBox: 18 180 594 612
%%EndComments
%%BeginProlog
/mpldict 8 dict def
mpldict begin
/m { moveto } bind def
/l { lineto } bind def
/r { rlineto } bind def
/c { curveto } bind def
/cl { closepath } bind def
/box {
m
1 index 0 r
0 exch r
neg 0 r
cl
} bind def
/clipbox {
box
clip
newpath
} bind def
%!PS-Adobe-3.0 Resource-Font
%%Title: Bitstream Vera Sans
%%Copyright: Copyright (c) 2003 by Bitstream, Inc. All Rights Reserved.
%%Creator: Converted from TrueType to type 3 by PPR
25 dict begin
/_d{bind def}bind def
/_m{moveto}_d
/_l{lineto}_d
/_cl{closepath eofill}_d
/_c{curveto}_d
/_sc{7 -1 roll{setcachedevice}{pop pop pop pop pop pop}ifelse}_d
/_e{exec}_d
/FontName /BitstreamVeraSans-Roman def
/PaintType 0 def
/FontMatrix[.001 0 0 .001 0 0]def
/FontBBox[-183 -236 1287 928]def
/FontType 3 def
/Encoding [ /space /parenleft /parenright /zero /one /two /three /four /five /E /M /R /S /V /underscore /a /c /d /e /f /i /n /o /r /s /t /u /v /y ] def
/FontInfo 10 dict dup begin
/FamilyName (Bitstream Vera Sans) def
/FullName (Bitstream Vera Sans) def
/Notice (Copyright (c) 2003 by Bitstream, Inc. All Rights Reserved. Bitstream Vera is a trademark of Bitstream, Inc.) def
/Weight (Roman) def
/Version (Release 1.10) def
/ItalicAngle 0.0 def
/isFixedPitch false def
/UnderlinePosition -213 def
/UnderlineThickness 143 def
end readonly def
/CharStrings 29 dict dup begin
/space{318 0 0 0 0 0 _sc
}_d
/parenleft{390 0 86 -131 310 759 _sc
310 759 _m
266 683 234 609 213 536 _c
191 463 181 389 181 314 _c
181 238 191 164 213 91 _c
234 17 266 -56 310 -131 _c
232 -131 _l
183 -54 146 20 122 94 _c
98 168 86 241 86 314 _c
86 386 98 459 122 533 _c
146 607 182 682 232 759 _c
310 759 _l
_cl}_d
/parenright{390 0 80 -131 304 759 _sc
80 759 _m
158 759 _l
206 682 243 607 267 533 _c
291 459 304 386 304 314 _c
304 241 291 168 267 94 _c
243 20 206 -54 158 -131 _c
80 -131 _l
123 -56 155 17 177 91 _c
198 164 209 238 209 314 _c
209 389 198 463 177 536 _c
155 609 123 683 80 759 _c
_cl}_d
/zero{636 0 66 -13 570 742 _sc
318 664 _m
267 664 229 639 203 589 _c
177 539 165 464 165 364 _c
165 264 177 189 203 139 _c
229 89 267 64 318 64 _c
369 64 407 89 433 139 _c
458 189 471 264 471 364 _c
471 464 458 539 433 589 _c
407 639 369 664 318 664 _c
318 742 _m
399 742 461 709 505 645 _c
548 580 570 486 570 364 _c
570 241 548 147 505 83 _c
461 19 399 -13 318 -13 _c
236 -13 173 19 130 83 _c
87 147 66 241 66 364 _c
66 486 87 580 130 645 _c
173 709 236 742 318 742 _c
_cl}_d
/one{636 0 110 0 544 729 _sc
124 83 _m
285 83 _l
285 639 _l
110 604 _l
110 694 _l
284 729 _l
383 729 _l
383 83 _l
544 83 _l
544 0 _l
124 0 _l
124 83 _l
_cl}_d
/two{{636 0 73 0 536 742 _sc
192 83 _m
536 83 _l
536 0 _l
73 0 _l
73 83 _l
110 121 161 173 226 239 _c
290 304 331 346 348 365 _c
380 400 402 430 414 455 _c
426 479 433 504 433 528 _c
433 566 419 598 392 622 _c
365 646 330 659 286 659 _c
255 659 222 653 188 643 _c
154 632 117 616 78 594 _c
78 694 _l
118 710 155 722 189 730 _c
223 738 255 742 284 742 _c
}_e{359 742 419 723 464 685 _c
509 647 532 597 532 534 _c
532 504 526 475 515 449 _c
504 422 484 390 454 354 _c
446 344 420 317 376 272 _c
332 227 271 164 192 83 _c
_cl}_e}_d
/three{{636 0 76 -13 556 742 _sc
406 393 _m
453 383 490 362 516 330 _c
542 298 556 258 556 212 _c
556 140 531 84 482 45 _c
432 6 362 -13 271 -13 _c
240 -13 208 -10 176 -4 _c
144 1 110 10 76 22 _c
76 117 _l
103 101 133 89 166 81 _c
198 73 232 69 268 69 _c
330 69 377 81 409 105 _c
441 129 458 165 458 212 _c
458 254 443 288 413 312 _c
383 336 341 349 287 349 _c
}_e{202 349 _l
202 430 _l
291 430 _l
339 430 376 439 402 459 _c
428 478 441 506 441 543 _c
441 580 427 609 401 629 _c
374 649 336 659 287 659 _c
260 659 231 656 200 650 _c
169 644 135 635 98 623 _c
98 711 _l
135 721 170 729 203 734 _c
235 739 266 742 296 742 _c
370 742 429 725 473 691 _c
517 657 539 611 539 553 _c
539 513 527 479 504 451 _c
481 423 448 403 406 393 _c
_cl}_e}_d
/four{636 0 49 0 580 729 _sc
378 643 _m
129 254 _l
378 254 _l
378 643 _l
352 729 _m
476 729 _l
476 254 _l
580 254 _l
580 172 _l
476 172 _l
476 0 _l
378 0 _l
378 172 _l
49 172 _l
49 267 _l
352 729 _l
_cl}_d
/five{{636 0 77 -13 549 729 _sc
108 729 _m
495 729 _l
495 646 _l
198 646 _l
198 467 _l
212 472 227 476 241 478 _c
255 480 270 482 284 482 _c
365 482 429 459 477 415 _c
525 370 549 310 549 234 _c
549 155 524 94 475 51 _c
426 8 357 -13 269 -13 _c
238 -13 207 -10 175 -6 _c
143 -1 111 6 77 17 _c
77 116 _l
106 100 136 88 168 80 _c
199 72 232 69 267 69 _c
}_e{323 69 368 83 401 113 _c
433 143 450 183 450 234 _c
450 284 433 324 401 354 _c
368 384 323 399 267 399 _c
241 399 214 396 188 390 _c
162 384 135 375 108 363 _c
108 729 _l
_cl}_e}_d
/E{632 0 98 0 568 729 _sc
98 729 _m
559 729 _l
559 646 _l
197 646 _l
197 430 _l
544 430 _l
544 347 _l
197 347 _l
197 83 _l
568 83 _l
568 0 _l
98 0 _l
98 729 _l
_cl}_d
/M{863 0 98 0 765 729 _sc
98 729 _m
245 729 _l
431 233 _l
618 729 _l
765 729 _l
765 0 _l
669 0 _l
669 640 _l
481 140 _l
382 140 _l
194 640 _l
194 0 _l
98 0 _l
98 729 _l
_cl}_d
/R{{695 0 98 0 666 729 _sc
444 342 _m
465 334 486 319 506 296 _c
526 272 546 240 566 199 _c
666 0 _l
560 0 _l
467 187 _l
443 235 419 268 397 284 _c
374 300 343 308 304 308 _c
197 308 _l
197 0 _l
98 0 _l
98 729 _l
321 729 _l
404 729 466 711 507 677 _c
548 642 569 589 569 519 _c
569 473 558 434 537 404 _c
515 374 484 353 444 342 _c
197 648 _m
197 389 _l
321 389 _l
}_e{368 389 404 400 428 422 _c
452 444 465 476 465 519 _c
465 561 452 593 428 615 _c
404 637 368 648 321 648 _c
197 648 _l
_cl}_e}_d
/S{{635 0 66 -13 579 742 _sc
535 705 _m
535 609 _l
497 627 462 640 429 649 _c
395 657 363 662 333 662 _c
279 662 237 651 208 631 _c
179 610 165 580 165 542 _c
165 510 174 485 194 469 _c
213 452 250 439 304 429 _c
364 417 _l
437 403 491 378 526 343 _c
561 307 579 260 579 201 _c
579 130 555 77 508 41 _c
460 5 391 -13 300 -13 _c
265 -13 228 -9 189 -2 _c
}_e{150 5 110 16 69 32 _c
69 134 _l
109 111 148 94 186 83 _c
224 71 262 66 300 66 _c
356 66 399 77 430 99 _c
460 121 476 152 476 194 _c
476 230 465 258 443 278 _c
421 298 385 313 335 323 _c
275 335 _l
201 349 148 372 115 404 _c
82 435 66 478 66 534 _c
66 598 88 649 134 686 _c
179 723 242 742 322 742 _c
356 742 390 739 426 733 _c
461 727 497 717 535 705 _c
}_e{_cl}_e}_d
/V{684 0 8 0 676 729 _sc
286 0 _m
8 729 _l
111 729 _l
342 115 _l
573 729 _l
676 729 _l
398 0 _l
286 0 _l
_cl}_d
/underscore{500 0 -9 -235 510 -165 _sc
510 -165 _m
510 -235 _l
-9 -235 _l
-9 -165 _l
510 -165 _l
_cl}_d
/a{{613 0 60 -13 522 560 _sc
343 275 _m
270 275 220 266 192 250 _c
164 233 150 205 150 165 _c
150 133 160 107 181 89 _c
202 70 231 61 267 61 _c
317 61 357 78 387 114 _c
417 149 432 196 432 255 _c
432 275 _l
343 275 _l
522 312 _m
522 0 _l
432 0 _l
432 83 _l
411 49 385 25 355 10 _c
325 -5 287 -13 243 -13 _c
187 -13 142 2 109 33 _c
76 64 60 106 60 159 _c
}_e{60 220 80 266 122 298 _c
163 329 224 345 306 345 _c
432 345 _l
432 354 _l
432 395 418 427 391 450 _c
364 472 326 484 277 484 _c
245 484 215 480 185 472 _c
155 464 127 453 100 439 _c
100 522 _l
132 534 164 544 195 550 _c
226 556 256 560 286 560 _c
365 560 424 539 463 498 _c
502 457 522 395 522 312 _c
_cl}_e}_d
/c{{550 0 55 -13 488 560 _sc
488 526 _m
488 442 _l
462 456 437 466 411 473 _c
385 480 360 484 334 484 _c
276 484 230 465 198 428 _c
166 391 150 339 150 273 _c
150 206 166 154 198 117 _c
230 80 276 62 334 62 _c
360 62 385 65 411 72 _c
437 79 462 90 488 104 _c
488 21 _l
462 9 436 0 410 -5 _c
383 -10 354 -13 324 -13 _c
242 -13 176 12 128 64 _c
}_e{79 115 55 185 55 273 _c
55 362 79 432 128 483 _c
177 534 244 560 330 560 _c
358 560 385 557 411 551 _c
437 545 463 537 488 526 _c
_cl}_e}_d
/d{{635 0 55 -13 544 760 _sc
454 464 _m
454 760 _l
544 760 _l
544 0 _l
454 0 _l
454 82 _l
435 49 411 25 382 10 _c
353 -5 319 -13 279 -13 _c
213 -13 159 13 117 65 _c
75 117 55 187 55 273 _c
55 359 75 428 117 481 _c
159 533 213 560 279 560 _c
319 560 353 552 382 536 _c
411 520 435 496 454 464 _c
148 273 _m
148 207 161 155 188 117 _c
215 79 253 61 301 61 _c
}_e{348 61 385 79 413 117 _c
440 155 454 207 454 273 _c
454 339 440 390 413 428 _c
385 466 348 485 301 485 _c
253 485 215 466 188 428 _c
161 390 148 339 148 273 _c
_cl}_e}_d
/e{{615 0 55 -13 562 560 _sc
562 296 _m
562 252 _l
149 252 _l
153 190 171 142 205 110 _c
238 78 284 62 344 62 _c
378 62 412 66 444 74 _c
476 82 509 95 541 113 _c
541 28 _l
509 14 476 3 442 -3 _c
408 -9 373 -13 339 -13 _c
251 -13 182 12 131 62 _c
80 112 55 181 55 268 _c
55 357 79 428 127 481 _c
175 533 241 560 323 560 _c
397 560 455 536 498 489 _c
}_e{540 441 562 377 562 296 _c
472 322 _m
471 371 457 410 431 440 _c
404 469 368 484 324 484 _c
274 484 234 469 204 441 _c
174 413 156 373 152 322 _c
472 322 _l
_cl}_e}_d
/f{352 0 23 0 371 760 _sc
371 760 _m
371 685 _l
285 685 _l
253 685 230 678 218 665 _c
205 652 199 629 199 595 _c
199 547 _l
347 547 _l
347 477 _l
199 477 _l
199 0 _l
109 0 _l
109 477 _l
23 477 _l
23 547 _l
109 547 _l
109 585 _l
109 645 123 690 151 718 _c
179 746 224 760 286 760 _c
371 760 _l
_cl}_d
/i{278 0 94 0 184 760 _sc
94 547 _m
184 547 _l
184 0 _l
94 0 _l
94 547 _l
94 760 _m
184 760 _l
184 646 _l
94 646 _l
94 760 _l
_cl}_d
/n{634 0 91 0 549 560 _sc
549 330 _m
549 0 _l
459 0 _l
459 327 _l
459 379 448 417 428 443 _c
408 469 378 482 338 482 _c
289 482 251 466 223 435 _c
195 404 181 362 181 309 _c
181 0 _l
91 0 _l
91 547 _l
181 547 _l
181 462 _l
202 494 227 519 257 535 _c
286 551 320 560 358 560 _c
420 560 468 540 500 501 _c
532 462 549 405 549 330 _c
_cl}_d
/o{612 0 55 -13 557 560 _sc
306 484 _m
258 484 220 465 192 427 _c
164 389 150 338 150 273 _c
150 207 163 156 191 118 _c
219 80 257 62 306 62 _c
354 62 392 80 420 118 _c
448 156 462 207 462 273 _c
462 337 448 389 420 427 _c
392 465 354 484 306 484 _c
306 560 _m
384 560 445 534 490 484 _c
534 433 557 363 557 273 _c
557 183 534 113 490 63 _c
445 12 384 -13 306 -13 _c
227 -13 165 12 121 63 _c
77 113 55 183 55 273 _c
55 363 77 433 121 484 _c
165 534 227 560 306 560 _c
_cl}_d
/r{411 0 91 0 411 560 _sc
411 463 _m
401 469 390 473 378 476 _c
366 478 353 480 339 480 _c
288 480 249 463 222 430 _c
194 397 181 350 181 288 _c
181 0 _l
91 0 _l
91 547 _l
181 547 _l
181 462 _l
199 495 224 520 254 536 _c
284 552 321 560 365 560 _c
371 560 378 559 386 559 _c
393 558 401 557 411 555 _c
411 463 _l
_cl}_d
/s{{521 0 54 -13 472 560 _sc
443 531 _m
443 446 _l
417 458 391 468 364 475 _c
336 481 308 485 279 485 _c
234 485 200 478 178 464 _c
156 450 145 430 145 403 _c
145 382 153 366 169 354 _c
185 342 217 330 265 320 _c
296 313 _l
360 299 405 279 432 255 _c
458 230 472 195 472 151 _c
472 100 452 60 412 31 _c
372 1 316 -13 246 -13 _c
216 -13 186 -10 154 -5 _c
}_e{122 0 89 8 54 20 _c
54 113 _l
87 95 120 82 152 74 _c
184 65 216 61 248 61 _c
290 61 323 68 346 82 _c
368 96 380 117 380 144 _c
380 168 371 187 355 200 _c
339 213 303 226 247 238 _c
216 245 _l
160 257 119 275 95 299 _c
70 323 58 356 58 399 _c
58 450 76 490 112 518 _c
148 546 200 560 268 560 _c
301 560 332 557 362 552 _c
391 547 418 540 443 531 _c
}_e{_cl}_e}_d
/t{392 0 27 0 368 702 _sc
183 702 _m
183 547 _l
368 547 _l
368 477 _l
183 477 _l
183 180 _l
183 135 189 106 201 94 _c
213 81 238 75 276 75 _c
368 75 _l
368 0 _l
276 0 _l
206 0 158 13 132 39 _c
106 65 93 112 93 180 _c
93 477 _l
27 477 _l
27 547 _l
93 547 _l
93 702 _l
183 702 _l
_cl}_d
/u{634 0 85 -13 543 547 _sc
85 216 _m
85 547 _l
175 547 _l
175 219 _l
175 167 185 129 205 103 _c
225 77 255 64 296 64 _c
344 64 383 79 411 110 _c
439 141 453 183 453 237 _c
453 547 _l
543 547 _l
543 0 _l
453 0 _l
453 84 _l
431 50 405 26 377 10 _c
348 -5 315 -13 277 -13 _c
214 -13 166 6 134 45 _c
101 83 85 140 85 216 _c
_cl}_d
/v{592 0 30 0 562 547 _sc
30 547 _m
125 547 _l
296 88 _l
467 547 _l
562 547 _l
357 0 _l
235 0 _l
30 547 _l
_cl}_d
/y{592 0 30 -207 562 547 _sc
322 -50 _m
296 -114 271 -157 247 -177 _c
223 -197 191 -207 151 -207 _c
79 -207 _l
79 -132 _l
132 -132 _l
156 -132 175 -126 189 -114 _c
203 -102 218 -75 235 -31 _c
251 9 _l
30 547 _l
125 547 _l
296 119 _l
467 547 _l
562 547 _l
322 -50 _l
_cl}_d
end readonly def

/BuildGlyph
 {exch begin
 CharStrings exch
 2 copy known not{pop /.notdef}if
 true 3 1 roll get exec
 end}_d

/BuildChar {
 1 index /Encoding get exch get
 1 index /BuildGlyph get exec
}_d

FontName currentdict end definefont pop
end
%%EndProlog
mpldict begin
18 180 translate
576 432 0 0 clipbox
gsave
0 0 m
576 0 l
576 432 l
0 432 l
cl
1.000 setgray
fill
grestore
gsave
72 43.2 m
518.4 43.2 l
518.4 388.8 l
72 388.8 l
cl
1.000 setgray
fill
grestore
1.500 setlinewidth
1 setlinejoin
0 setlinecap
[6 6] 0 setdash
0.000 0.000 1.000 setrgbcolor
gsave
446.4 345.6 72 43.2 clipbox
72 53.5749 m
74.976 53.6173 l
76.464 53.7334 l
77.952 53.9697 l
80.928 54.7431 l
86.88 56.3968 l
88.368 56.9902 l
91.344 58.5458 l
94.32 60.1724 l
98.784 62.4787 l
100.272 63.4504 l
103.248 65.7476 l
110.688 71.671 l
113.664 74.6312 l
119.616 81.0855 l
122.592 84.7344 l
125.568 88.9042 l
130.032 95.5205 l
133.008 100.445 l
135.984 106.047 l
140.448 115.108 l
143.424 121.794 l
146.4 129.296 l
149.376 137.377 l
152.352 146.103 l
155.328 155.772 l
158.304 166.264 l
161.28 177.506 l
164.256 189.679 l
168.72 209.292 l
173.184 229.655 l
186.576 294.543 l
195.504 337.244 l
196.992 343.598 l
198.48 349.42 l
202.944 364.172 l
204.432 367.849 l
205.92 370.795 l
208.896 374.487 l
210.384 375.572 l
211.872 375.165 l
213.36 374.264 l
214.848 372.907 l
216.336 371.101 l
217.824 368.575 l
219.312 365.468 l
220.8 361.982 l
222.288 357.724 l
226.752 342.301 l
229.728 330.495 l
234.192 312.093 l
238.656 294.176 l
240.144 287.409 l
243.12 275.083 l
244.608 268.348 l
246.096 262.387 l
250.56 245.695 l
253.536 236.347 l
255.024 231.945 l
258 224.445 l
259.488 220.132 l
260.976 216.301 l
262.464 213.602 l
265.44 209.428 l
266.928 208.056 l
269.904 206.023 l
271.392 205.387 l
272.88 205.394 l
274.368 205.843 l
275.856 206.599 l
277.344 207.791 l
280.32 211.171 l
281.808 213.06 l
283.296 215.403 l
286.272 220.942 l
287.76 223.896 l
289.248 227.621 l
292.224 236.569 l
293.712 240.7 l
295.2 245.178 l
298.176 255.218 l
299.664 259.51 l
302.64 269.064 l
305.616 279.21 l
308.592 289.537 l
310.08 294.193 l
314.544 307.23 l
316.032 310.797 l
317.52 314.666 l
321.984 323.946 l
323.472 326.593 l
324.96 328.963 l
327.936 332.297 l
330.912 334.547 l
332.4 335.362 l
333.888 335.715 l
335.376 335.648 l
336.864 335.267 l
338.352 334.579 l
339.84 333.474 l
341.328 332.124 l
342.816 330.61 l
344.304 328.927 l
348.768 322.92 l
350.256 320.764 l
351.744 318.398 l
357.696 307.123 l
359.184 304.323 l
360.672 301.121 l
363.648 295.451 l
375.552 275.759 l
377.04 273.358 l
378.528 271.448 l
381.504 268.133 l
385.968 263.667 l
388.944 261.758 l
393.408 259.331 l
394.896 259.036 l
399.36 258.87 l
400.848 258.927 l
402.336 259.15 l
405.312 259.911 l
409.776 261.867 l
411.264 262.724 l
414.24 265.112 l
418.704 269.358 l
424.656 275.96 l
426.144 277.775 l
429.12 281.809 l
439.536 297.253 l
448.464 309.534 l
449.952 311.168 l
452.928 314.042 l
454.416 315.348 l
455.904 316.357 l
457.392 317.142 l
458.88 317.767 l
460.368 318.175 l
461.856 318.456 l
463.344 318.621 l
464.832 318.597 l
466.32 318.377 l
467.808 318.005 l
470.784 316.86 l
472.272 316.006 l
473.76 314.838 l
475.248 313.517 l
478.224 310.29 l
481.2 306.705 l
484.176 302.47 l
491.616 291.596 l
502.032 275.343 l
505.008 271.536 l
509.472 266.296 l
512.448 263.305 l
513.936 261.97 l
515.424 260.802 l
516.912 259.89 l
518.4 259.304 l
519.888 258.852 l
519.888 258.852 l
stroke
grestore
2 setlinecap
[] 0 setdash
1.000 0.000 0.000 setrgbcolor
gsave
446.4 345.6 72 43.2 clipbox
72 53.5749 m
74.976 53.6173 l
76.464 53.7334 l
77.952 53.9697 l
80.928 54.7431 l
86.88 56.3968 l
88.368 56.9902 l
91.344 58.5458 l
94.32 60.1724 l
98.784 62.4787 l
100.272 63.4504 l
103.248 65.7476 l
110.688 71.671 l
113.664 74.6312 l
119.616 81.0855 l
122.592 84.7344 l
125.568 88.9042 l
130.032 95.5205 l
133.008 100.445 l
135.984 106.047 l
140.448 115.108 l
143.424 121.794 l
146.4 129.296 l
149.376 137.377 l
152.352 146.103 l
155.328 155.772 l
158.304 166.264 l
161.28 177.507 l
164.256 189.686 l
168.72 209.288 l
173.184 229.737 l
194.016 330.321 l
196.992 343.703 l
198.48 349.506 l
201.456 359.735 l
202.944 364.51 l
204.432 368.387 l
205.92 371.391 l
207.408 373.401 l
208.896 375.062 l
210.384 376.132 l
211.872 376.009 l
213.36 375.176 l
214.848 373.822 l
216.336 371.956 l
217.824 369.534 l
219.312 366.692 l
220.8 363.362 l
222.288 358.963 l
226.752 344.075 l
229.728 332.522 l
232.704 319.797 l
237.168 302.03 l
246.096 264.212 l
249.072 252.023 l
250.56 246.814 l
255.024 232.553 l
260.976 217.535 l
262.464 214.827 l
265.44 210.422 l
266.928 208.691 l
268.416 207.284 l
269.904 206.181 l
271.392 205.934 l
272.88 206.131 l
274.368 206.498 l
275.856 207.017 l
277.344 208.072 l
278.832 209.955 l
281.808 214.23 l
284.784 219.303 l
286.272 222.298 l
289.248 230.048 l
292.224 238.699 l
296.688 253.663 l
301.152 268.383 l
304.128 279.399 l
311.568 307.076 l
313.056 312.2 l
314.544 316.873 l
317.52 325.256 l
319.008 328.716 l
320.496 332.828 l
321.984 335.947 l
323.472 338.79 l
324.96 341.293 l
326.448 343.262 l
327.936 344.919 l
330.912 347.062 l
332.4 347.522 l
333.888 347.702 l
335.376 347.474 l
336.864 346.68 l
338.352 345.444 l
339.84 343.76 l
342.816 339.469 l
345.792 334.287 l
348.768 328.318 l
351.744 321.928 l
354.72 314.909 l
359.184 303.144 l
363.648 292.173 l
366.624 285.181 l
368.112 282.155 l
369.6 279.407 l
372.576 273.238 l
374.064 270.349 l
377.04 265.287 l
378.528 263.092 l
381.504 259.429 l
384.48 257.021 l
387.456 255.091 l
388.944 254.425 l
390.432 254.046 l
391.92 253.923 l
393.408 254.07 l
394.896 254.441 l
396.384 254.999 l
399.36 256.706 l
403.824 259.955 l
405.312 261.416 l
411.264 268.539 l
414.24 273 l
415.728 275.259 l
417.216 277.774 l
423.168 286.94 l
432.096 303.153 l
435.072 307.857 l
442.512 317.678 l
445.488 320.814 l
446.976 322.153 l
448.464 323.292 l
449.952 324.183 l
451.44 324.821 l
452.928 325.234 l
454.416 325.398 l
455.904 325.416 l
457.392 325.196 l
458.88 324.74 l
461.856 323.395 l
463.344 322.485 l
464.832 321.418 l
466.32 320.193 l
467.808 318.786 l
469.296 317.125 l
472.272 313.347 l
473.76 311.232 l
476.736 306.357 l
482.688 296.102 l
496.08 273.505 l
497.568 271.228 l
500.544 267.346 l
502.032 265.544 l
503.52 263.982 l
507.984 259.921 l
509.472 258.764 l
510.96 257.77 l
512.448 256.995 l
513.936 256.52 l
515.424 256.315 l
516.912 256.326 l
518.4 256.491 l
519.888 256.835 l
519.888 256.835 l
stroke
grestore
0.000 0.502 0.000 setrgbcolor
gsave
446.4 345.6 72 43.2 clipbox
72 53.5749 m
74.976 53.6175 l
76.464 53.7335 l
77.952 53.9687 l
80.928 54.7388 l
86.88 56.398 l
88.368 56.9901 l
91.344 58.5377 l
94.32 60.1592 l
98.784 62.4769 l
100.272 63.4488 l
103.248 65.7362 l
110.688 71.6578 l
113.664 74.6168 l
119.616 81.056 l
122.592 84.704 l
125.568 88.872 l
130.032 95.48 l
133.008 100.394 l
135.984 105.991 l
140.448 115.049 l
143.424 121.716 l
146.4 129.204 l
149.376 137.286 l
152.352 145.998 l
155.328 155.639 l
158.304 166.105 l
161.28 177.324 l
164.256 189.483 l
168.72 209.029 l
173.184 229.539 l
179.136 258.224 l
194.016 330.159 l
196.992 343.626 l
198.48 349.272 l
201.456 359.518 l
202.944 364.157 l
204.432 368.407 l
205.92 371.185 l
207.408 373.383 l
208.896 375.033 l
210.384 376.232 l
211.872 376.209 l
213.36 375.442 l
214.848 374.063 l
216.336 372.16 l
217.824 369.735 l
219.312 366.636 l
220.8 363.091 l
222.288 358.962 l
226.752 343.552 l
228.24 337.876 l
232.704 319.12 l
234.192 312.515 l
237.168 300.873 l
246.096 262.628 l
249.072 250.951 l
253.536 234.987 l
255.024 230.508 l
259.488 218.417 l
260.976 215.004 l
262.464 212.342 l
263.952 209.963 l
265.44 207.924 l
268.416 204.49 l
269.904 203.38 l
271.392 203.074 l
274.368 203.637 l
275.856 204.349 l
277.344 205.621 l
278.832 207.429 l
281.808 211.961 l
283.296 214.385 l
284.784 217.203 l
286.272 220.5 l
287.76 224.133 l
289.248 228.442 l
293.712 243.53 l
302.64 275.162 l
311.568 309.372 l
314.544 319.047 l
316.032 323.411 l
319.008 331.194 l
321.984 337.715 l
323.472 340.582 l
324.96 342.858 l
326.448 344.904 l
327.936 346.329 l
329.424 347.489 l
330.912 348.184 l
332.4 348.495 l
333.888 348.381 l
335.376 347.777 l
336.864 346.731 l
338.352 345.194 l
339.84 343.237 l
341.328 340.992 l
344.304 335.845 l
348.768 326.835 l
353.232 317.015 l
362.16 295.063 l
366.624 285.925 l
371.088 277.95 l
374.064 273.341 l
377.04 269.157 l
378.528 267.377 l
380.016 265.963 l
382.992 263.979 l
384.48 263.306 l
387.456 262.525 l
388.944 262.362 l
391.92 262.472 l
393.408 262.79 l
394.896 263.42 l
397.872 265.288 l
399.36 266.43 l
402.336 269.036 l
405.312 271.984 l
408.288 275.221 l
411.264 278.638 l
414.24 282.837 l
426.144 300.09 l
429.12 304.46 l
433.584 310.963 l
436.56 314.795 l
439.536 318.169 l
441.024 319.716 l
444 322.251 l
446.976 324.309 l
448.464 325.128 l
449.952 325.77 l
451.44 326.244 l
452.928 326.506 l
454.416 326.565 l
455.904 326.426 l
457.392 326.054 l
458.88 325.48 l
460.368 324.729 l
461.856 323.777 l
463.344 322.666 l
464.832 321.38 l
467.808 318.295 l
470.784 314.583 l
473.76 310.372 l
476.736 305.627 l
479.712 300.387 l
488.64 284.064 l
493.104 276.479 l
496.08 271.663 l
499.056 267.277 l
500.544 265.327 l
502.032 263.583 l
503.52 262.087 l
505.008 260.81 l
506.496 259.742 l
507.984 258.857 l
509.472 258.13 l
510.96 257.575 l
512.448 257.204 l
513.936 257.061 l
515.424 257.183 l
516.912 257.549 l
518.4 258.167 l
519.888 259.038 l
519.888 259.038 l
stroke
grestore
1.000 setlinewidth
0 setlinejoin
0.000 setgray
gsave
72 388.8 m
518.4 388.8 l
stroke
grestore
gsave
518.4 43.2 m
518.4 388.8 l
stroke
grestore
gsave
72 43.2 m
518.4 43.2 l
stroke
grestore
gsave
72 43.2 m
72 388.8 l
stroke
grestore
0.500 setlinewidth
1 setlinejoin
0 setlinecap
gsave
/o {
gsave
newpath
translate
0.5 setlinewidth
1 setlinejoin
0 setlinecap
0 0 m
0 4 l
gsave
0.000 setgray
fill
grestore
stroke
grestore
} bind def
72 43.2 o
grestore
gsave
/o {
gsave
newpath
translate
0.5 setlinewidth
1 setlinejoin
0 setlinecap
0 0 m
0 -4 l
gsave
0.000 setgray
fill
grestore
stroke
grestore
} bind def
72 388.8 o
grestore
/BitstreamVeraSans-Roman findfont
12.000 scalefont
setfont
gsave
68.976562 30.075000 translate
0.000000 rotate
0.000000 0.000000 m /zero glyphshow
grestore
gsave
/o {
gsave
newpath
translate
0.5 setlinewidth
1 setlinejoin
0 setlinecap
0 0 m
0 4 l
gsave
0.000 setgray
fill
grestore
stroke
grestore
} bind def
161.28 43.2 o
grestore
gsave
/o {
gsave
newpath
translate
0.5 setlinewidth
1 setlinejoin
0 setlinecap
0 0 m
0 -4 l
gsave
0.000 setgray
fill
grestore
stroke
grestore
} bind def
161.28 388.8 o
grestore
gsave
158.444062 30.075000 translate
0.000000 rotate
0.000000 0.000000 m /five glyphshow
grestore
gsave
/o {
gsave
newpath
translate
0.5 setlinewidth
1 setlinejoin
0 setlinecap
0 0 m
0 4 l
gsave
0.000 setgray
fill
grestore
stroke
grestore
} bind def
250.56 43.2 o
grestore
gsave
/o {
gsave
newpath
translate
0.5 setlinewidth
1 setlinejoin
0 setlinecap
0 0 m
0 -4 l
gsave
0.000 setgray
fill
grestore
stroke
grestore
} bind def
250.56 388.8 o
grestore
gsave
243.974062 30.075000 translate
0.000000 rotate
0.000000 0.000000 m /one glyphshow
7.634766 0.000000 m /zero glyphshow
grestore
gsave
/o {
gsave
newpath
translate
0.5 setlinewidth
1 setlinejoin
0 setlinecap
0 0 m
0 4 l
gsave
0.000 setgray
fill
grestore
stroke
grestore
} bind def
339.84 43.2 o
grestore
gsave
/o {
gsave
newpath
translate
0.5 setlinewidth
1 setlinejoin
0 setlinecap
0 0 m
0 -4 l
gsave
0.000 setgray
fill
grestore
stroke
grestore
} bind def
339.84 388.8 o
grestore
gsave
333.379062 30.075000 translate
0.000000 rotate
0.000000 0.000000 m /one glyphshow
7.634766 0.000000 m /five glyphshow
grestore
gsave
/o {
gsave
newpath
translate
0.5 setlinewidth
1 setlinejoin
0 setlinecap
0 0 m
0 4 l
gsave
0.000 setgray
fill
grestore
stroke
grestore
} bind def
429.12 43.2 o
grestore
gsave
/o {
gsave
newpath
translate
0.5 setlinewidth
1 setlinejoin
0 setlinecap
0 0 m
0 -4 l
gsave
0.000 setgray
fill
grestore
stroke
grestore
} bind def
429.12 388.8 o
grestore
gsave
422.315312 30.075000 translate
0.000000 rotate
0.000000 0.000000 m /two glyphshow
7.634766 0.000000 m /zero glyphshow
grestore
gsave
/o {
gsave
newpath
translate
0.5 setlinewidth
1 setlinejoin
0 setlinecap
0 0 m
0 4 l
gsave
0.000 setgray
fill
grestore
stroke
grestore
} bind def
518.4 43.2 o
grestore
gsave
/o {
gsave
newpath
translate
0.5 setlinewidth
1 setlinejoin
0 setlinecap
0 0 m
0 -4 l
gsave
0.000 setgray
fill
grestore
stroke
grestore
} bind def
518.4 388.8 o
grestore
gsave
511.720312 30.075000 translate
0.000000 rotate
0.000000 0.000000 m /two glyphshow
7.634766 0.000000 m /five glyphshow
grestore
/BitstreamVeraSans-Roman findfont
20.000 scalefont
setfont
gsave
257.551562 7.371875 translate
0.000000 rotate
0.000000 0.000000 m /t glyphshow
7.841797 0.000000 m /space glyphshow
14.199219 0.000000 m /parenleft glyphshow
22.001953 0.000000 m /d glyphshow
34.697266 0.000000 m /a glyphshow
46.953125 0.000000 m /y glyphshow
58.789062 0.000000 m /s glyphshow
69.208984 0.000000 m /parenright glyphshow
grestore
gsave
/o {
gsave
newpath
translate
0.5 setlinewidth
1 setlinejoin
0 setlinecap
0 0 m
4 0 l
gsave
0.000 setgray
fill
grestore
stroke
grestore
} bind def
72 43.2 o
grestore
gsave
/o {
gsave
newpath
translate
0.5 setlinewidth
1 setlinejoin
0 setlinecap
0 0 m
-4 0 l
gsave
0.000 setgray
fill
grestore
stroke
grestore
} bind def
518.4 43.2 o
grestore
/BitstreamVeraSans-Roman findfont
12.000 scalefont
setfont
gsave
61.953125 39.887500 translate
0.000000 rotate
0.000000 0.000000 m /zero glyphshow
grestore
gsave
/o {
gsave
newpath
translate
0.5 setlinewidth
1 setlinejoin
0 setlinecap
0 0 m
4 0 l
gsave
0.000 setgray
fill
grestore
stroke
grestore
} bind def
72 81.6 o
grestore
gsave
/o {
gsave
newpath
translate
0.5 setlinewidth
1 setlinejoin
0 setlinecap
0 0 m
-4 0 l
gsave
0.000 setgray
fill
grestore
stroke
grestore
} bind def
518.4 81.6 o
grestore
gsave
62.328125 78.287500 translate
0.000000 rotate
0.000000 0.000000 m /five glyphshow
grestore
gsave
/o {
gsave
newpath
translate
0.5 setlinewidth
1 setlinejoin
0 setlinecap
0 0 m
4 0 l
gsave
0.000 setgray
fill
grestore
stroke
grestore
} bind def
72 120 o
grestore
gsave
/o {
gsave
newpath
translate
0.5 setlinewidth
1 setlinejoin
0 setlinecap
0 0 m
-4 0 l
gsave
0.000 setgray
fill
grestore
stroke
grestore
} bind def
518.4 120 o
grestore
gsave
54.828125 116.687500 translate
0.000000 rotate
0.000000 0.000000 m /one glyphshow
7.634766 0.000000 m /zero glyphshow
grestore
gsave
/o {
gsave
newpath
translate
0.5 setlinewidth
1 setlinejoin
0 setlinecap
0 0 m
4 0 l
gsave
0.000 setgray
fill
grestore
stroke
grestore
} bind def
72 158.4 o
grestore
gsave
/o {
gsave
newpath
translate
0.5 setlinewidth
1 setlinejoin
0 setlinecap
0 0 m
-4 0 l
gsave
0.000 setgray
fill
grestore
stroke
grestore
} bind def
518.4 158.4 o
grestore
gsave
55.078125 155.087500 translate
0.000000 rotate
0.000000 0.000000 m /one glyphshow
7.634766 0.000000 m /five glyphshow
grestore
gsave
/o {
gsave
newpath
translate
0.5 setlinewidth
1 setlinejoin
0 setlinecap
0 0 m
4 0 l
gsave
0.000 setgray
fill
grestore
stroke
grestore
} bind def
72 196.8 o
grestore
gsave
/o {
gsave
newpath
translate
0.5 setlinewidth
1 setlinejoin
0 setlinecap
0 0 m
-4 0 l
gsave
0.000 setgray
fill
grestore
stroke
grestore
} bind def
518.4 196.8 o
grestore
gsave
54.390625 193.487500 translate
0.000000 rotate
0.000000 0.000000 m /two glyphshow
7.634766 0.000000 m /zero glyphshow
grestore
gsave
/o {
gsave
newpath
translate
0.5 setlinewidth
1 setlinejoin
0 setlinecap
0 0 m
4 0 l
gsave
0.000 setgray
fill
grestore
stroke
grestore
} bind def
72 235.2 o
grestore
gsave
/o {
gsave
newpath
translate
0.5 setlinewidth
1 setlinejoin
0 setlinecap
0 0 m
-4 0 l
gsave
0.000 setgray
fill
grestore
stroke
grestore
} bind def
518.4 235.2 o
grestore
gsave
54.640625 231.887500 translate
0.000000 rotate
0.000000 0.000000 m /two glyphshow
7.634766 0.000000 m /five glyphshow
grestore
gsave
/o {
gsave
newpath
translate
0.5 setlinewidth
1 setlinejoin
0 setlinecap
0 0 m
4 0 l
gsave
0.000 setgray
fill
grestore
stroke
grestore
} bind def
72 273.6 o
grestore
gsave
/o {
gsave
newpath
translate
0.5 setlinewidth
1 setlinejoin
0 setlinecap
0 0 m
-4 0 l
gsave
0.000 setgray
fill
grestore
stroke
grestore
} bind def
518.4 273.6 o
grestore
gsave
54.437500 270.287500 translate
0.000000 rotate
0.000000 0.000000 m /three glyphshow
7.634766 0.000000 m /zero glyphshow
grestore
gsave
/o {
gsave
newpath
translate
0.5 setlinewidth
1 setlinejoin
0 setlinecap
0 0 m
4 0 l
gsave
0.000 setgray
fill
grestore
stroke
grestore
} bind def
72 312 o
grestore
gsave
/o {
gsave
newpath
translate
0.5 setlinewidth
1 setlinejoin
0 setlinecap
0 0 m
-4 0 l
gsave
0.000 setgray
fill
grestore
stroke
grestore
} bind def
518.4 312 o
grestore
gsave
54.687500 308.687500 translate
0.000000 rotate
0.000000 0.000000 m /three glyphshow
7.634766 0.000000 m /five glyphshow
grestore
gsave
/o {
gsave
newpath
translate
0.5 setlinewidth
1 setlinejoin
0 setlinecap
0 0 m
4 0 l
gsave
0.000 setgray
fill
grestore
stroke
grestore
} bind def
72 350.4 o
grestore
gsave
/o {
gsave
newpath
translate
0.5 setlinewidth
1 setlinejoin
0 setlinecap
0 0 m
-4 0 l
gsave
0.000 setgray
fill
grestore
stroke
grestore
} bind def
518.4 350.4 o
grestore
gsave
54.109375 347.087500 translate
0.000000 rotate
0.000000 0.000000 m /four glyphshow
7.634766 0.000000 m /zero glyphshow
grestore
gsave
/o {
gsave
newpath
translate
0.5 setlinewidth
1 setlinejoin
0 setlinecap
0 0 m
4 0 l
gsave
0.000 setgray
fill
grestore
stroke
grestore
} bind def
72 388.8 o
grestore
gsave
/o {
gsave
newpath
translate
0.5 setlinewidth
1 setlinejoin
0 setlinecap
0 0 m
-4 0 l
gsave
0.000 setgray
fill
grestore
stroke
grestore
} bind def
518.4 388.8 o
grestore
gsave
54.359375 385.487500 translate
0.000000 rotate
0.000000 0.000000 m /four glyphshow
7.634766 0.000000 m /five glyphshow
grestore
/BitstreamVeraSans-Roman findfont
20.000 scalefont
setfont
gsave
44.953125 188.304688 translate
90.000000 rotate
0.000000 0.000000 m /R glyphshow
13.896484 0.000000 m /M glyphshow
31.152344 0.000000 m /S glyphshow
43.847656 0.000000 m /V glyphshow
grestore
gsave
202.192187 393.800000 translate
0.000000 rotate
0.000000 0.000000 m /E glyphshow
12.636719 0.000000 m /a glyphshow
24.892578 0.000000 m /d glyphshow
37.587891 0.000000 m /y glyphshow
49.423828 0.000000 m /space glyphshow
55.781250 0.000000 m /d glyphshow
68.476562 0.000000 m /i glyphshow
74.033203 0.000000 m /f glyphshow
81.074219 0.000000 m /f glyphshow
88.115234 0.000000 m /u glyphshow
100.791016 0.000000 m /s glyphshow
111.210938 0.000000 m /i glyphshow
116.767578 0.000000 m /o glyphshow
129.003906 0.000000 m /n glyphshow
141.679688 0.000000 m /space glyphshow
148.037109 0.000000 m /t glyphshow
155.878906 0.000000 m /e glyphshow
168.183594 0.000000 m /s glyphshow
178.603516 0.000000 m /t glyphshow
grestore
1.000 setlinewidth
0 setlinejoin
gsave
407.181 336.222 m
513.4 336.222 l
513.4 383.8 l
407.181 383.8 l
cl
gsave
1.000 setgray
fill
grestore
stroke
grestore
1.500 setlinewidth
1 setlinejoin
[6 6] 0 setdash
0.000 0.000 1.000 setrgbcolor
gsave
414.181 375.706 m
428.181 375.706 l
stroke
grestore
0.000 setgray
/BitstreamVeraSans-Roman findfont
10.000 scalefont
setfont
gsave
439.181250 372.206250 translate
0.000000 rotate
0.000000 0.000000 m /s glyphshow
5.209961 0.000000 m /t glyphshow
9.130859 0.000000 m /a glyphshow
15.258789 0.000000 m /n glyphshow
21.596680 0.000000 m /d glyphshow
27.944336 0.000000 m /a glyphshow
34.072266 0.000000 m /r glyphshow
38.058594 0.000000 m /d glyphshow
grestore
2 setlinecap
[] 0 setdash
1.000 0.000 0.000 setrgbcolor
gsave
414.181 361.034 m
428.181 361.034 l
stroke
grestore
0.000 setgray
gsave
439.181250 357.534375 translate
0.000000 rotate
0.000000 0.000000 m /d glyphshow
6.347656 0.000000 m /i glyphshow
9.125977 0.000000 m /f glyphshow
12.646484 0.000000 m /f glyphshow
16.166992 0.000000 m /u glyphshow
22.504883 0.000000 m /underscore glyphshow
27.504883 0.000000 m /v glyphshow
33.422852 0.000000 m /t glyphshow
37.343750 0.000000 m /r glyphshow
41.205078 0.000000 m /e glyphshow
47.357422 0.000000 m /s glyphshow
grestore
0.000 0.502 0.000 setrgbcolor
gsave
414.181 346.081 m
428.181 346.081 l
stroke
grestore
0.000 setgray
gsave
439.181250 342.581250 translate
0.000000 rotate
0.000000 0.000000 m /d glyphshow
6.347656 0.000000 m /i glyphshow
9.125977 0.000000 m /f glyphshow
12.646484 0.000000 m /f glyphshow
16.166992 0.000000 m /u glyphshow
22.504883 0.000000 m /underscore glyphshow
27.504883 0.000000 m /c glyphshow
33.002930 0.000000 m /o glyphshow
39.121094 0.000000 m /n glyphshow
45.458984 0.000000 m /s glyphshow
50.668945 0.000000 m /t glyphshow
54.589844 0.000000 m /a glyphshow
60.717773 0.000000 m /n glyphshow
67.055664 0.000000 m /t glyphshow
grestore

end
showpage
