%!PS-Adobe-3.0 EPSF-3.0
%%Title: eady_diffusion_energy.eps
%%Creator: matplotlib version 1.4.0, http://matplotlib.org/
%%CreationDate: Fri Mar 11 17:34:31 2016
%%Orientation: portrait
%%BoundingBox: 18 180 594 612
%%EndComments
%%BeginProlog
/mpldict 8 dict def
mpldict begin
/m { moveto } bind def
/l { lineto } bind def
/r { rlineto } bind def
/c { curveto } bind def
/cl { closepath } bind def
/box {
m
1 index 0 r
0 exch r
neg 0 r
cl
} bind def
/clipbox {
box
clip
newpath
} bind def
%!PS-Adobe-3.0 Resource-Font
%%Title: Bitstream Vera Sans
%%Copyright: Copyright (c) 2003 by Bitstream, Inc. All Rights Reserved.
%%Creator: Converted from TrueType to type 3 by PPR
25 dict begin
/_d{bind def}bind def
/_m{moveto}_d
/_l{lineto}_d
/_cl{closepath eofill}_d
/_c{curveto}_d
/_sc{7 -1 roll{setcachedevice}{pop pop pop pop pop pop}ifelse}_d
/_e{exec}_d
/FontName /BitstreamVeraSans-Roman def
/PaintType 0 def
/FontMatrix[.001 0 0 .001 0 0]def
/FontBBox[-183 -236 1287 928]def
/FontType 3 def
/Encoding [ /space /parenleft /parenright /period /zero /one /two /three /five /E /T /underscore /a /c /d /e /f /g /i /l /n /o /r /s /t /u /v /y /minus ] def
/FontInfo 10 dict dup begin
/FamilyName (Bitstream Vera Sans) def
/FullName (Bitstream Vera Sans) def
/Notice (Copyright (c) 2003 by Bitstream, Inc. All Rights Reserved. Bitstream Vera is a trademark of Bitstream, Inc.) def
/Weight (Roman) def
/Version (Release 1.10) def
/ItalicAngle 0.0 def
/isFixedPitch false def
/UnderlinePosition -213 def
/UnderlineThickness 143 def
end readonly def
/CharStrings 29 dict dup begin
/space{318 0 0 0 0 0 _sc
}_d
/parenleft{390 0 86 -131 310 759 _sc
310 759 _m
266 683 234 609 213 536 _c
191 463 181 389 181 314 _c
181 238 191 164 213 91 _c
234 17 266 -56 310 -131 _c
232 -131 _l
183 -54 146 20 122 94 _c
98 168 86 241 86 314 _c
86 386 98 459 122 533 _c
146 607 182 682 232 759 _c
310 759 _l
_cl}_d
/parenright{390 0 80 -131 304 759 _sc
80 759 _m
158 759 _l
206 682 243 607 267 533 _c
291 459 304 386 304 314 _c
304 241 291 168 267 94 _c
243 20 206 -54 158 -131 _c
80 -131 _l
123 -56 155 17 177 91 _c
198 164 209 238 209 314 _c
209 389 198 463 177 536 _c
155 609 123 683 80 759 _c
_cl}_d
/period{318 0 107 0 210 124 _sc
107 124 _m
210 124 _l
210 0 _l
107 0 _l
107 124 _l
_cl}_d
/zero{636 0 66 -13 570 742 _sc
318 664 _m
267 664 229 639 203 589 _c
177 539 165 464 165 364 _c
165 264 177 189 203 139 _c
229 89 267 64 318 64 _c
369 64 407 89 433 139 _c
458 189 471 264 471 364 _c
471 464 458 539 433 589 _c
407 639 369 664 318 664 _c
318 742 _m
399 742 461 709 505 645 _c
548 580 570 486 570 364 _c
570 241 548 147 505 83 _c
461 19 399 -13 318 -13 _c
236 -13 173 19 130 83 _c
87 147 66 241 66 364 _c
66 486 87 580 130 645 _c
173 709 236 742 318 742 _c
_cl}_d
/one{636 0 110 0 544 729 _sc
124 83 _m
285 83 _l
285 639 _l
110 604 _l
110 694 _l
284 729 _l
383 729 _l
383 83 _l
544 83 _l
544 0 _l
124 0 _l
124 83 _l
_cl}_d
/two{{636 0 73 0 536 742 _sc
192 83 _m
536 83 _l
536 0 _l
73 0 _l
73 83 _l
110 121 161 173 226 239 _c
290 304 331 346 348 365 _c
380 400 402 430 414 455 _c
426 479 433 504 433 528 _c
433 566 419 598 392 622 _c
365 646 330 659 286 659 _c
255 659 222 653 188 643 _c
154 632 117 616 78 594 _c
78 694 _l
118 710 155 722 189 730 _c
223 738 255 742 284 742 _c
}_e{359 742 419 723 464 685 _c
509 647 532 597 532 534 _c
532 504 526 475 515 449 _c
504 422 484 390 454 354 _c
446 344 420 317 376 272 _c
332 227 271 164 192 83 _c
_cl}_e}_d
/three{{636 0 76 -13 556 742 _sc
406 393 _m
453 383 490 362 516 330 _c
542 298 556 258 556 212 _c
556 140 531 84 482 45 _c
432 6 362 -13 271 -13 _c
240 -13 208 -10 176 -4 _c
144 1 110 10 76 22 _c
76 117 _l
103 101 133 89 166 81 _c
198 73 232 69 268 69 _c
330 69 377 81 409 105 _c
441 129 458 165 458 212 _c
458 254 443 288 413 312 _c
383 336 341 349 287 349 _c
}_e{202 349 _l
202 430 _l
291 430 _l
339 430 376 439 402 459 _c
428 478 441 506 441 543 _c
441 580 427 609 401 629 _c
374 649 336 659 287 659 _c
260 659 231 656 200 650 _c
169 644 135 635 98 623 _c
98 711 _l
135 721 170 729 203 734 _c
235 739 266 742 296 742 _c
370 742 429 725 473 691 _c
517 657 539 611 539 553 _c
539 513 527 479 504 451 _c
481 423 448 403 406 393 _c
_cl}_e}_d
/five{{636 0 77 -13 549 729 _sc
108 729 _m
495 729 _l
495 646 _l
198 646 _l
198 467 _l
212 472 227 476 241 478 _c
255 480 270 482 284 482 _c
365 482 429 459 477 415 _c
525 370 549 310 549 234 _c
549 155 524 94 475 51 _c
426 8 357 -13 269 -13 _c
238 -13 207 -10 175 -6 _c
143 -1 111 6 77 17 _c
77 116 _l
106 100 136 88 168 80 _c
199 72 232 69 267 69 _c
}_e{323 69 368 83 401 113 _c
433 143 450 183 450 234 _c
450 284 433 324 401 354 _c
368 384 323 399 267 399 _c
241 399 214 396 188 390 _c
162 384 135 375 108 363 _c
108 729 _l
_cl}_e}_d
/E{632 0 98 0 568 729 _sc
98 729 _m
559 729 _l
559 646 _l
197 646 _l
197 430 _l
544 430 _l
544 347 _l
197 347 _l
197 83 _l
568 83 _l
568 0 _l
98 0 _l
98 729 _l
_cl}_d
/T{611 0 -2 0 614 729 _sc
-2 729 _m
614 729 _l
614 646 _l
355 646 _l
355 0 _l
256 0 _l
256 646 _l
-2 646 _l
-2 729 _l
_cl}_d
/underscore{500 0 -9 -235 510 -165 _sc
510 -165 _m
510 -235 _l
-9 -235 _l
-9 -165 _l
510 -165 _l
_cl}_d
/a{{613 0 60 -13 522 560 _sc
343 275 _m
270 275 220 266 192 250 _c
164 233 150 205 150 165 _c
150 133 160 107 181 89 _c
202 70 231 61 267 61 _c
317 61 357 78 387 114 _c
417 149 432 196 432 255 _c
432 275 _l
343 275 _l
522 312 _m
522 0 _l
432 0 _l
432 83 _l
411 49 385 25 355 10 _c
325 -5 287 -13 243 -13 _c
187 -13 142 2 109 33 _c
76 64 60 106 60 159 _c
}_e{60 220 80 266 122 298 _c
163 329 224 345 306 345 _c
432 345 _l
432 354 _l
432 395 418 427 391 450 _c
364 472 326 484 277 484 _c
245 484 215 480 185 472 _c
155 464 127 453 100 439 _c
100 522 _l
132 534 164 544 195 550 _c
226 556 256 560 286 560 _c
365 560 424 539 463 498 _c
502 457 522 395 522 312 _c
_cl}_e}_d
/c{{550 0 55 -13 488 560 _sc
488 526 _m
488 442 _l
462 456 437 466 411 473 _c
385 480 360 484 334 484 _c
276 484 230 465 198 428 _c
166 391 150 339 150 273 _c
150 206 166 154 198 117 _c
230 80 276 62 334 62 _c
360 62 385 65 411 72 _c
437 79 462 90 488 104 _c
488 21 _l
462 9 436 0 410 -5 _c
383 -10 354 -13 324 -13 _c
242 -13 176 12 128 64 _c
}_e{79 115 55 185 55 273 _c
55 362 79 432 128 483 _c
177 534 244 560 330 560 _c
358 560 385 557 411 551 _c
437 545 463 537 488 526 _c
_cl}_e}_d
/d{{635 0 55 -13 544 760 _sc
454 464 _m
454 760 _l
544 760 _l
544 0 _l
454 0 _l
454 82 _l
435 49 411 25 382 10 _c
353 -5 319 -13 279 -13 _c
213 -13 159 13 117 65 _c
75 117 55 187 55 273 _c
55 359 75 428 117 481 _c
159 533 213 560 279 560 _c
319 560 353 552 382 536 _c
411 520 435 496 454 464 _c
148 273 _m
148 207 161 155 188 117 _c
215 79 253 61 301 61 _c
}_e{348 61 385 79 413 117 _c
440 155 454 207 454 273 _c
454 339 440 390 413 428 _c
385 466 348 485 301 485 _c
253 485 215 466 188 428 _c
161 390 148 339 148 273 _c
_cl}_e}_d
/e{{615 0 55 -13 562 560 _sc
562 296 _m
562 252 _l
149 252 _l
153 190 171 142 205 110 _c
238 78 284 62 344 62 _c
378 62 412 66 444 74 _c
476 82 509 95 541 113 _c
541 28 _l
509 14 476 3 442 -3 _c
408 -9 373 -13 339 -13 _c
251 -13 182 12 131 62 _c
80 112 55 181 55 268 _c
55 357 79 428 127 481 _c
175 533 241 560 323 560 _c
397 560 455 536 498 489 _c
}_e{540 441 562 377 562 296 _c
472 322 _m
471 371 457 410 431 440 _c
404 469 368 484 324 484 _c
274 484 234 469 204 441 _c
174 413 156 373 152 322 _c
472 322 _l
_cl}_e}_d
/f{352 0 23 0 371 760 _sc
371 760 _m
371 685 _l
285 685 _l
253 685 230 678 218 665 _c
205 652 199 629 199 595 _c
199 547 _l
347 547 _l
347 477 _l
199 477 _l
199 0 _l
109 0 _l
109 477 _l
23 477 _l
23 547 _l
109 547 _l
109 585 _l
109 645 123 690 151 718 _c
179 746 224 760 286 760 _c
371 760 _l
_cl}_d
/g{{635 0 55 -207 544 560 _sc
454 280 _m
454 344 440 395 414 431 _c
387 467 349 485 301 485 _c
253 485 215 467 188 431 _c
161 395 148 344 148 280 _c
148 215 161 165 188 129 _c
215 93 253 75 301 75 _c
349 75 387 93 414 129 _c
440 165 454 215 454 280 _c
544 68 _m
544 -24 523 -93 482 -139 _c
440 -184 377 -207 292 -207 _c
260 -207 231 -204 203 -200 _c
175 -195 147 -188 121 -178 _c
}_e{121 -91 _l
147 -105 173 -115 199 -122 _c
225 -129 251 -133 278 -133 _c
336 -133 380 -117 410 -87 _c
439 -56 454 -10 454 52 _c
454 96 _l
435 64 411 40 382 24 _c
353 8 319 0 279 0 _c
211 0 157 25 116 76 _c
75 127 55 195 55 280 _c
55 364 75 432 116 483 _c
157 534 211 560 279 560 _c
319 560 353 552 382 536 _c
411 520 435 496 454 464 _c
454 547 _l
544 547 _l
}_e{544 68 _l
_cl}_e}_d
/i{278 0 94 0 184 760 _sc
94 547 _m
184 547 _l
184 0 _l
94 0 _l
94 547 _l
94 760 _m
184 760 _l
184 646 _l
94 646 _l
94 760 _l
_cl}_d
/l{278 0 94 0 184 760 _sc
94 760 _m
184 760 _l
184 0 _l
94 0 _l
94 760 _l
_cl}_d
/n{634 0 91 0 549 560 _sc
549 330 _m
549 0 _l
459 0 _l
459 327 _l
459 379 448 417 428 443 _c
408 469 378 482 338 482 _c
289 482 251 466 223 435 _c
195 404 181 362 181 309 _c
181 0 _l
91 0 _l
91 547 _l
181 547 _l
181 462 _l
202 494 227 519 257 535 _c
286 551 320 560 358 560 _c
420 560 468 540 500 501 _c
532 462 549 405 549 330 _c
_cl}_d
/o{612 0 55 -13 557 560 _sc
306 484 _m
258 484 220 465 192 427 _c
164 389 150 338 150 273 _c
150 207 163 156 191 118 _c
219 80 257 62 306 62 _c
354 62 392 80 420 118 _c
448 156 462 207 462 273 _c
462 337 448 389 420 427 _c
392 465 354 484 306 484 _c
306 560 _m
384 560 445 534 490 484 _c
534 433 557 363 557 273 _c
557 183 534 113 490 63 _c
445 12 384 -13 306 -13 _c
227 -13 165 12 121 63 _c
77 113 55 183 55 273 _c
55 363 77 433 121 484 _c
165 534 227 560 306 560 _c
_cl}_d
/r{411 0 91 0 411 560 _sc
411 463 _m
401 469 390 473 378 476 _c
366 478 353 480 339 480 _c
288 480 249 463 222 430 _c
194 397 181 350 181 288 _c
181 0 _l
91 0 _l
91 547 _l
181 547 _l
181 462 _l
199 495 224 520 254 536 _c
284 552 321 560 365 560 _c
371 560 378 559 386 559 _c
393 558 401 557 411 555 _c
411 463 _l
_cl}_d
/s{{521 0 54 -13 472 560 _sc
443 531 _m
443 446 _l
417 458 391 468 364 475 _c
336 481 308 485 279 485 _c
234 485 200 478 178 464 _c
156 450 145 430 145 403 _c
145 382 153 366 169 354 _c
185 342 217 330 265 320 _c
296 313 _l
360 299 405 279 432 255 _c
458 230 472 195 472 151 _c
472 100 452 60 412 31 _c
372 1 316 -13 246 -13 _c
216 -13 186 -10 154 -5 _c
}_e{122 0 89 8 54 20 _c
54 113 _l
87 95 120 82 152 74 _c
184 65 216 61 248 61 _c
290 61 323 68 346 82 _c
368 96 380 117 380 144 _c
380 168 371 187 355 200 _c
339 213 303 226 247 238 _c
216 245 _l
160 257 119 275 95 299 _c
70 323 58 356 58 399 _c
58 450 76 490 112 518 _c
148 546 200 560 268 560 _c
301 560 332 557 362 552 _c
391 547 418 540 443 531 _c
}_e{_cl}_e}_d
/t{392 0 27 0 368 702 _sc
183 702 _m
183 547 _l
368 547 _l
368 477 _l
183 477 _l
183 180 _l
183 135 189 106 201 94 _c
213 81 238 75 276 75 _c
368 75 _l
368 0 _l
276 0 _l
206 0 158 13 132 39 _c
106 65 93 112 93 180 _c
93 477 _l
27 477 _l
27 547 _l
93 547 _l
93 702 _l
183 702 _l
_cl}_d
/u{634 0 85 -13 543 547 _sc
85 216 _m
85 547 _l
175 547 _l
175 219 _l
175 167 185 129 205 103 _c
225 77 255 64 296 64 _c
344 64 383 79 411 110 _c
439 141 453 183 453 237 _c
453 547 _l
543 547 _l
543 0 _l
453 0 _l
453 84 _l
431 50 405 26 377 10 _c
348 -5 315 -13 277 -13 _c
214 -13 166 6 134 45 _c
101 83 85 140 85 216 _c
_cl}_d
/v{592 0 30 0 562 547 _sc
30 547 _m
125 547 _l
296 88 _l
467 547 _l
562 547 _l
357 0 _l
235 0 _l
30 547 _l
_cl}_d
/y{592 0 30 -207 562 547 _sc
322 -50 _m
296 -114 271 -157 247 -177 _c
223 -197 191 -207 151 -207 _c
79 -207 _l
79 -132 _l
132 -132 _l
156 -132 175 -126 189 -114 _c
203 -102 218 -75 235 -31 _c
251 9 _l
30 547 _l
125 547 _l
296 119 _l
467 547 _l
562 547 _l
322 -50 _l
_cl}_d
/minus{838 0 106 272 732 355 _sc
106 355 _m
732 355 _l
732 272 _l
106 272 _l
106 355 _l
_cl}_d
end readonly def

/BuildGlyph
 {exch begin
 CharStrings exch
 2 copy known not{pop /.notdef}if
 true 3 1 roll get exec
 end}_d

/BuildChar {
 1 index /Encoding get exch get
 1 index /BuildGlyph get exec
}_d

FontName currentdict end definefont pop
end
%%EndProlog
mpldict begin
18 180 translate
576 432 0 0 clipbox
gsave
0 0 m
576 0 l
576 432 l
0 432 l
cl
1.000 setgray
fill
grestore
gsave
72 43.2 m
518.4 43.2 l
518.4 388.8 l
72 388.8 l
cl
1.000 setgray
fill
grestore
1.500 setlinewidth
1 setlinejoin
0 setlinecap
[6 6] 0 setdash
0.000 0.000 1.000 setrgbcolor
gsave
446.4 345.6 72 43.2 clipbox
72 354.379 m
152.352 354.273 l
159.792 354.08 l
162.768 353.803 l
164.256 353.553 l
167.232 352.735 l
168.72 352.126 l
170.208 351.209 l
173.184 349.599 l
176.16 347.298 l
177.648 345.954 l
179.136 343.891 l
180.624 341.569 l
182.112 338.857 l
183.6 335.237 l
185.088 331.148 l
186.576 326.415 l
188.064 322.827 l
189.552 318.807 l
191.04 315.289 l
192.528 312.248 l
194.016 309.849 l
195.504 307.969 l
196.992 304.598 l
198.48 298.865 l
199.968 289.205 l
201.456 284.727 l
204.432 278.782 l
207.408 262.028 l
208.896 257.947 l
210.384 255.275 l
211.872 245.566 l
213.36 239.007 l
214.848 235.947 l
216.336 233.473 l
217.824 232.136 l
220.8 225.302 l
222.288 223.021 l
223.776 220.998 l
225.264 219.293 l
229.728 215.462 l
232.704 211.887 l
234.192 210.382 l
237.168 206.238 l
238.656 204.524 l
243.12 197.92 l
244.608 195.048 l
247.584 191.952 l
249.072 190.889 l
250.56 190.08 l
260.976 185.318 l
263.952 184.203 l
269.904 181.663 l
283.296 177.527 l
286.272 176.96 l
287.76 176.576 l
292.224 175.878 l
295.2 175.485 l
299.664 175.07 l
305.616 174.034 l
308.592 173.275 l
310.08 172.788 l
311.568 171.862 l
313.056 171.081 l
314.544 168.775 l
316.032 166.155 l
317.52 164.842 l
319.008 163.879 l
321.984 162.909 l
323.472 161.866 l
324.96 159.754 l
326.448 156.389 l
327.936 153.939 l
329.424 151.977 l
330.912 151.056 l
335.376 149.007 l
338.352 147.48 l
339.84 145.786 l
341.328 144.762 l
344.304 141.702 l
345.792 141.022 l
347.28 140.589 l
348.768 139.994 l
350.256 139.527 l
351.744 138.901 l
353.232 138.471 l
354.72 137.789 l
356.208 137.369 l
357.696 136.827 l
359.184 136.064 l
371.088 133.02 l
372.576 132.77 l
375.552 132.024 l
382.992 130.812 l
391.92 129.705 l
400.848 128.908 l
427.632 127.026 l
439.536 125.667 l
448.464 124.121 l
449.952 123.476 l
451.44 123.019 l
454.416 122.338 l
455.904 121.576 l
460.368 120.632 l
463.344 119.633 l
464.832 118.732 l
466.32 117.7 l
467.808 117.165 l
469.296 116.88 l
470.784 116.381 l
472.272 116.03 l
478.224 115.26 l
479.712 114.992 l
482.688 114.194 l
491.616 112.958 l
509.472 111.686 l
519.888 111.242 l
519.888 111.242 l
stroke
grestore
2 setlinecap
[] 0 setdash
1.000 0.000 0.000 setrgbcolor
gsave
446.4 345.6 72 43.2 clipbox
72 354.379 m
152.352 354.273 l
159.792 354.081 l
162.768 353.811 l
165.744 353.215 l
167.232 352.78 l
168.72 352.179 l
173.184 349.777 l
176.16 347.399 l
177.648 346.044 l
179.136 344.019 l
180.624 341.479 l
182.112 338.367 l
183.6 334.744 l
189.552 318.366 l
191.04 314.795 l
192.528 311.73 l
194.016 309.162 l
195.504 307.5 l
196.992 304.31 l
198.48 299.306 l
199.968 291.245 l
201.456 285.565 l
202.944 282.172 l
204.432 279.393 l
205.92 273.113 l
207.408 265.063 l
210.384 254.165 l
213.36 240.018 l
214.848 236.02 l
216.336 232.834 l
217.824 231.223 l
219.312 228.732 l
220.8 224.805 l
223.776 221.029 l
225.264 219.45 l
226.752 217.417 l
228.24 215.771 l
229.728 214.451 l
232.704 211.228 l
235.68 206.869 l
237.168 204.468 l
238.656 202.811 l
240.144 200.526 l
244.608 192.958 l
246.096 191.325 l
247.584 190.073 l
249.072 189.045 l
256.512 184.968 l
263.952 181.778 l
268.416 180.218 l
269.904 179.571 l
272.88 178.807 l
275.856 178.138 l
278.832 177.201 l
284.784 175.668 l
304.128 172.604 l
307.104 171.583 l
310.08 170.498 l
311.568 170.088 l
313.056 169.519 l
314.544 168.269 l
317.52 164.24 l
319.008 163.131 l
320.496 162.626 l
321.984 161.941 l
323.472 160.486 l
324.96 158.362 l
326.448 155.457 l
327.936 152.811 l
329.424 150.686 l
330.912 150.156 l
335.376 147.569 l
338.352 144.421 l
339.84 142.89 l
342.816 140.316 l
344.304 139.735 l
347.28 138.031 l
350.256 136.654 l
351.744 135.842 l
353.232 135.184 l
354.72 134.331 l
365.136 130.526 l
371.088 128.713 l
375.552 127.656 l
378.528 126.866 l
381.504 126.412 l
388.944 125.404 l
396.384 124.657 l
415.728 123.172 l
418.704 122.857 l
424.656 121.809 l
430.608 120.581 l
435.072 119.748 l
442.512 117.546 l
446.976 115.749 l
448.464 115.389 l
449.952 114.711 l
451.44 113.898 l
457.392 111.14 l
458.88 110.158 l
461.856 108.948 l
466.32 108.034 l
467.808 107.57 l
472.272 106.541 l
473.76 106.072 l
479.712 104.831 l
484.176 104.111 l
503.52 102.364 l
515.424 101.703 l
519.888 101.51 l
519.888 101.51 l
stroke
grestore
0.000 0.502 0.000 setrgbcolor
gsave
446.4 345.6 72 43.2 clipbox
72 354.379 m
138.96 353.721 l
152.352 353.426 l
159.792 353.07 l
162.768 352.751 l
165.744 352.115 l
167.232 351.636 l
168.72 351.022 l
171.696 349.329 l
173.184 348.404 l
174.672 347.27 l
177.648 344.399 l
179.136 342.501 l
180.624 339.736 l
182.112 336.718 l
183.6 333.183 l
185.088 329.24 l
188.064 320.523 l
189.552 316.663 l
191.04 313.428 l
194.016 307.687 l
195.504 305.869 l
196.992 302.936 l
198.48 295.979 l
199.968 287.312 l
201.456 282.813 l
202.944 279.276 l
204.432 276.371 l
205.92 267.629 l
207.408 259.703 l
208.896 254.519 l
210.384 252.028 l
211.872 244.109 l
213.36 238.22 l
214.848 233.323 l
217.824 227.417 l
222.288 216.375 l
223.776 214.142 l
225.264 212.122 l
226.752 209.79 l
231.216 203.537 l
232.704 200.995 l
234.192 198.878 l
241.632 189.2 l
243.12 186.841 l
244.608 184.935 l
246.096 183.528 l
249.072 181.276 l
252.048 179.2 l
255.024 177.274 l
260.976 173.671 l
268.416 169.252 l
272.88 166.973 l
278.832 164.544 l
281.808 163.634 l
290.736 161.584 l
295.2 160.666 l
302.64 158.897 l
305.616 157.914 l
308.592 156.619 l
311.568 154.96 l
314.544 153.042 l
316.032 151.418 l
319.008 147.78 l
320.496 146.487 l
321.984 145.51 l
323.472 144.137 l
326.448 139.091 l
327.936 136.274 l
329.424 134.737 l
330.912 133.763 l
332.4 133.002 l
333.888 131.935 l
335.376 130.413 l
336.864 129.051 l
338.352 127.055 l
341.328 123.972 l
342.816 122.642 l
344.304 121.469 l
348.768 118.42 l
351.744 116.698 l
353.232 115.711 l
359.184 112.426 l
362.16 111.273 l
363.648 110.503 l
368.112 108.618 l
378.528 105.131 l
382.992 103.913 l
385.968 103.238 l
409.776 98.8088 l
420.192 96.3326 l
424.656 95.1048 l
430.608 93.3273 l
433.584 92.3799 l
444 88.4814 l
448.464 87.1702 l
451.44 85.8993 l
457.392 82.7091 l
460.368 81.5193 l
464.832 80.0636 l
475.248 76.2891 l
484.176 73.8851 l
488.64 72.8795 l
496.08 71.5233 l
507.984 69.6623 l
519.888 68.1735 l
519.888 68.1735 l
stroke
grestore
1.000 setlinewidth
0 setlinejoin
0.000 setgray
gsave
72 388.8 m
518.4 388.8 l
stroke
grestore
gsave
518.4 43.2 m
518.4 388.8 l
stroke
grestore
gsave
72 43.2 m
518.4 43.2 l
stroke
grestore
gsave
72 43.2 m
72 388.8 l
stroke
grestore
0.500 setlinewidth
1 setlinejoin
0 setlinecap
gsave
/o {
gsave
newpath
translate
0.5 setlinewidth
1 setlinejoin
0 setlinecap
0 0 m
0 4 l
gsave
0.000 setgray
fill
grestore
stroke
grestore
} bind def
72 43.2 o
grestore
gsave
/o {
gsave
newpath
translate
0.5 setlinewidth
1 setlinejoin
0 setlinecap
0 0 m
0 -4 l
gsave
0.000 setgray
fill
grestore
stroke
grestore
} bind def
72 388.8 o
grestore
/BitstreamVeraSans-Roman findfont
12.000 scalefont
setfont
gsave
68.976562 30.075000 translate
0.000000 rotate
0.000000 0.000000 m /zero glyphshow
grestore
gsave
/o {
gsave
newpath
translate
0.5 setlinewidth
1 setlinejoin
0 setlinecap
0 0 m
0 4 l
gsave
0.000 setgray
fill
grestore
stroke
grestore
} bind def
161.28 43.2 o
grestore
gsave
/o {
gsave
newpath
translate
0.5 setlinewidth
1 setlinejoin
0 setlinecap
0 0 m
0 -4 l
gsave
0.000 setgray
fill
grestore
stroke
grestore
} bind def
161.28 388.8 o
grestore
gsave
158.444062 30.075000 translate
0.000000 rotate
0.000000 0.000000 m /five glyphshow
grestore
gsave
/o {
gsave
newpath
translate
0.5 setlinewidth
1 setlinejoin
0 setlinecap
0 0 m
0 4 l
gsave
0.000 setgray
fill
grestore
stroke
grestore
} bind def
250.56 43.2 o
grestore
gsave
/o {
gsave
newpath
translate
0.5 setlinewidth
1 setlinejoin
0 setlinecap
0 0 m
0 -4 l
gsave
0.000 setgray
fill
grestore
stroke
grestore
} bind def
250.56 388.8 o
grestore
gsave
243.974062 30.075000 translate
0.000000 rotate
0.000000 0.000000 m /one glyphshow
7.634766 0.000000 m /zero glyphshow
grestore
gsave
/o {
gsave
newpath
translate
0.5 setlinewidth
1 setlinejoin
0 setlinecap
0 0 m
0 4 l
gsave
0.000 setgray
fill
grestore
stroke
grestore
} bind def
339.84 43.2 o
grestore
gsave
/o {
gsave
newpath
translate
0.5 setlinewidth
1 setlinejoin
0 setlinecap
0 0 m
0 -4 l
gsave
0.000 setgray
fill
grestore
stroke
grestore
} bind def
339.84 388.8 o
grestore
gsave
333.379062 30.075000 translate
0.000000 rotate
0.000000 0.000000 m /one glyphshow
7.634766 0.000000 m /five glyphshow
grestore
gsave
/o {
gsave
newpath
translate
0.5 setlinewidth
1 setlinejoin
0 setlinecap
0 0 m
0 4 l
gsave
0.000 setgray
fill
grestore
stroke
grestore
} bind def
429.12 43.2 o
grestore
gsave
/o {
gsave
newpath
translate
0.5 setlinewidth
1 setlinejoin
0 setlinecap
0 0 m
0 -4 l
gsave
0.000 setgray
fill
grestore
stroke
grestore
} bind def
429.12 388.8 o
grestore
gsave
422.315312 30.075000 translate
0.000000 rotate
0.000000 0.000000 m /two glyphshow
7.634766 0.000000 m /zero glyphshow
grestore
gsave
/o {
gsave
newpath
translate
0.5 setlinewidth
1 setlinejoin
0 setlinecap
0 0 m
0 4 l
gsave
0.000 setgray
fill
grestore
stroke
grestore
} bind def
518.4 43.2 o
grestore
gsave
/o {
gsave
newpath
translate
0.5 setlinewidth
1 setlinejoin
0 setlinecap
0 0 m
0 -4 l
gsave
0.000 setgray
fill
grestore
stroke
grestore
} bind def
518.4 388.8 o
grestore
gsave
511.720312 30.075000 translate
0.000000 rotate
0.000000 0.000000 m /two glyphshow
7.634766 0.000000 m /five glyphshow
grestore
/BitstreamVeraSans-Roman findfont
20.000 scalefont
setfont
gsave
257.551562 7.371875 translate
0.000000 rotate
0.000000 0.000000 m /t glyphshow
7.841797 0.000000 m /space glyphshow
14.199219 0.000000 m /parenleft glyphshow
22.001953 0.000000 m /d glyphshow
34.697266 0.000000 m /a glyphshow
46.953125 0.000000 m /y glyphshow
58.789062 0.000000 m /s glyphshow
69.208984 0.000000 m /parenright glyphshow
grestore
gsave
/o {
gsave
newpath
translate
0.5 setlinewidth
1 setlinejoin
0 setlinecap
0 0 m
4 0 l
gsave
0.000 setgray
fill
grestore
stroke
grestore
} bind def
72 43.2 o
grestore
gsave
/o {
gsave
newpath
translate
0.5 setlinewidth
1 setlinejoin
0 setlinecap
0 0 m
-4 0 l
gsave
0.000 setgray
fill
grestore
stroke
grestore
} bind def
518.4 43.2 o
grestore
/BitstreamVeraSans-Roman findfont
12.000 scalefont
setfont
gsave
41.156250 39.887500 translate
0.000000 rotate
0.000000 0.000000 m /minus glyphshow
10.054688 0.000000 m /three glyphshow
17.689453 0.000000 m /period glyphshow
21.503906 0.000000 m /five glyphshow
grestore
gsave
/o {
gsave
newpath
translate
0.5 setlinewidth
1 setlinejoin
0 setlinecap
0 0 m
4 0 l
gsave
0.000 setgray
fill
grestore
stroke
grestore
} bind def
72 86.4 o
grestore
gsave
/o {
gsave
newpath
translate
0.5 setlinewidth
1 setlinejoin
0 setlinecap
0 0 m
-4 0 l
gsave
0.000 setgray
fill
grestore
stroke
grestore
} bind def
518.4 86.4 o
grestore
gsave
40.906250 83.087500 translate
0.000000 rotate
0.000000 0.000000 m /minus glyphshow
10.054688 0.000000 m /three glyphshow
17.689453 0.000000 m /period glyphshow
21.503906 0.000000 m /zero glyphshow
grestore
gsave
/o {
gsave
newpath
translate
0.5 setlinewidth
1 setlinejoin
0 setlinecap
0 0 m
4 0 l
gsave
0.000 setgray
fill
grestore
stroke
grestore
} bind def
72 129.6 o
grestore
gsave
/o {
gsave
newpath
translate
0.5 setlinewidth
1 setlinejoin
0 setlinecap
0 0 m
-4 0 l
gsave
0.000 setgray
fill
grestore
stroke
grestore
} bind def
518.4 129.6 o
grestore
gsave
41.156250 126.287500 translate
0.000000 rotate
0.000000 0.000000 m /minus glyphshow
10.054688 0.000000 m /two glyphshow
17.689453 0.000000 m /period glyphshow
21.503906 0.000000 m /five glyphshow
grestore
gsave
/o {
gsave
newpath
translate
0.5 setlinewidth
1 setlinejoin
0 setlinecap
0 0 m
4 0 l
gsave
0.000 setgray
fill
grestore
stroke
grestore
} bind def
72 172.8 o
grestore
gsave
/o {
gsave
newpath
translate
0.5 setlinewidth
1 setlinejoin
0 setlinecap
0 0 m
-4 0 l
gsave
0.000 setgray
fill
grestore
stroke
grestore
} bind def
518.4 172.8 o
grestore
gsave
40.906250 169.487500 translate
0.000000 rotate
0.000000 0.000000 m /minus glyphshow
10.054688 0.000000 m /two glyphshow
17.689453 0.000000 m /period glyphshow
21.503906 0.000000 m /zero glyphshow
grestore
gsave
/o {
gsave
newpath
translate
0.5 setlinewidth
1 setlinejoin
0 setlinecap
0 0 m
4 0 l
gsave
0.000 setgray
fill
grestore
stroke
grestore
} bind def
72 216 o
grestore
gsave
/o {
gsave
newpath
translate
0.5 setlinewidth
1 setlinejoin
0 setlinecap
0 0 m
-4 0 l
gsave
0.000 setgray
fill
grestore
stroke
grestore
} bind def
518.4 216 o
grestore
gsave
41.156250 212.687500 translate
0.000000 rotate
0.000000 0.000000 m /minus glyphshow
10.054688 0.000000 m /one glyphshow
17.689453 0.000000 m /period glyphshow
21.503906 0.000000 m /five glyphshow
grestore
gsave
/o {
gsave
newpath
translate
0.5 setlinewidth
1 setlinejoin
0 setlinecap
0 0 m
4 0 l
gsave
0.000 setgray
fill
grestore
stroke
grestore
} bind def
72 259.2 o
grestore
gsave
/o {
gsave
newpath
translate
0.5 setlinewidth
1 setlinejoin
0 setlinecap
0 0 m
-4 0 l
gsave
0.000 setgray
fill
grestore
stroke
grestore
} bind def
518.4 259.2 o
grestore
gsave
40.906250 255.887500 translate
0.000000 rotate
0.000000 0.000000 m /minus glyphshow
10.054688 0.000000 m /one glyphshow
17.689453 0.000000 m /period glyphshow
21.503906 0.000000 m /zero glyphshow
grestore
gsave
/o {
gsave
newpath
translate
0.5 setlinewidth
1 setlinejoin
0 setlinecap
0 0 m
4 0 l
gsave
0.000 setgray
fill
grestore
stroke
grestore
} bind def
72 302.4 o
grestore
gsave
/o {
gsave
newpath
translate
0.5 setlinewidth
1 setlinejoin
0 setlinecap
0 0 m
-4 0 l
gsave
0.000 setgray
fill
grestore
stroke
grestore
} bind def
518.4 302.4 o
grestore
gsave
41.156250 299.087500 translate
0.000000 rotate
0.000000 0.000000 m /minus glyphshow
10.054688 0.000000 m /zero glyphshow
17.689453 0.000000 m /period glyphshow
21.503906 0.000000 m /five glyphshow
grestore
gsave
/o {
gsave
newpath
translate
0.5 setlinewidth
1 setlinejoin
0 setlinecap
0 0 m
4 0 l
gsave
0.000 setgray
fill
grestore
stroke
grestore
} bind def
72 345.6 o
grestore
gsave
/o {
gsave
newpath
translate
0.5 setlinewidth
1 setlinejoin
0 setlinecap
0 0 m
-4 0 l
gsave
0.000 setgray
fill
grestore
stroke
grestore
} bind def
518.4 345.6 o
grestore
gsave
50.500000 342.287500 translate
0.000000 rotate
0.000000 0.000000 m /zero glyphshow
7.634766 0.000000 m /period glyphshow
11.449219 0.000000 m /zero glyphshow
grestore
gsave
/o {
gsave
newpath
translate
0.5 setlinewidth
1 setlinejoin
0 setlinecap
0 0 m
4 0 l
gsave
0.000 setgray
fill
grestore
stroke
grestore
} bind def
72 388.8 o
grestore
gsave
/o {
gsave
newpath
translate
0.5 setlinewidth
1 setlinejoin
0 setlinecap
0 0 m
-4 0 l
gsave
0.000 setgray
fill
grestore
stroke
grestore
} bind def
518.4 388.8 o
grestore
gsave
50.750000 385.487500 translate
0.000000 rotate
0.000000 0.000000 m /zero glyphshow
7.634766 0.000000 m /period glyphshow
11.449219 0.000000 m /five glyphshow
grestore
/BitstreamVeraSans-Roman findfont
20.000 scalefont
setfont
gsave
31.750000 154.718750 translate
90.000000 rotate
0.000000 0.000000 m /T glyphshow
8.841797 0.000000 m /o glyphshow
21.078125 0.000000 m /t glyphshow
28.919922 0.000000 m /a glyphshow
41.175781 0.000000 m /l glyphshow
46.732422 0.000000 m /space glyphshow
53.089844 0.000000 m /E glyphshow
65.726562 0.000000 m /n glyphshow
78.402344 0.000000 m /e glyphshow
90.707031 0.000000 m /r glyphshow
98.554688 0.000000 m /g glyphshow
111.250000 0.000000 m /y glyphshow
grestore
/BitstreamVeraSans-Roman findfont
12.000 scalefont
setfont
gsave
72.000000 391.800000 translate
0.000000 rotate
0.000000 0.000000 m /one glyphshow
7.634766 0.000000 m /e glyphshow
15.017578 0.000000 m /one glyphshow
22.652344 0.000000 m /two glyphshow
grestore
/BitstreamVeraSans-Roman findfont
20.000 scalefont
setfont
gsave
202.192187 393.800000 translate
0.000000 rotate
0.000000 0.000000 m /E glyphshow
12.636719 0.000000 m /a glyphshow
24.892578 0.000000 m /d glyphshow
37.587891 0.000000 m /y glyphshow
49.423828 0.000000 m /space glyphshow
55.781250 0.000000 m /d glyphshow
68.476562 0.000000 m /i glyphshow
74.033203 0.000000 m /f glyphshow
81.074219 0.000000 m /f glyphshow
88.115234 0.000000 m /u glyphshow
100.791016 0.000000 m /s glyphshow
111.210938 0.000000 m /i glyphshow
116.767578 0.000000 m /o glyphshow
129.003906 0.000000 m /n glyphshow
141.679688 0.000000 m /space glyphshow
148.037109 0.000000 m /t glyphshow
155.878906 0.000000 m /e glyphshow
168.183594 0.000000 m /s glyphshow
178.603516 0.000000 m /t glyphshow
grestore
1.000 setlinewidth
0 setlinejoin
gsave
407.181 336.222 m
513.4 336.222 l
513.4 383.8 l
407.181 383.8 l
cl
gsave
1.000 setgray
fill
grestore
stroke
grestore
1.500 setlinewidth
1 setlinejoin
[6 6] 0 setdash
0.000 0.000 1.000 setrgbcolor
gsave
414.181 375.706 m
428.181 375.706 l
stroke
grestore
0.000 setgray
/BitstreamVeraSans-Roman findfont
10.000 scalefont
setfont
gsave
439.181250 372.206250 translate
0.000000 rotate
0.000000 0.000000 m /s glyphshow
5.209961 0.000000 m /t glyphshow
9.130859 0.000000 m /a glyphshow
15.258789 0.000000 m /n glyphshow
21.596680 0.000000 m /d glyphshow
27.944336 0.000000 m /a glyphshow
34.072266 0.000000 m /r glyphshow
38.058594 0.000000 m /d glyphshow
grestore
2 setlinecap
[] 0 setdash
1.000 0.000 0.000 setrgbcolor
gsave
414.181 361.034 m
428.181 361.034 l
stroke
grestore
0.000 setgray
gsave
439.181250 357.534375 translate
0.000000 rotate
0.000000 0.000000 m /d glyphshow
6.347656 0.000000 m /i glyphshow
9.125977 0.000000 m /f glyphshow
12.646484 0.000000 m /f glyphshow
16.166992 0.000000 m /u glyphshow
22.504883 0.000000 m /underscore glyphshow
27.504883 0.000000 m /v glyphshow
33.422852 0.000000 m /t glyphshow
37.343750 0.000000 m /r glyphshow
41.205078 0.000000 m /e glyphshow
47.357422 0.000000 m /s glyphshow
grestore
0.000 0.502 0.000 setrgbcolor
gsave
414.181 346.081 m
428.181 346.081 l
stroke
grestore
0.000 setgray
gsave
439.181250 342.581250 translate
0.000000 rotate
0.000000 0.000000 m /d glyphshow
6.347656 0.000000 m /i glyphshow
9.125977 0.000000 m /f glyphshow
12.646484 0.000000 m /f glyphshow
16.166992 0.000000 m /u glyphshow
22.504883 0.000000 m /underscore glyphshow
27.504883 0.000000 m /c glyphshow
33.002930 0.000000 m /o glyphshow
39.121094 0.000000 m /n glyphshow
45.458984 0.000000 m /s glyphshow
50.668945 0.000000 m /t glyphshow
54.589844 0.000000 m /a glyphshow
60.717773 0.000000 m /n glyphshow
67.055664 0.000000 m /t glyphshow
grestore

end
showpage
